%!PS-Adobe-3.0 EPSF-3.0
%%Creator: cairo 1.14.1 (http://cairographics.org)
%%CreationDate: Wed May 25 20:14:14 2016
%%Pages: 1
%%DocumentData: Clean7Bit
%%LanguageLevel: 2
%%BoundingBox: 0 6 243 216
%%EndComments
%%BeginProlog
save
50 dict begin
/q { gsave } bind def
/Q { grestore } bind def
/cm { 6 array astore concat } bind def
/w { setlinewidth } bind def
/J { setlinecap } bind def
/j { setlinejoin } bind def
/M { setmiterlimit } bind def
/d { setdash } bind def
/m { moveto } bind def
/l { lineto } bind def
/c { curveto } bind def
/h { closepath } bind def
/re { exch dup neg 3 1 roll 5 3 roll moveto 0 rlineto
      0 exch rlineto 0 rlineto closepath } bind def
/S { stroke } bind def
/f { fill } bind def
/f* { eofill } bind def
/n { newpath } bind def
/W { clip } bind def
/W* { eoclip } bind def
/BT { } bind def
/ET { } bind def
/pdfmark where { pop globaldict /?pdfmark /exec load put }
    { globaldict begin /?pdfmark /pop load def /pdfmark
    /cleartomark load def end } ifelse
/BDC { mark 3 1 roll /BDC pdfmark } bind def
/EMC { mark /EMC pdfmark } bind def
/cairo_store_point { /cairo_point_y exch def /cairo_point_x exch def } def
/Tj { show currentpoint cairo_store_point } bind def
/TJ {
  {
    dup
    type /stringtype eq
    { show } { -0.001 mul 0 cairo_font_matrix dtransform rmoveto } ifelse
  } forall
  currentpoint cairo_store_point
} bind def
/cairo_selectfont { cairo_font_matrix aload pop pop pop 0 0 6 array astore
    cairo_font exch selectfont cairo_point_x cairo_point_y moveto } bind def
/Tf { pop /cairo_font exch def /cairo_font_matrix where
      { pop cairo_selectfont } if } bind def
/Td { matrix translate cairo_font_matrix matrix concatmatrix dup
      /cairo_font_matrix exch def dup 4 get exch 5 get cairo_store_point
      /cairo_font where { pop cairo_selectfont } if } bind def
/Tm { 2 copy 8 2 roll 6 array astore /cairo_font_matrix exch def
      cairo_store_point /cairo_font where { pop cairo_selectfont } if } bind def
/g { setgray } bind def
/rg { setrgbcolor } bind def
/d1 { setcachedevice } bind def
%%EndProlog
%%BeginSetup
%%EndSetup
%%Page: 1 1
%%BeginPageSetup
%%PageBoundingBox: 0 6 243 216
%%EndPageSetup
q 0 6 243 210 rectclip q
0 g
0.73326 w
1 J
1 j
[] 0.0 d
3 M q 0.214894 -1 -1 -0.214894 0 216 cm
25.925 -80.487 m 26.281 -80.489 l 39.722 -80.487 l S Q
83.223 208.898 m 82.938 210.223 83.781 211.527 85.105 211.813 c 86.43 212.098
 87.734 211.254 88.02 209.93 c 88.301 208.605 87.461 207.301 86.137 207.016
 c 84.813 206.734 83.508 207.574 83.223 208.898 c h
83.223 208.898 m f*
91.938 191.691 m 92.223 190.367 91.379 189.063 90.055 188.777 c 88.73 188.492
 87.426 189.336 87.141 190.66 c 86.855 191.984 87.699 193.289 89.023 193.574
 c 90.348 193.859 91.652 193.016 91.938 191.691 c h
91.938 191.691 m f*
0.67082 w
q 1 -0.500001 -0.500001 -1 0 216 cm
83.427 -15.959 m 83.75 -15.961 l 97.364 -15.959 l S Q
88.441 188.988 m 87.227 189.594 86.738 191.066 87.344 192.277 c 87.949 
193.488 89.422 193.98 90.633 193.375 c 91.844 192.77 92.336 191.297 91.73
 190.086 c 91.125 188.875 89.652 188.383 88.441 188.988 c h
88.441 188.988 m f*
108.633 184.375 m 109.844 183.77 110.336 182.297 109.73 181.086 c 109.125
 179.875 107.652 179.383 106.441 179.988 c 105.23 180.594 104.738 182.066
 105.344 183.277 c 105.949 184.488 107.422 184.98 108.633 184.375 c h
108.633 184.375 m f*
0.737153 w
q -1 -0.187506 -0.187506 1 0 216 cm
-95.702 -52.152 m -95.346 -52.151 l -64.17 -52.153 l S Q
107.086 184.59 m 108.418 184.84 109.699 183.961 109.949 182.629 c 110.195
 181.301 109.32 180.02 107.988 179.77 c 106.656 179.52 105.375 180.395 105.125
 181.727 c 104.875 183.059 105.754 184.34 107.086 184.59 c h
107.086 184.59 m f*
71.992 173.02 m 70.66 172.77 69.379 173.645 69.129 174.977 c 68.879 176.309
 69.758 177.59 71.086 177.84 c 72.418 178.09 73.699 177.211 73.949 175.879
 c 74.199 174.551 73.324 173.27 71.992 173.02 c h
71.992 173.02 m f*
0.6103 w
q 0.714286 -1 -1 -0.714286 0 216 cm
62.4 -28.183 m 62.694 -28.184 l 74.451 -28.184 l S Q
69.543 174.008 m 68.754 175.109 69.008 176.641 70.113 177.43 c 71.215 178.215
 72.746 177.961 73.531 176.859 c 74.32 175.754 74.066 174.223 72.965 173.438
 c 71.859 172.648 70.328 172.906 69.543 174.008 c h
69.543 174.008 m f*
84.781 161.109 m 85.57 160.008 85.316 158.473 84.211 157.688 c 83.109 156.898
 81.578 157.156 80.793 158.258 c 80.004 159.359 80.258 160.891 81.363 161.68
 c 82.465 162.465 83.996 162.211 84.781 161.109 c h
84.781 161.109 m f*
0.738908 w
q -1 -0.173917 -0.173917 1 0 216 cm
-68.789 -68.639 m -68.433 -68.64 l -47.39 -68.64 l S Q
82.367 162.098 m 83.703 162.332 84.973 161.438 85.207 160.102 c 85.438 
158.77 84.543 157.496 83.211 157.266 c 81.875 157.035 80.605 157.926 80.371
 159.262 c 80.141 160.598 81.035 161.867 82.367 162.098 c h
82.367 162.098 m f*
57.332 152.766 m 56 152.535 54.727 153.426 54.496 154.762 c 54.266 156.098
 55.156 157.367 56.492 157.598 c 57.828 157.828 59.098 156.938 59.328 155.602
 c 59.563 154.266 58.668 152.996 57.332 152.766 c h
57.332 152.766 m f*
0.624038 w
q -1 0.666665 0.666665 1 0 216 cm
-65.734 -15.838 m -65.434 -15.838 l -52.637 -15.838 l S Q
58.277 157.219 m 59.402 156.465 59.707 154.945 58.957 153.816 c 58.203 
152.691 56.684 152.387 55.555 153.137 c 54.43 153.887 54.125 155.41 54.875
 156.539 c 55.625 157.664 57.148 157.969 58.277 157.219 c h
58.277 157.219 m f*
38.676 164.391 m 37.551 165.141 37.246 166.664 37.996 167.789 c 38.746 
168.918 40.27 169.223 41.398 168.469 c 42.523 167.719 42.828 166.195 42.078
 165.07 c 41.328 163.941 39.805 163.637 38.676 164.391 c h
38.676 164.391 m f*
q -0.666665 -1 -1 0.666665 0 216 cm
17.58 -50.599 m 17.88 -50.6 l 27.299 -50.598 l S Q
38 167.789 m 38.75 168.914 40.273 169.219 41.398 168.469 c 42.527 167.719
 42.832 166.195 42.082 165.066 c 41.328 163.941 39.805 163.637 38.68 164.387
 c 37.551 165.141 37.246 166.66 38 167.789 c h
38 167.789 m f*
33.082 151.566 m 32.328 150.441 30.805 150.137 29.68 150.887 c 28.551 151.641
 28.246 153.16 29 154.289 c 29.75 155.414 31.273 155.719 32.398 154.969 
c 33.527 154.219 33.832 152.695 33.082 151.566 c h
33.082 151.566 m f*
0.53033 w
q 1 -1 -1 -1 0 216 cm
48.531 16.016 m 58.539 16.016 l S Q
29.305 151.199 m 28.344 152.156 28.344 153.707 29.305 154.668 c 30.262 
155.625 31.813 155.625 32.77 154.668 c 33.73 153.707 33.73 152.156 32.77
 151.199 c 31.813 150.238 30.262 150.238 29.305 151.199 c h
29.305 151.199 m f*
45.992 141.445 m 46.949 140.488 46.949 138.938 45.992 137.98 c 45.031 137.02
 43.48 137.02 42.523 137.98 c 41.566 138.938 41.566 140.488 42.523 141.445
 c 43.48 142.406 45.031 142.406 45.992 141.445 c h
45.992 141.445 m f*
0.75 w
42.168 139.715 m 24.488 139.715 l S
44.262 142.168 m 45.613 142.168 46.715 141.07 46.715 139.715 c 46.715 138.359
 45.613 137.262 44.262 137.262 c 42.906 137.262 41.809 138.359 41.809 139.715
 c 41.809 141.07 42.906 142.168 44.262 142.168 c h
44.262 142.168 m f*
22.035 137.262 m 20.68 137.262 19.582 138.359 19.582 139.715 c 19.582 141.07
 20.68 142.168 22.035 142.168 c 23.391 142.168 24.488 141.07 24.488 139.715
 c 24.488 138.359 23.391 137.262 22.035 137.262 c h
22.035 137.262 m f*
0.629459 w
q -1 -0.647821 -0.647821 1 0 216 cm
21.038 -63.793 m 21.343 -63.795 l 32.151 -63.793 l S Q
20.711 141.773 m 21.848 142.508 23.367 142.184 24.102 141.047 c 24.84 139.91
 24.516 138.391 23.379 137.656 c 22.242 136.918 20.723 137.242 19.984 138.379
 c 19.25 139.516 19.574 141.035 20.711 141.773 c h
20.711 141.773 m f*
8.449 127.984 m 7.313 127.25 5.797 127.574 5.059 128.711 c 4.324 129.848
 4.648 131.367 5.785 132.102 c 6.922 132.84 8.438 132.516 9.176 131.379 
c 9.91 130.242 9.586 128.723 8.449 127.984 c h
8.449 127.984 m f*
0.66984 w
q 1 -0.50365 -0.50365 -1 0 216 cm
47.261 84.514 m 47.582 84.516 l 66.918 84.516 l S Q
1.723 106.434 m 0.512 107.043 0.027 108.516 0.637 109.727 c 1.246 110.938
 2.719 111.422 3.93 110.813 c 5.137 110.203 5.625 108.73 5.016 107.52 c 
4.406 106.313 2.934 105.824 1.723 106.434 c h
1.723 106.434 m f*
27.645 98.871 m 28.855 98.262 29.344 96.785 28.734 95.574 c 28.125 94.367
 26.648 93.879 25.438 94.488 c 24.23 95.098 23.742 96.574 24.352 97.781 
c 24.961 98.992 26.438 99.48 27.645 98.871 c h
27.645 98.871 m f*
0.53033 w
q -1 -1 -1 1 0 216 cm
47.867 -72.93 m 48.123 -72.928 l 55.908 -72.928 l S Q
24.805 98.418 m 25.766 99.375 27.316 99.375 28.273 98.418 c 29.234 97.461
 29.234 95.906 28.273 94.949 c 27.316 93.992 25.766 93.992 24.805 94.949
 c 23.848 95.906 23.848 97.461 24.805 98.418 c h
24.805 98.418 m f*
17.02 83.695 m 16.063 82.738 14.512 82.738 13.555 83.695 c 12.594 84.656
 12.594 86.207 13.555 87.164 c 14.512 88.121 16.063 88.121 17.02 87.164 
c 17.98 86.207 17.98 84.656 17.02 83.695 c h
17.02 83.695 m f*
0.75 w
q 0 -1 -1 0 0 216 cm
132.66 -15.289 m 152.871 -15.289 l S Q
12.836 85.434 m 12.836 86.789 13.934 87.887 15.289 87.887 c 16.645 87.887
 17.742 86.789 17.742 85.434 c 17.742 84.078 16.645 82.98 15.289 82.98 c
 13.934 82.98 12.836 84.078 12.836 85.434 c h
12.836 85.434 m f*
17.742 60.68 m 17.742 59.324 16.645 58.227 15.289 58.227 c 13.934 58.227
 12.836 59.324 12.836 60.68 c 12.836 62.031 13.934 63.129 15.289 63.129 
c 16.645 63.129 17.742 62.031 17.742 60.68 c h
17.742 60.68 m f*
0.73214 w
q 1 -0.222222 -0.222222 -1 0 216 cm
49.5 144.773 m 49.852 144.773 l 65.317 144.774 l S Q
14.754 58.285 m 13.434 58.582 12.598 59.891 12.891 61.211 c 13.188 62.535
 14.496 63.367 15.82 63.074 c 17.141 62.781 17.973 61.473 17.68 60.148 c
 17.387 58.828 16.078 57.992 14.754 58.285 c h
14.754 58.285 m f*
36.07 58.574 m 37.391 58.281 38.227 56.973 37.93 55.648 c 37.637 54.328
 36.328 53.492 35.004 53.785 c 33.684 54.082 32.848 55.391 33.145 56.711
 c 33.438 58.035 34.746 58.867 36.07 58.574 c h
36.07 58.574 m f*
0.685359 w
q 0.444445 -1 -1 -0.444445 0 216 cm
148.558 29.639 m 148.887 29.637 l 164.659 29.639 l S Q
33.297 55.188 m 32.746 56.426 33.305 57.875 34.543 58.426 c 35.781 58.973
 37.23 58.418 37.777 57.18 c 38.328 55.941 37.773 54.492 36.535 53.941 c
 35.297 53.391 33.848 53.949 33.297 55.188 c h
33.297 55.188 m f*
46.781 36.926 m 47.332 35.688 46.773 34.238 45.535 33.688 c 44.297 33.137
 42.848 33.695 42.301 34.934 c 41.75 36.168 42.305 37.617 43.543 38.168 
c 44.781 38.719 46.23 38.16 46.781 36.926 c h
46.781 36.926 m f*
0.673495 w
q 0.489992 -1 -1 -0.489992 0 216 cm
164.68 35.235 m 165.005 35.234 l 180.056 35.234 l S Q
42.336 34.855 m 41.738 36.07 42.242 37.539 43.457 38.137 c 44.676 38.73
 46.145 38.227 46.742 37.012 c 47.336 35.797 46.832 34.328 45.617 33.73 
c 44.402 33.133 42.934 33.637 42.336 34.855 c h
42.336 34.855 m f*
56.273 17.559 m 56.871 16.34 56.367 14.871 55.148 14.277 c 53.934 13.68
 52.465 14.184 51.867 15.398 c 51.273 16.613 51.777 18.086 52.992 18.68 
c 54.207 19.277 55.676 18.773 56.273 17.559 c h
56.273 17.559 m f*
0.678805 w
q 1 0.469859 0.469859 -1 0 216 cm
-30.609 184.255 m -30.285 184.255 l -17.249 184.255 l S Q
55.113 14.254 m 53.887 13.676 52.426 14.203 51.852 15.43 c 51.273 16.656
 51.801 18.117 53.027 18.691 c 54.254 19.27 55.715 18.742 56.289 17.516 
c 56.867 16.289 56.34 14.828 55.113 14.254 c h
55.113 14.254 m f*
70.5 26.902 m 71.727 27.477 73.188 26.949 73.762 25.727 c 74.34 24.5 73.813
 23.039 72.586 22.461 c 71.359 21.887 69.898 22.414 69.324 23.641 c 68.746
 24.863 69.273 26.324 70.5 26.902 c h
70.5 26.902 m f*
0.624038 w
q -0.666665 1 1 0.666665 0 216 cm
-163.735 -38.777 m -163.434 -38.776 l -154.017 -38.775 l S Q
73.582 26.035 m 74.332 24.906 74.027 23.383 72.902 22.633 c 71.773 21.883
 70.254 22.188 69.5 23.313 c 68.75 24.441 69.055 25.965 70.18 26.715 c 71.309
 27.465 72.832 27.16 73.582 26.035 c h
73.582 26.035 m f*
60.5 36.813 m 59.75 37.941 60.055 39.465 61.18 40.215 c 62.309 40.965 63.832
 40.66 64.582 39.535 c 65.332 38.406 65.027 36.883 63.902 36.133 c 62.773
 35.383 61.254 35.688 60.5 36.813 c h
60.5 36.813 m f*
0.696358 w
q 1 0.4 0.4 -1 0 216 cm
-5.463 174.858 m 12.819 174.858 l S Q
63.449 35.902 m 62.191 35.398 60.762 36.012 60.258 37.27 c 59.758 38.527
 60.367 39.953 61.625 40.457 c 62.883 40.961 64.313 40.348 64.813 39.09 
c 65.316 37.832 64.703 36.406 63.449 35.902 c h
63.449 35.902 m f*
84.129 49.457 m 85.387 49.961 86.813 49.348 87.316 48.09 c 87.816 46.832
 87.207 45.406 85.949 44.902 c 84.691 44.398 83.266 45.012 82.762 46.27 
c 82.258 47.527 82.871 48.953 84.129 49.457 c h
84.129 49.457 m f*
0.53033 w
q 1 -1 -1 -1 0 216 cm
128.406 41.891 m 137.945 41.891 l S Q
83.305 45.449 m 82.344 46.406 82.344 47.957 83.305 48.918 c 84.262 49.875
 85.813 49.875 86.77 48.918 c 87.73 47.957 87.73 46.406 86.77 45.449 c 85.813
 44.492 84.262 44.492 83.305 45.449 c h
83.305 45.449 m f*
99.523 36.164 m 100.48 35.207 100.48 33.652 99.523 32.695 c 98.566 31.738
 97.012 31.738 96.055 32.695 c 95.098 33.652 95.098 35.207 96.055 36.164
 c 97.012 37.121 98.566 37.121 99.523 36.164 c h
99.523 36.164 m f*
0.699663 w
q -0.386088 -1 -1 0.386088 0 216 cm
127.115 -146.113 m 127.451 -146.113 l 147.665 -146.113 l S Q
95.5 35.309 m 95.988 36.574 97.41 37.203 98.672 36.715 c 99.938 36.227 
100.566 34.805 100.078 33.543 c 99.59 32.277 98.168 31.648 96.906 32.137
 c 95.641 32.625 95.012 34.047 95.5 35.309 c h
95.5 35.309 m f*
90.504 8.75 m 90.016 7.488 88.598 6.859 87.336 7.348 c 86.07 7.836 85.441
 9.254 85.93 10.52 c 86.418 11.781 87.836 12.41 89.102 11.922 c 90.363 11.434
 90.992 10.016 90.504 8.75 c h
90.504 8.75 m f*
0.572686 w
q -1 0.845634 0.845634 1 0 216 cm
-192.889 -32.906 m -192.614 -32.904 l -173.233 -32.907 l S Q
168.246 20.504 m 169.277 19.629 169.406 18.082 168.535 17.047 c 167.66 
16.012 166.109 15.883 165.078 16.758 c 164.043 17.633 163.914 19.18 164.789
 20.215 c 165.664 21.246 167.211 21.375 168.246 20.504 c h
168.246 20.504 m f*
141.953 36.313 m 140.918 37.188 140.789 38.734 141.664 39.77 c 142.539 
40.805 144.086 40.934 145.117 40.059 c 146.152 39.184 146.281 37.637 145.406
 36.602 c 144.535 35.566 142.984 35.438 141.953 36.313 c h
141.953 36.313 m f*
0.67082 w
q 0.500001 1 1 -0.500001 0 216 cm
-82.97 185.958 m -82.65 185.958 l -69.036 185.959 l S Q
145.73 37.082 m 145.125 35.867 143.652 35.379 142.441 35.984 c 141.23 36.59
 140.738 38.063 141.344 39.273 c 141.949 40.484 143.422 40.977 144.633 40.371
 c 145.848 39.766 146.336 38.293 145.73 37.082 c h
145.73 37.082 m f*
150.344 57.273 m 150.949 58.484 152.422 58.977 153.633 58.371 c 154.848
 57.766 155.336 56.293 154.73 55.082 c 154.125 53.871 152.652 53.379 151.441
 53.984 c 150.23 54.59 149.738 56.063 150.344 57.273 c h
150.344 57.273 m f*
0.727608 w
q -1 0.249995 0.249995 1 0 216 cm
-179.14 -114.532 m -178.792 -114.529 l -165.55 -114.531 l S Q
153.133 58.555 m 154.445 58.227 155.246 56.898 154.918 55.582 c 154.59 
54.27 153.258 53.469 151.945 53.797 c 150.629 54.125 149.832 55.457 150.16
 56.773 c 150.488 58.086 151.82 58.887 153.133 58.555 c h
153.133 58.555 m f*
133.941 58.297 m 132.629 58.625 131.828 59.957 132.156 61.273 c 132.488
 62.586 133.816 63.387 135.133 63.059 c 136.445 62.727 137.246 61.398 136.918
 60.082 c 136.59 58.77 135.258 57.969 133.941 58.297 c h
133.941 58.297 m f*
0.685359 w
q 0.444445 1 1 -0.444445 0 216 cm
-77.859 169.991 m -77.53 169.993 l -61.757 169.991 l S Q
136.781 59.684 m 136.23 58.445 134.781 57.887 133.543 58.438 c 132.305 
58.988 131.746 60.438 132.297 61.676 c 132.848 62.91 134.297 63.469 135.535
 62.918 c 136.773 62.371 137.328 60.918 136.781 59.684 c h
136.781 59.684 m f*
141.301 81.93 m 141.848 83.168 143.297 83.723 144.535 83.176 c 145.773 
82.625 146.332 81.176 145.781 79.938 c 145.23 78.699 143.781 78.141 142.543
 78.691 c 141.305 79.242 140.75 80.691 141.301 81.93 c h
141.301 81.93 m f*
0.651182 w
q -0.571431 1 1 0.571431 0 216 cm
-161.84 50.019 m -161.529 50.021 l -150.033 50.021 l S Q
145.668 82.141 m 146.34 80.965 145.934 79.469 144.758 78.797 c 143.582 
78.125 142.082 78.531 141.41 79.707 c 140.738 80.887 141.148 82.383 142.324
 83.055 c 143.5 83.727 144.996 83.32 145.668 82.141 c h
145.668 82.141 m f*
132.406 95.465 m 131.734 96.641 132.145 98.137 133.32 98.809 c 134.496 
99.48 135.996 99.074 136.668 97.898 c 137.34 96.719 136.93 95.223 135.754
 94.551 c 134.578 93.879 133.078 94.285 132.406 95.465 c h
132.406 95.465 m f*
0.670821 w
q -1 -0.499999 -0.499999 1 0 216 cm
-58.036 -149.272 m -57.713 -149.27 l -40.7 -149.272 l S Q
133.445 98.875 m 134.656 99.48 136.129 98.992 136.734 97.777 c 137.34 96.566
 136.852 95.094 135.641 94.488 c 134.426 93.883 132.953 94.375 132.348 95.586
 c 131.742 96.797 132.234 98.27 133.445 98.875 c h
133.445 98.875 m f*
114.238 83.789 m 113.027 83.184 111.555 83.676 110.949 84.887 c 110.344
 86.098 110.836 87.57 112.047 88.176 c 113.258 88.781 114.73 88.289 115.336
 87.078 c 115.941 85.867 115.453 84.395 114.238 83.789 c h
114.238 83.789 m f*
0.624669 w
q -0.664474 1 1 0.664474 0 216 cm
-140.604 18.557 m -140.303 18.557 l -129.185 18.555 l S Q
115.184 87.34 m 115.934 86.211 115.625 84.691 114.496 83.941 c 113.371 
83.191 111.848 83.496 111.098 84.625 c 110.348 85.754 110.656 87.277 111.785
 88.027 c 112.91 88.773 114.434 88.469 115.184 87.34 c h
115.184 87.34 m f*
100.996 99.828 m 100.246 100.957 100.551 102.48 101.68 103.23 c 102.809
 103.98 104.332 103.672 105.082 102.543 c 105.828 101.418 105.523 99.895
 104.395 99.145 c 103.266 98.395 101.746 98.703 100.996 99.828 c h
100.996 99.828 m f*
0.643119 w
q 0.600001 1 1 -0.600001 0 216 cm
-37.176 126.419 m -36.866 126.421 l -18.57 126.419 l S Q
105.141 99.918 m 104.445 98.754 102.938 98.379 101.777 99.074 c 100.613
 99.773 100.238 101.277 100.934 102.441 c 101.633 103.602 103.137 103.977
 104.301 103.281 c 105.461 102.586 105.836 101.078 105.141 99.918 c h
105.141 99.918 m f*
114.438 124.945 m 115.133 126.105 116.641 126.484 117.801 125.785 c 118.965
 125.09 119.34 123.582 118.645 122.422 c 117.945 121.258 116.441 120.883
 115.277 121.578 c 114.117 122.277 113.742 123.785 114.438 124.945 c h
114.438 124.945 m f*
0.711513 w
q 1 -0.333332 -0.333332 -1 0 216 cm
134.565 48.126 m 134.905 48.126 l 157.257 48.128 l S Q
115.762 121.355 m 114.477 121.781 113.781 123.172 114.211 124.457 c 114.641
 125.742 116.027 126.438 117.313 126.008 c 118.598 125.578 119.293 124.191
 118.863 122.906 c 118.438 121.621 117.047 120.926 115.762 121.355 c h
115.762 121.355 m f*
144.316 117.008 m 145.602 116.578 146.297 115.188 145.867 113.902 c 145.441
 112.617 144.051 111.926 142.766 112.352 c 141.48 112.781 140.785 114.172
 141.215 115.453 c 141.645 116.738 143.031 117.434 144.316 117.008 c h
144.316 117.008 m f*
0.727608 w
q -0.249995 1 1 0.249995 0 216 cm
-127.111 111.258 m -126.759 111.256 l -113.517 111.258 l S Q
145.922 115.27 m 146.25 113.957 145.449 112.625 144.137 112.297 c 142.82
 111.969 141.488 112.766 141.16 114.078 c 140.832 115.395 141.633 116.727
 142.945 117.055 c 144.262 117.383 145.59 116.582 145.922 115.27 c h
145.922 115.27 m f*
136.66 132.082 m 136.332 133.395 137.133 134.727 138.445 135.055 c 139.762
 135.383 141.09 134.586 141.422 133.27 c 141.75 131.957 140.949 130.625 
139.637 130.297 c 138.32 129.969 136.988 130.766 136.66 132.082 c h
136.66 132.082 m f*
0.67082 w
q 1 0.500001 0.500001 -1 0 216 cm
79.775 122.27 m 80.095 122.27 l 93.708 122.272 l S Q
140.133 130.484 m 138.922 129.879 137.449 130.371 136.844 131.582 c 136.238
 132.793 136.73 134.266 137.941 134.875 c 139.152 135.48 140.625 134.988
 141.23 133.777 c 141.836 132.566 141.344 131.09 140.133 130.484 c h
140.133 130.484 m f*
155.941 143.875 m 157.152 144.48 158.625 143.988 159.23 142.777 c 159.836
 141.566 159.348 140.094 158.133 139.484 c 156.922 138.879 155.449 139.371
 154.844 140.582 c 154.238 141.793 154.73 143.266 155.941 143.875 c h
155.941 143.875 m f*
0.643119 w
q 0.600001 -1 -1 -0.600001 0 216 cm
125.722 -82.68 m 126.031 -82.682 l 144.329 -82.684 l S Q
154.934 140.422 m 154.238 141.582 154.613 143.09 155.777 143.785 c 156.938
 144.48 158.445 144.105 159.141 142.945 c 159.84 141.781 159.461 140.277
 158.301 139.578 c 157.137 138.883 155.633 139.258 154.934 140.422 c h
154.934 140.422 m f*
172.645 120.438 m 173.34 119.277 172.965 117.77 171.805 117.074 c 170.641
 116.379 169.137 116.754 168.438 117.914 c 167.742 119.078 168.117 120.582
 169.281 121.281 c 170.441 121.977 171.949 121.602 172.645 120.438 c h
172.645 120.438 m f*
0.67082 w
q 0.500001 1 1 -0.500001 0 216 cm
-7.37 175.158 m -7.05 175.158 l 6.564 175.159 l S Q
172.73 118.082 m 172.125 116.867 170.652 116.379 169.441 116.984 c 168.23
 117.59 167.738 119.063 168.344 120.273 c 168.949 121.484 170.422 121.977
 171.633 121.371 c 172.848 120.766 173.336 119.293 172.73 118.082 c h
172.73 118.082 m f*
177.344 138.273 m 177.949 139.484 179.422 139.977 180.633 139.371 c 181.848
 138.766 182.336 137.293 181.73 136.082 c 181.125 134.871 179.652 134.379
 178.441 134.984 c 177.23 135.59 176.738 137.063 177.344 138.273 c h
177.344 138.273 m f*
0.53033 w
q 1 1 1 -1 0 216 cm
51.838 129.178 m 52.094 129.18 l 57.629 129.18 l S Q
181.273 135.445 m 180.313 134.488 178.762 134.488 177.805 135.445 c 176.844
 136.402 176.844 137.957 177.805 138.914 c 178.762 139.871 180.313 139.871
 181.273 138.914 c 182.23 137.957 182.23 136.402 181.273 135.445 c h
181.273 135.445 m f*
186.809 147.918 m 187.766 148.875 189.32 148.875 190.277 147.918 c 191.234
 146.961 191.234 145.406 190.277 144.449 c 189.32 143.492 187.766 143.492
 186.809 144.449 c 185.852 145.406 185.852 146.961 186.809 147.918 c h
186.809 147.918 m f*
0.576166 w
q 1 -0.833334 -0.833334 -1 0 216 cm
147.211 -51.52 m 147.488 -51.52 l 157.223 -51.52 l S Q
186.969 144.297 m 185.926 145.164 185.785 146.711 186.652 147.754 c 187.52
 148.793 189.066 148.934 190.105 148.066 c 191.148 147.199 191.289 145.652
 190.422 144.613 c 189.555 143.57 188.008 143.43 186.969 144.297 c h
186.969 144.297 m f*
203.609 136.816 m 204.648 135.949 204.789 134.402 203.922 133.359 c 203.055
 132.32 201.508 132.18 200.469 133.047 c 199.43 133.914 199.289 135.461 
200.156 136.5 c 201.023 137.543 202.566 137.684 203.609 136.816 c h
203.609 136.816 m f*
0.685361 w
q -0.444434 -1 -1 0.444434 0 216 cm
-5.37 -198.801 m -5.039 -198.804 l 10.732 -198.801 l S Q
199.797 135.922 m 200.348 137.16 201.797 137.719 203.031 137.168 c 204.27
 136.617 204.828 135.168 204.277 133.93 c 203.727 132.691 202.277 132.137
 201.043 132.684 c 199.805 133.234 199.246 134.684 199.797 135.922 c h
199.797 135.922 m f*
195.277 113.676 m 194.727 112.438 193.277 111.879 192.039 112.43 c 190.801
 112.98 190.242 114.43 190.793 115.668 c 191.344 116.906 192.793 117.461
 194.031 116.914 c 195.27 116.363 195.828 114.914 195.277 113.676 c h
195.277 113.676 m f*
0.53033 w
q 1 -1 -1 -1 0 216 cm
148.656 -45.859 m 160.523 -45.859 l S Q
191.305 112.949 m 190.344 113.906 190.344 115.457 191.305 116.418 c 192.262
 117.375 193.813 117.375 194.77 116.418 c 195.73 115.457 195.73 113.906 
194.77 112.949 c 193.813 111.992 192.262 111.992 191.305 112.949 c h
191.305 112.949 m f*
209.852 101.336 m 210.809 100.379 210.809 98.828 209.852 97.871 c 208.895
 96.91 207.34 96.91 206.383 97.871 c 205.426 98.828 205.426 100.379 206.383
 101.336 c 207.34 102.297 208.895 102.297 209.852 101.336 c h
209.852 101.336 m f*
0.561144 w
q -0.886781 -1 -1 0.886781 0 216 cm
-36.586 -174.279 m -36.317 -174.279 l -28.056 -174.28 l S Q
206.277 101.23 m 207.176 102.246 208.727 102.336 209.738 101.438 c 210.754
 100.539 210.848 98.992 209.945 97.977 c 209.047 96.965 207.5 96.871 206.484
 97.77 c 205.473 98.668 205.379 100.219 206.277 101.23 c h
206.277 101.23 m f*
199.367 86.047 m 198.469 85.035 196.918 84.941 195.906 85.84 c 194.891 
86.738 194.801 88.289 195.699 89.301 c 196.598 90.316 198.148 90.406 199.16
 89.508 c 200.172 88.609 200.266 87.059 199.367 86.047 c h
199.367 86.047 m f*
0.670821 w
q -1 -0.499999 -0.499999 1 0 216 cm
-104.836 -181.672 m -104.513 -181.67 l -90.899 -181.672 l S Q
196.445 89.875 m 197.656 90.48 199.129 89.992 199.734 88.777 c 200.34 87.566
 199.852 86.094 198.641 85.488 c 197.426 84.883 195.953 85.375 195.348 86.586
 c 194.742 87.797 195.234 89.27 196.445 89.875 c h
196.445 89.875 m f*
180.641 76.488 m 179.426 75.883 177.953 76.375 177.348 77.586 c 176.742
 78.797 177.234 80.27 178.445 80.875 c 179.656 81.48 181.129 80.988 181.734
 79.777 c 182.34 78.566 181.852 77.094 180.641 76.488 c h
180.641 76.488 m f*
0.67082 w
q 1 -0.500001 -0.500001 -1 0 216 cm
200.427 38.04 m 200.75 38.039 l 214.364 38.04 l S Q
178.441 76.488 m 177.227 77.094 176.738 78.566 177.344 79.777 c 177.949
 80.988 179.422 81.48 180.633 80.875 c 181.844 80.27 182.336 78.797 181.73
 77.586 c 181.125 76.375 179.652 75.883 178.441 76.488 c h
178.441 76.488 m f*
198.633 71.875 m 199.844 71.27 200.336 69.797 199.73 68.586 c 199.125 67.375
 197.652 66.883 196.441 67.488 c 195.23 68.094 194.738 69.566 195.344 70.777
 c 195.949 71.988 197.422 72.48 198.633 71.875 c h
198.633 71.875 m f*
0.710309 w
q 1 0.338937 0.338937 -1 0 216 cm
134.682 191.297 m 135.022 191.295 l 162.506 191.298 l S Q
198.324 67.355 m 197.043 66.922 195.648 67.609 195.215 68.891 c 194.781
 70.176 195.469 71.566 196.75 72.004 c 198.031 72.438 199.426 71.75 199.859
 70.469 c 200.293 69.184 199.609 67.793 198.324 67.355 c h
198.324 67.355 m f*
228.879 82.891 m 230.164 83.328 231.555 82.641 231.988 81.355 c 232.426
 80.074 231.738 78.684 230.453 78.246 c 229.172 77.813 227.777 78.5 227.344
 79.781 c 226.91 81.066 227.598 82.457 228.879 82.891 c h
228.879 82.891 m f*
0.738991 w
q -0.173251 1 1 0.173251 0 216 cm
-168.055 200.197 m -167.7 200.196 l -142.919 200.196 l S Q
232.086 80.984 m 232.316 79.652 231.422 78.383 230.09 78.148 c 228.754 
77.918 227.484 78.813 227.254 80.148 c 227.023 81.484 227.918 82.754 229.25
 82.984 c 230.586 83.215 231.855 82.32 232.086 80.984 c h
232.086 80.984 m f*
222.121 109.762 m 221.891 111.098 222.785 112.367 224.121 112.598 c 225.453
 112.828 226.723 111.934 226.957 110.598 c 227.188 109.266 226.293 107.996
 224.957 107.766 c 223.625 107.531 222.355 108.426 222.121 109.762 c h
222.121 109.762 m f*
0.670821 w
q 0.499999 1 1 -0.499999 0 216 cm
7.029 221.958 m 7.351 221.961 l 20.964 221.959 l S Q
226.73 109.082 m 226.125 107.871 224.652 107.379 223.441 107.984 c 222.23
 108.59 221.738 110.063 222.344 111.273 c 222.949 112.488 224.422 112.977
 225.637 112.371 c 226.848 111.766 227.336 110.293 226.73 109.082 c h
226.73 109.082 m f*
231.344 129.277 m 231.949 130.488 233.422 130.977 234.637 130.371 c 235.848
 129.766 236.336 128.293 235.73 127.082 c 235.125 125.871 233.652 125.379
 232.441 125.984 c 231.23 126.59 230.738 128.063 231.344 129.277 c h
231.344 129.277 m f*
0.732629 w
q 0.219048 1 1 -0.219048 0 216 cm
-32.942 241.204 m -32.591 241.202 l -7.848 241.204 l S Q
235.934 127.652 m 235.645 126.328 234.336 125.492 233.016 125.781 c 231.691
 126.07 230.852 127.379 231.145 128.703 c 231.434 130.027 232.742 130.863
 234.063 130.574 c 235.387 130.285 236.223 128.977 235.934 127.652 c h
235.934 127.652 m f*
237.613 158.238 m 237.902 159.559 239.211 160.398 240.531 160.109 c 241.855
 159.816 242.695 158.512 242.402 157.188 c 242.113 155.863 240.805 155.027
 239.484 155.316 c 238.16 155.605 237.324 156.914 237.613 158.238 c h
237.613 158.238 m f*
0.546591 w
q 1 -0.939559 -0.939559 -1 0 216 cm
72.792 -64.135 m 73.054 -64.135 l 90.495 -64.135 l S Q
129.848 211.387 m 128.859 212.313 128.809 213.867 129.738 214.852 c 130.664
 215.84 132.219 215.891 133.203 214.961 c 134.191 214.035 134.238 212.48
 133.313 211.496 c 132.387 210.508 130.832 210.461 129.848 211.387 c h
129.848 211.387 m f*
154.219 195.219 m 155.207 194.289 155.254 192.738 154.328 191.75 c 153.398
 190.762 151.848 190.715 150.859 191.641 c 149.875 192.57 149.824 194.121
 150.754 195.109 c 151.68 196.098 153.23 196.145 154.219 195.219 c h
154.219 195.219 m f*
0.75 w
154.629 193.43 m 168.09 193.43 l S
152.535 190.977 m 151.184 190.977 150.086 192.074 150.086 193.43 c 150.086
 194.785 151.184 195.883 152.535 195.883 c 153.891 195.883 154.988 194.785
 154.988 193.43 c 154.988 192.074 153.891 190.977 152.535 190.977 c h
152.535 190.977 m f*
170.543 195.883 m 171.898 195.883 172.996 194.785 172.996 193.43 c 172.996
 192.074 171.898 190.977 170.543 190.977 c 169.188 190.977 168.09 192.074
 168.09 193.43 c 168.09 194.785 169.188 195.883 170.543 195.883 c h
170.543 195.883 m f*
0.67082 w
q 1 -0.500001 -0.500001 -1 0 216 cm
147.326 -50.159 m 147.65 -50.161 l 165.764 -50.159 l S Q
169.441 191.238 m 168.227 191.844 167.738 193.316 168.344 194.527 c 168.949
 195.738 170.422 196.23 171.633 195.625 c 172.844 195.02 173.336 193.547
 172.73 192.336 c 172.125 191.125 170.652 190.633 169.441 191.238 c h
169.441 191.238 m f*
194.133 184.375 m 195.344 183.77 195.836 182.297 195.23 181.086 c 194.625
 179.875 193.152 179.383 191.938 179.988 c 190.727 180.594 190.238 182.066
 190.844 183.277 c 191.449 184.488 192.922 184.98 194.133 184.375 c h
194.133 184.375 m f*
0.696358 w
q 1 -0.4 -0.4 -1 0 216 cm
180.016 -37.412 m 180.349 -37.409 l 198.297 -37.412 l S Q
192.125 179.906 m 190.867 180.406 190.258 181.836 190.762 183.094 c 191.262
 184.352 192.691 184.961 193.949 184.457 c 195.207 183.957 195.816 182.527
 195.313 181.27 c 194.813 180.012 193.383 179.402 192.125 179.906 c h
192.125 179.906 m f*
216.449 175.457 m 217.707 174.953 218.32 173.527 217.816 172.27 c 217.313
 171.012 215.887 170.402 214.629 170.902 c 213.371 171.406 212.758 172.836
 213.262 174.094 c 213.766 175.348 215.191 175.961 216.449 175.457 c h
216.449 175.457 m f*
0.747499 w
q 1 0.0818757 0.0818757 -1 0 216 cm
86.597 13.508 m 86.957 13.506 l 127.98 13.506 l S Q
85.82 206.969 m 84.469 206.859 83.285 207.863 83.176 209.211 c 83.063 210.563
 84.07 211.746 85.418 211.855 c 86.77 211.969 87.953 210.961 88.063 209.613
 c 88.172 208.262 87.168 207.078 85.82 206.969 c h
85.82 206.969 m f*
131.328 215.617 m 132.68 215.727 133.863 214.723 133.973 213.371 c 134.086
 212.023 133.078 210.836 131.73 210.727 c 130.379 210.617 129.195 211.621
 129.086 212.973 c 128.977 214.32 129.98 215.504 131.328 215.617 c h
131.328 215.617 m f*
0.633944 w
q 1 -0.632184 -0.632184 -1 0 216 cm
175.101 -66.759 m 175.405 -66.759 l 195.734 -66.759 l S Q
214.227 171.109 m 213.082 171.832 212.738 173.348 213.465 174.492 c 214.188
 175.637 215.703 175.98 216.848 175.254 c 217.992 174.531 218.332 173.016
 217.609 171.871 c 216.887 170.727 215.371 170.387 214.227 171.109 c h
214.227 171.109 m f*
241.32 159.781 m 242.465 159.059 242.809 157.543 242.086 156.398 c 241.359
 155.254 239.844 154.914 238.699 155.637 c 237.555 156.359 237.215 157.875
 237.938 159.02 c 238.66 160.164 240.176 160.508 241.32 159.781 c h
241.32 159.781 m f*
0.735435 w
q -0.200001 -1 -1 0.200001 0 216 cm
83.334 -23.37 m 83.685 -23.37 l 100.299 -23.369 l S Q
4.707 130.527 m 4.973 131.855 6.266 132.715 7.594 132.449 c 8.922 132.184
 9.781 130.891 9.516 129.563 c 9.25 128.234 7.961 127.375 6.633 127.641 
c 5.305 127.906 4.441 129.199 4.707 130.527 c h
4.707 130.527 m f*
5.234 108.145 m 4.969 106.816 3.676 105.953 2.348 106.219 c 1.02 106.484
 0.156 107.777 0.422 109.105 c 0.688 110.434 1.98 111.293 3.309 111.027 
c 4.637 110.762 5.5 109.473 5.234 108.145 c h
5.234 108.145 m f*
0.75 w
90.309 9.645 m 118.59 9.645 l S
88.219 7.191 m 86.863 7.191 85.766 8.289 85.766 9.645 c 85.766 11 86.863
 12.098 88.219 12.098 c 89.57 12.098 90.668 11 90.668 9.645 c 90.668 8.289
 89.57 7.191 88.219 7.191 c h
88.219 7.191 m f*
121.043 12.098 m 122.395 12.098 123.496 11 123.496 9.645 c 123.496 8.289
 122.395 7.191 121.043 7.191 c 119.688 7.191 118.59 8.289 118.59 9.645 c
 118.59 11 119.688 12.098 121.043 12.098 c h
121.043 12.098 m f*
0.735866 w
q 1 0.196935 0.196935 -1 0 216 cm
79.449 221.599 m 79.801 221.598 l 120.609 221.6 l S Q
121.512 7.238 m 120.184 6.977 118.891 7.84 118.629 9.172 c 118.367 10.5
 119.234 11.789 120.563 12.051 c 121.891 12.313 123.18 11.445 123.441 10.117
 c 123.703 8.789 122.84 7.5 121.512 7.238 c h
121.512 7.238 m f*
166.184 21.035 m 167.512 21.297 168.801 20.43 169.063 19.102 c 169.324 
17.773 168.457 16.484 167.129 16.223 c 165.801 15.961 164.512 16.824 164.25
 18.152 c 163.988 19.484 164.852 20.773 166.184 21.035 c h
166.184 21.035 m f*
0 0.439216 0.752941 rg
1.245831 w
q -1 -0.0818811 -0.0818811 1 0 216 cm
-127.957 -13.505 m -127.597 -13.506 l -87.332 -13.506 l S Q
131.289 215.992 m 132.848 216.117 134.211 214.961 134.34 213.402 c 134.465
 211.848 133.309 210.48 131.75 210.355 c 130.195 210.227 128.828 211.387
 128.703 212.941 c 128.574 214.496 129.734 215.863 131.289 215.992 c h
131.289 215.992 m f*
85.852 206.598 m 84.293 206.469 82.93 207.625 82.801 209.184 c 82.672 210.738
 83.832 212.105 85.387 212.23 c 86.945 212.359 88.309 211.199 88.438 209.645
 c 88.566 208.09 87.406 206.723 85.852 206.598 c h
85.852 206.598 m f*
1.225726 w
q -0.200001 -1 -1 0.200001 0 216 cm
83.705 -23.37 m 84.06 -23.371 l 99.924 -23.368 l S Q
4.34 130.594 m 4.645 132.125 6.133 133.117 7.664 132.813 c 9.195 132.508
 10.191 131.016 9.883 129.484 c 9.578 127.953 8.09 126.961 6.559 127.266
 c 5.027 127.574 4.031 129.063 4.34 130.594 c h
4.34 130.594 m f*
5.602 108.074 m 5.297 106.543 3.805 105.551 2.273 105.855 c 0.742 106.164
 -0.25 107.652 0.055 109.184 c 0.363 110.715 1.852 111.707 3.383 111.402
 c 4.914 111.094 5.906 109.605 5.602 108.074 c h
5.602 108.074 m f*
1.25 w
90.688 9.645 m 118.211 9.645 l S
88.223 6.816 m 86.66 6.816 85.395 8.082 85.395 9.645 c 85.395 11.207 86.66
 12.473 88.223 12.473 c 89.785 12.473 91.051 11.207 91.051 9.645 c 91.051
 8.082 89.785 6.816 88.223 6.816 c h
88.223 6.816 m f*
121.035 12.473 m 122.598 12.473 123.863 11.207 123.863 9.645 c 123.863 
8.082 122.598 6.816 121.035 6.816 c 119.477 6.816 118.211 8.082 118.211 
9.645 c 118.211 11.207 119.477 12.473 121.035 12.473 c h
121.035 12.473 m f*
1.226443 w
q 1 0.196935 0.196935 -1 0 216 cm
79.82 221.598 m 80.176 221.598 l 120.246 221.599 l S Q
121.59 6.871 m 120.055 6.57 118.57 7.566 118.266 9.098 c 117.965 10.629
 118.965 12.117 120.496 12.418 c 122.027 12.723 123.516 11.723 123.816 10.191
 c 124.117 8.66 123.121 7.172 121.59 6.871 c h
121.59 6.871 m f*
166.113 21.402 m 167.645 21.703 169.133 20.707 169.434 19.176 c 169.738
 17.645 168.738 16.156 167.207 15.855 c 165.676 15.555 164.188 16.551 163.887
 18.082 c 163.586 19.613 164.582 21.102 166.113 21.402 c h
166.113 21.402 m f*
1.056573 w
q 1 -0.632184 -0.632184 -1 0 216 cm
175.422 -66.758 m 175.726 -66.759 l 195.413 -66.759 l S Q
214.031 170.789 m 212.711 171.625 212.316 173.371 213.152 174.691 c 213.984
 176.012 215.73 176.402 217.051 175.57 c 218.371 174.734 218.766 172.988
 217.93 171.668 c 217.098 170.348 215.352 169.953 214.031 170.789 c h
214.031 170.789 m f*
241.52 160.102 m 242.836 159.27 243.23 157.52 242.398 156.203 c 241.563
 154.883 239.816 154.488 238.496 155.32 c 237.176 156.156 236.781 157.902
 237.617 159.223 c 238.453 160.543 240.199 160.938 241.52 160.102 c h
241.52 160.102 m f*
0.891402 w
q 1 0.983058 0.983058 -1 0 216 cm
-12.156 183.69 m -11.898 183.69 l 47.076 183.689 l S Q
168.645 16.613 m 167.531 15.52 165.742 15.535 164.645 16.648 c 163.551 
17.762 163.566 19.551 164.68 20.648 c 165.793 21.742 167.582 21.727 168.68
 20.613 c 169.773 19.5 169.758 17.707 168.645 16.613 c h
168.645 16.613 m f*
227.688 82.586 m 228.801 83.684 230.59 83.668 231.688 82.555 c 232.781 
81.438 232.766 79.648 231.652 78.555 c 230.539 77.461 228.75 77.477 227.652
 78.59 c 226.559 79.703 226.574 81.492 227.688 82.586 c h
227.688 82.586 m f*
1.238923 w
q -0.134024 -1 -1 0.134024 0 216 cm
28.111 -243.447 m 28.466 -243.444 l 99.998 -243.445 l S Q
237.203 158.086 m 237.41 159.633 238.832 160.719 240.383 160.512 c 241.93
 160.305 243.016 158.883 242.809 157.332 c 242.602 155.785 241.18 154.699
 239.629 154.906 c 238.082 155.113 236.996 156.535 237.203 158.086 c h
237.203 158.086 m f*
232.469 80.199 m 232.262 78.648 230.84 77.563 229.293 77.77 c 227.746 77.977
 226.656 79.402 226.867 80.949 c 227.074 82.496 228.496 83.582 230.043 83.375
 c 231.59 83.168 232.68 81.746 232.469 80.199 c h
232.469 80.199 m f*
1.128645 w
q -1 0.476033 0.476033 1 0 216 cm
-190.113 48.735 m -189.788 48.736 l -110.882 48.737 l S Q
216.758 175.727 m 218.168 175.055 218.766 173.371 218.094 171.961 c 217.426
 170.551 215.738 169.949 214.328 170.621 c 212.918 171.293 212.316 172.98
 212.988 174.391 c 213.66 175.801 215.348 176.398 216.758 175.727 c h
216.758 175.727 m f*
130.316 210.613 m 128.906 211.285 128.305 212.973 128.977 214.383 c 129.648
 215.793 131.336 216.391 132.746 215.719 c 134.156 215.047 134.754 213.363
 134.082 211.953 c 133.41 210.543 131.727 209.941 130.316 210.613 c h
130.316 210.613 m f*
1.2098 w
q 0.259927 -1 -1 -0.259927 0 216 cm
103.659 23.494 m 104.01 23.496 l 146.479 23.496 l S Q
0.09 107.91 m -0.301 109.422 0.605 110.965 2.117 111.359 c 3.629 111.75
 5.172 110.844 5.566 109.332 c 5.957 107.82 5.051 106.277 3.539 105.883 
c 2.027 105.492 0.484 106.398 0.09 107.91 c h
0.09 107.91 m f*
18.027 61.391 m 18.418 59.879 17.512 58.336 16 57.941 c 14.488 57.551 12.945
 58.457 12.555 59.969 c 12.16 61.48 13.066 63.023 14.578 63.414 c 16.09 
63.809 17.633 62.902 18.027 61.391 c h
18.027 61.391 m f*
0.939637 w
q 0.877325 -1 -1 -0.877325 0 216 cm
97.202 68.36 m 97.475 68.361 l 137.427 68.361 l S Q
13.164 58.813 m 12.137 59.988 12.254 61.773 13.426 62.805 c 14.602 63.832
 16.387 63.715 17.418 62.543 c 18.445 61.367 18.328 59.582 17.156 58.551
 c 15.98 57.523 14.195 57.641 13.164 58.813 c h
13.164 58.813 m f*
56.199 18.34 m 57.227 17.164 57.109 15.379 55.938 14.348 c 54.762 13.32
 52.977 13.434 51.945 14.609 c 50.918 15.781 51.035 17.57 52.207 18.598 
c 53.383 19.629 55.168 19.512 56.199 18.34 c h
56.199 18.34 m f*
1.225726 w
q 1 -0.199999 -0.199999 -1 0 216 cm
92.787 181.454 m 93.138 181.454 l 121.743 181.452 l S Q
53.52 13.699 m 51.988 14.008 50.996 15.496 51.305 17.027 c 51.609 18.559
 53.098 19.551 54.629 19.246 c 56.16 18.938 57.156 17.449 56.848 15.918 
c 56.543 14.387 55.051 13.395 53.52 13.699 c h
53.52 13.699 m f*
88.777 12.414 m 90.309 12.109 91.305 10.621 90.996 9.09 c 90.691 7.559 
89.199 6.563 87.668 6.871 c 86.137 7.176 85.145 8.668 85.453 10.199 c 85.758
 11.73 87.246 12.723 88.777 12.414 c h
88.777 12.414 m f*
0.909432 w
q -1 -0.942979 -0.942979 1 0 216 cm
-40.235 -46.225 m -39.973 -46.225 l 1.49 -46.224 l S Q
83.68 211.465 m 84.816 212.535 86.605 212.484 87.676 211.348 c 88.746 210.211
 88.695 208.422 87.559 207.352 c 86.422 206.281 84.633 206.332 83.563 207.469
 c 82.492 208.605 82.543 210.395 83.68 211.465 c h
83.68 211.465 m f*
41.98 164.375 m 40.848 163.301 39.059 163.355 37.984 164.492 c 36.914 165.625
 36.965 167.414 38.102 168.488 c 39.238 169.559 41.027 169.508 42.098 168.371
 c 43.172 167.234 43.117 165.445 41.98 164.375 c h
41.98 164.375 m f*
0.92687 w
q -0.90487 -1 -1 0.90487 0 216 cm
9.166 -46.673 m 9.43 -46.674 l 41.628 -46.676 l S Q
37.941 168.328 m 38.988 169.484 40.777 169.574 41.934 168.527 c 43.09 167.48
 43.18 165.691 42.133 164.535 c 41.086 163.375 39.297 163.285 38.141 164.336
 c 36.98 165.383 36.891 167.168 37.941 168.328 c h
37.941 168.328 m f*
9.207 128.145 m 8.156 126.988 6.371 126.898 5.211 127.945 c 4.055 128.992
 3.965 130.781 5.012 131.938 c 6.059 133.098 7.848 133.188 9.008 132.137
 c 10.164 131.09 10.254 129.301 9.207 128.145 c h
9.207 128.145 m f*
Q Q
showpage
%%Trailer
end restore
%%EOF
