%!PS-Adobe-3.0 EPSF-3.0
%%Creator: cairo 1.14.1 (http://cairographics.org)
%%CreationDate: Thu May 26 03:28:51 2016
%%Pages: 1
%%DocumentData: Clean7Bit
%%LanguageLevel: 2
%%BoundingBox: 0 -1 1105 1080
%%EndComments
%%BeginProlog
save
50 dict begin
/q { gsave } bind def
/Q { grestore } bind def
/cm { 6 array astore concat } bind def
/w { setlinewidth } bind def
/J { setlinecap } bind def
/j { setlinejoin } bind def
/M { setmiterlimit } bind def
/d { setdash } bind def
/m { moveto } bind def
/l { lineto } bind def
/c { curveto } bind def
/h { closepath } bind def
/re { exch dup neg 3 1 roll 5 3 roll moveto 0 rlineto
      0 exch rlineto 0 rlineto closepath } bind def
/S { stroke } bind def
/f { fill } bind def
/f* { eofill } bind def
/n { newpath } bind def
/W { clip } bind def
/W* { eoclip } bind def
/BT { } bind def
/ET { } bind def
/pdfmark where { pop globaldict /?pdfmark /exec load put }
    { globaldict begin /?pdfmark /pop load def /pdfmark
    /cleartomark load def end } ifelse
/BDC { mark 3 1 roll /BDC pdfmark } bind def
/EMC { mark /EMC pdfmark } bind def
/cairo_store_point { /cairo_point_y exch def /cairo_point_x exch def } def
/Tj { show currentpoint cairo_store_point } bind def
/TJ {
  {
    dup
    type /stringtype eq
    { show } { -0.001 mul 0 cairo_font_matrix dtransform rmoveto } ifelse
  } forall
  currentpoint cairo_store_point
} bind def
/cairo_selectfont { cairo_font_matrix aload pop pop pop 0 0 6 array astore
    cairo_font exch selectfont cairo_point_x cairo_point_y moveto } bind def
/Tf { pop /cairo_font exch def /cairo_font_matrix where
      { pop cairo_selectfont } if } bind def
/Td { matrix translate cairo_font_matrix matrix concatmatrix dup
      /cairo_font_matrix exch def dup 4 get exch 5 get cairo_store_point
      /cairo_font where { pop cairo_selectfont } if } bind def
/Tm { 2 copy 8 2 roll 6 array astore /cairo_font_matrix exch def
      cairo_store_point /cairo_font where { pop cairo_selectfont } if } bind def
/g { setgray } bind def
/rg { setrgbcolor } bind def
/d1 { setcachedevice } bind def
%%EndProlog
%%BeginSetup
%%EndSetup
%%Page: 1 1
%%BeginPageSetup
%%PageBoundingBox: 0 -1 1105 1080
%%EndPageSetup
q 0 -1 1105 1081 rectclip q
q
0 1079.179 1105 -1080 re W n
[ 1 0 0 1 0 -0.820557 ] concat
  q
1 0 0 rg
3.542552 w
1 J
1 j
[] 0.0 d
10 M q 1 0 0 -1 0 1080 cm
315.336 1061.914 m 363.582 999.473 l S Q
  Q
Q
q
0 1079.179 1105 -1080 re W n
[ 1 0 0 1 0 -0.820557 ] concat
  q
1 0 0 rg
3.542552 w
1 J
1 j
[] 0.0 d
10 M q 1 0 0 -1 0 1080 cm
363.582 999.473 m 440.246 990.945 l S Q
  Q
Q
q
0 1079.179 1105 -1080 re W n
[ 1 0 0 1 0 -0.820557 ] concat
  q
1 0 0 rg
3.542552 w
1 J
1 j
[] 0.0 d
10 M q 1 0 0 -1 0 1080 cm
440.246 990.945 m 522.551 917.145 l S Q
  Q
Q
q
0 1079.179 1105 -1080 re W n
[ 1 0 0 1 0 -0.820557 ] concat
  q
1 0 0 rg
3.542552 w
1 J
1 j
[] 0.0 d
10 M q 1 0 0 -1 0 1080 cm
522.551 917.145 m 516.883 860.367 l S Q
  Q
Q
q
0 1079.179 1105 -1080 re W n
[ 1 0 0 1 0 -0.820557 ] concat
  q
1 0 0 rg
3.542552 w
1 J
1 j
[] 0.0 d
10 M q 1 0 0 -1 0 1080 cm
516.883 860.367 m 426.051 823.453 l S Q
  Q
Q
q
0 1079.179 1105 -1080 re W n
[ 1 0 0 1 0 -0.820557 ] concat
  q
1 0 0 rg
3.542552 w
1 J
1 j
[] 0.0 d
10 M q 1 0 0 -1 0 1080 cm
426.051 823.453 m 335.195 789.398 l S Q
  Q
Q
q
0 1079.179 1105 -1080 re W n
[ 1 0 0 1 0 -0.820557 ] concat
  q
1 0 0 rg
3.542552 w
1 J
1 j
[] 0.0 d
10 M q 1 0 0 -1 0 1080 cm
335.195 789.398 m 252.867 743.984 l S Q
  Q
Q
q
0 1079.179 1105 -1080 re W n
[ 1 0 0 1 0 -0.820557 ] concat
  q
1 0 0 rg
3.542552 w
1 J
1 j
[] 0.0 d
10 M q 1 0 0 -1 0 1080 cm
252.867 743.984 m 156.367 712.762 l S Q
  Q
Q
q
0 1079.179 1105 -1080 re W n
[ 1 0 0 1 0 -0.820557 ] concat
  q
1 0 0 rg
3.542552 w
1 J
1 j
[] 0.0 d
10 M q 1 0 0 -1 0 1080 cm
156.367 712.762 m 127.98 655.984 l S Q
  Q
Q
q
0 1079.179 1105 -1080 re W n
[ 1 0 0 1 0 -0.820557 ] concat
  q
1 0 0 rg
3.542552 w
1 J
1 j
[] 0.0 d
10 M q 1 0 0 -1 0 1080 cm
127.98 655.984 m 147.844 587.852 l S Q
  Q
Q
q
0 1079.179 1105 -1080 re W n
[ 1 0 0 1 0 -0.820557 ] concat
  q
1 0 0 rg
3.542552 w
1 J
1 j
[] 0.0 d
10 M q 1 0 0 -1 0 1080 cm
147.844 587.852 m 110.93 531.074 l S Q
  Q
Q
q
0 1079.179 1105 -1080 re W n
[ 1 0 0 1 0 -0.820557 ] concat
  q
1 0 0 rg
3.542552 w
1 J
1 j
[] 0.0 d
10 M q 1 0 0 -1 0 1080 cm
110.93 531.074 m 88.234 428.887 l S Q
  Q
Q
q
0 1079.179 1105 -1080 re W n
[ 1 0 0 1 0 -0.820557 ] concat
  q
1 0 0 rg
3.542552 w
1 J
1 j
[] 0.0 d
10 M q 1 0 0 -1 0 1080 cm
88.234 428.887 m 110.93 369.254 l S Q
  Q
Q
q
0 1079.179 1105 -1080 re W n
[ 1 0 0 1 0 -0.820557 ] concat
  q
1 0 0 rg
3.542552 w
1 J
1 j
[] 0.0 d
10 M q 1 0 0 -1 0 1080 cm
110.93 369.254 m 179.063 289.781 l S Q
  Q
Q
q
0 1079.179 1105 -1080 re W n
[ 1 0 0 1 0 -0.820557 ] concat
  q
1 0 0 rg
3.542552 w
1 J
1 j
[] 0.0 d
10 M q 1 0 0 -1 0 1080 cm
179.063 289.781 m 108.094 233.004 l S Q
  Q
Q
q
0 1079.179 1105 -1080 re W n
[ 1 0 0 1 0 -0.820557 ] concat
  q
1 0 0 rg
3.542552 w
1 J
1 j
[] 0.0 d
10 M q 1 0 0 -1 0 1080 cm
108.094 233.004 m 31.457 173.395 l S Q
  Q
Q
q
0 1079.179 1105 -1080 re W n
[ 1 0 0 1 0 -0.820557 ] concat
  q
1 0 0 rg
3.542552 w
1 J
1 j
[] 0.0 d
10 M q 1 0 0 -1 0 1080 cm
31.457 173.395 m 5.906 127.957 l S Q
  Q
Q
q
0 1079.179 1105 -1080 re W n
[ 1 0 0 1 0 -0.820557 ] concat
  q
1 0 0 rg
3.542552 w
1 J
1 j
[] 0.0 d
10 M q 1 0 0 -1 0 1080 cm
5.906 127.957 m 62.68 56.988 l S Q
  Q
Q
q
0 1079.179 1105 -1080 re W n
[ 1 0 0 1 0 -0.820557 ] concat
  q
1 0 0 rg
3.542552 w
1 J
1 j
[] 0.0 d
10 M q 1 0 0 -1 0 1080 cm
62.68 56.988 m 108.094 11.574 l S Q
  Q
Q
q
0 1079.179 1105 -1080 re W n
[ 1 0 0 1 0 -0.820557 ] concat
  q
1 0 0 rg
3.542552 w
1 J
1 j
[] 0.0 d
10 M q 1 0 0 -1 0 1080 cm
108.094 11.574 m 201.785 11.574 l S Q
  Q
Q
q
0 1079.179 1105 -1080 re W n
[ 1 0 0 1 0 -0.820557 ] concat
  q
1 0 0 rg
3.542552 w
1 J
1 j
[] 0.0 d
10 M q 1 0 0 -1 0 1080 cm
201.785 11.574 m 233.004 110.93 l S Q
  Q
Q
q
0 1079.179 1105 -1080 re W n
[ 1 0 0 1 0 -0.820557 ] concat
  q
1 0 0 rg
3.542552 w
1 J
1 j
[] 0.0 d
10 M q 1 0 0 -1 0 1080 cm
233.004 110.93 m 278.422 150.676 l S Q
  Q
Q
q
0 1079.179 1105 -1080 re W n
[ 1 0 0 1 0 -0.820557 ] concat
  q
1 0 0 rg
3.542552 w
1 J
1 j
[] 0.0 d
10 M q 1 0 0 -1 0 1080 cm
278.422 150.676 m 340.887 196.094 l S Q
  Q
Q
q
0 1079.179 1105 -1080 re W n
[ 1 0 0 1 0 -0.820557 ] concat
  q
1 0 0 rg
3.542552 w
1 J
1 j
[] 0.0 d
10 M q 1 0 0 -1 0 1080 cm
340.887 196.094 m 434.555 142.152 l S Q
  Q
Q
q
0 1079.179 1105 -1080 re W n
[ 1 0 0 1 0 -0.820557 ] concat
  q
1 0 0 rg
3.542552 w
1 J
1 j
[] 0.0 d
10 M q 1 0 0 -1 0 1080 cm
434.555 142.152 m 445.914 65.512 l S Q
  Q
Q
q
0 1079.179 1105 -1080 re W n
[ 1 0 0 1 0 -0.820557 ] concat
  q
1 0 0 rg
3.542552 w
1 J
1 j
[] 0.0 d
10 M q 1 0 0 -1 0 1080 cm
445.914 65.512 m 497.02 5.902 l S Q
  Q
Q
q
0 1079.179 1105 -1080 re W n
[ 1 0 0 1 0 -0.820557 ] concat
  q
1 0 0 rg
3.542552 w
1 J
1 j
[] 0.0 d
10 M q 1 0 0 -1 0 1080 cm
497.02 5.902 m 556.629 45.652 l S Q
  Q
Q
q
0 1079.179 1105 -1080 re W n
[ 1 0 0 1 0 -0.820557 ] concat
  q
1 0 0 rg
3.542552 w
1 J
1 j
[] 0.0 d
10 M q 1 0 0 -1 0 1080 cm
556.629 45.652 m 613.406 5.902 l S Q
  Q
Q
q
0 1079.179 1105 -1080 re W n
[ 1 0 0 1 0 -0.820557 ] concat
  q
1 0 0 rg
3.542552 w
1 J
1 j
[] 0.0 d
10 M q 1 0 0 -1 0 1080 cm
613.406 5.902 m 678.684 65.512 l S Q
  Q
Q
q
0 1079.179 1105 -1080 re W n
[ 1 0 0 1 0 -0.820557 ] concat
  q
1 0 0 rg
3.542552 w
1 J
1 j
[] 0.0 d
10 M q 1 0 0 -1 0 1080 cm
678.684 65.512 m 667.348 147.844 l S Q
  Q
Q
q
0 1079.179 1105 -1080 re W n
[ 1 0 0 1 0 -0.820557 ] concat
  q
1 0 0 rg
3.542552 w
1 J
1 j
[] 0.0 d
10 M q 1 0 0 -1 0 1080 cm
667.348 147.844 m 638.957 213.121 l S Q
  Q
Q
q
0 1079.179 1105 -1080 re W n
[ 1 0 0 1 0 -0.820557 ] concat
  q
1 0 0 rg
3.542552 w
1 J
1 j
[] 0.0 d
10 M q 1 0 0 -1 0 1080 cm
638.957 213.121 m 593.52 303.973 l S Q
  Q
Q
q
0 1079.179 1105 -1080 re W n
[ 1 0 0 1 0 -0.820557 ] concat
  q
1 0 0 rg
3.542552 w
1 J
1 j
[] 0.0 d
10 M q 1 0 0 -1 0 1080 cm
593.52 303.973 m 661.656 349.391 l S Q
  Q
Q
q
0 1079.179 1105 -1080 re W n
[ 1 0 0 1 0 -0.820557 ] concat
  q
1 0 0 rg
3.542552 w
1 J
1 j
[] 0.0 d
10 M q 1 0 0 -1 0 1080 cm
661.656 349.391 m 758.176 343.723 l S Q
  Q
Q
q
0 1079.179 1105 -1080 re W n
[ 1 0 0 1 0 -0.820557 ] concat
  q
1 0 0 rg
3.542552 w
1 J
1 j
[] 0.0 d
10 M q 1 0 0 -1 0 1080 cm
758.176 343.723 m 778.039 267.063 l S Q
  Q
Q
q
0 1079.179 1105 -1080 re W n
[ 1 0 0 1 0 -0.820557 ] concat
  q
1 0 0 rg
3.542552 w
1 J
1 j
[] 0.0 d
10 M q 1 0 0 -1 0 1080 cm
778.039 267.063 m 829.145 193.258 l S Q
  Q
Q
q
0 1079.179 1105 -1080 re W n
[ 1 0 0 1 0 -0.820557 ] concat
  q
1 0 0 rg
3.542552 w
1 J
1 j
[] 0.0 d
10 M q 1 0 0 -1 0 1080 cm
829.145 193.258 m 900.117 213.121 l S Q
  Q
Q
q
0 1079.179 1105 -1080 re W n
[ 1 0 0 1 0 -0.820557 ] concat
  q
1 0 0 rg
3.542552 w
1 J
1 j
[] 0.0 d
10 M q 1 0 0 -1 0 1080 cm
900.117 213.121 m 925.668 267.063 l S Q
  Q
Q
q
0 1079.179 1105 -1080 re W n
[ 1 0 0 1 0 -0.820557 ] concat
  q
1 0 0 rg
3.542552 w
1 J
1 j
[] 0.0 d
10 M q 1 0 0 -1 0 1080 cm
925.668 267.063 m 914.309 338.031 l S Q
  Q
Q
q
0 1079.179 1105 -1080 re W n
[ 1 0 0 1 0 -0.820557 ] concat
  q
1 0 0 rg
3.542552 w
1 J
1 j
[] 0.0 d
10 M q 1 0 0 -1 0 1080 cm
914.309 338.031 m 900.117 400.496 l S Q
  Q
Q
q
0 1079.179 1105 -1080 re W n
[ 1 0 0 1 0 -0.820557 ] concat
  q
1 0 0 rg
3.542552 w
1 J
1 j
[] 0.0 d
10 M q 1 0 0 -1 0 1080 cm
900.117 400.496 m 854.699 440.223 l S Q
  Q
Q
q
0 1079.179 1105 -1080 re W n
[ 1 0 0 1 0 -0.820557 ] concat
  q
1 0 0 rg
3.542552 w
1 J
1 j
[] 0.0 d
10 M q 1 0 0 -1 0 1080 cm
854.699 440.223 m 800.758 536.742 l S Q
  Q
Q
q
0 1079.179 1105 -1080 re W n
[ 1 0 0 1 0 -0.820557 ] concat
  q
1 0 0 rg
3.542552 w
1 J
1 j
[] 0.0 d
10 M q 1 0 0 -1 0 1080 cm
800.758 536.742 m 789.398 627.598 l S Q
  Q
Q
q
0 1079.179 1105 -1080 re W n
[ 1 0 0 1 0 -0.820557 ] concat
  q
1 0 0 rg
3.542552 w
1 J
1 j
[] 0.0 d
10 M q 1 0 0 -1 0 1080 cm
789.398 627.598 m 803.594 704.234 l S Q
  Q
Q
q
0 1079.179 1105 -1080 re W n
[ 1 0 0 1 0 -0.820557 ] concat
  q
1 0 0 rg
3.542552 w
1 J
1 j
[] 0.0 d
10 M q 1 0 0 -1 0 1080 cm
803.594 704.234 m 874.563 718.43 l S Q
  Q
Q
q
0 1079.179 1105 -1080 re W n
[ 1 0 0 1 0 -0.820557 ] concat
  q
1 0 0 rg
3.542552 w
1 J
1 j
[] 0.0 d
10 M q 1 0 0 -1 0 1080 cm
874.563 718.43 m 942.695 701.402 l S Q
  Q
Q
q
0 1079.179 1105 -1080 re W n
[ 1 0 0 1 0 -0.820557 ] concat
  q
1 0 0 rg
3.542552 w
1 J
1 j
[] 0.0 d
10 M q 1 0 0 -1 0 1080 cm
942.695 701.402 m 1002.305 647.461 l S Q
  Q
Q
q
0 1079.179 1105 -1080 re W n
[ 1 0 0 1 0 -0.820557 ] concat
  q
1 0 0 rg
3.542552 w
1 J
1 j
[] 0.0 d
10 M q 1 0 0 -1 0 1080 cm
1002.305 647.461 m 1093.16 641.793 l S Q
  Q
Q
q
0 1079.179 1105 -1080 re W n
[ 1 0 0 1 0 -0.820557 ] concat
  q
0 0.2 0.8 rg
3.542552 w
1 J
1 j
[] 0.0 d
10 M q 1 0 0 -1 0 1080 cm
315.336 1061.914 m 1093.16 641.793 l S Q
  Q
Q
q
0 1079.179 1105 -1080 re W n
[ 1 0 0 1 0 -0.820557 ] concat
  q
0 g
2.361701 w
0 J
1 j
[ 21.255312 18.893611] 0 d
10 M q 1 0 0 -1 0 1080 cm
70.566 121.484 m 122.477 135.422 l S Q
  Q
Q
q
0 1079.179 1105 -1080 re W n
[ 1 0 0 1 0 -0.820557 ] concat
  q
0 g
2.361701 w
0 J
1 j
[ 21.255312 18.893611] 0 d
10 M q 1 0 0 -1 0 1080 cm
122.477 135.422 m 70.566 121.484 l S Q
  Q
Q
q
0 1079.179 1105 -1080 re W n
[ 1 0 0 1 0 -0.820557 ] concat
  q
0 g
2.361701 w
0 J
1 j
[ 21.255312 18.893611] 0 d
10 M q 1 0 0 -1 0 1080 cm
122.477 135.422 m 132.352 132.895 l S Q
  Q
Q
q
0 1079.179 1105 -1080 re W n
[ 1 0 0 1 0 -0.820557 ] concat
  q
0 g
2.361701 w
0 J
1 j
[ 21.255312 18.893611] 0 d
10 M q 1 0 0 -1 0 1080 cm
132.352 132.895 m 144.773 93.664 l S Q
  Q
Q
q
0 1079.179 1105 -1080 re W n
[ 1 0 0 1 0 -0.820557 ] concat
  q
0 g
2.361701 w
0 J
1 j
[ 21.255312 18.893611] 0 d
10 M q 1 0 0 -1 0 1080 cm
132.352 132.895 m 122.477 135.422 l S Q
  Q
Q
q
0 1079.179 1105 -1080 re W n
[ 1 0 0 1 0 -0.820557 ] concat
  q
0 g
2.361701 w
0 J
1 j
[ 21.255312 18.893611] 0 d
10 M q 1 0 0 -1 0 1080 cm
132.352 132.895 m 195.055 197.035 l S Q
  Q
Q
q
0 1079.179 1105 -1080 re W n
[ 1 0 0 1 0 -0.820557 ] concat
  q
0 g
2.361701 w
0 J
1 j
[ 21.255312 18.893611] 0 d
10 M q 1 0 0 -1 0 1080 cm
144.773 93.664 m 154.953 80.887 l S Q
  Q
Q
q
0 1079.179 1105 -1080 re W n
[ 1 0 0 1 0 -0.820557 ] concat
  q
0 g
2.361701 w
0 J
1 j
[ 21.255312 18.893611] 0 d
10 M q 1 0 0 -1 0 1080 cm
144.773 93.664 m 132.352 132.895 l S Q
  Q
Q
q
0 1079.179 1105 -1080 re W n
[ 1 0 0 1 0 -0.820557 ] concat
  q
0 g
2.361701 w
0 J
1 j
[ 21.255312 18.893611] 0 d
10 M q 1 0 0 -1 0 1080 cm
154.953 80.887 m 144.773 93.664 l S Q
  Q
Q
q
0 1079.179 1105 -1080 re W n
[ 1 0 0 1 0 -0.820557 ] concat
  q
0 g
2.361701 w
0 J
1 j
[ 21.255312 18.893611] 0 d
10 M q 1 0 0 -1 0 1080 cm
195.055 197.035 m 132.352 132.895 l S Q
  Q
Q
q
0 1079.179 1105 -1080 re W n
[ 1 0 0 1 0 -0.820557 ] concat
  q
0 g
2.361701 w
0 J
1 j
[ 21.255312 18.893611] 0 d
10 M q 1 0 0 -1 0 1080 cm
195.055 197.035 m 197.203 197.699 l S Q
  Q
Q
q
0 1079.179 1105 -1080 re W n
[ 1 0 0 1 0 -0.820557 ] concat
  q
0 g
2.361701 w
0 J
1 j
[ 21.255312 18.893611] 0 d
10 M q 1 0 0 -1 0 1080 cm
197.203 197.699 m 195.055 197.035 l S Q
  Q
Q
q
0 1079.179 1105 -1080 re W n
[ 1 0 0 1 0 -0.820557 ] concat
  q
0 g
2.361701 w
0 J
1 j
[ 21.255312 18.893611] 0 d
10 M q 1 0 0 -1 0 1080 cm
197.203 197.699 m 259.574 242.238 l S Q
  Q
Q
q
0 1079.179 1105 -1080 re W n
[ 1 0 0 1 0 -0.820557 ] concat
  q
0 g
2.361701 w
0 J
1 j
[ 21.255312 18.893611] 0 d
10 M q 1 0 0 -1 0 1080 cm
219.496 645.711 m 231.637 644.887 l S Q
  Q
Q
q
0 1079.179 1105 -1080 re W n
[ 1 0 0 1 0 -0.820557 ] concat
  q
0 g
2.361701 w
0 J
1 j
[ 21.255312 18.893611] 0 d
10 M q 1 0 0 -1 0 1080 cm
231.637 644.887 m 219.496 645.711 l S Q
  Q
Q
q
0 1079.179 1105 -1080 re W n
[ 1 0 0 1 0 -0.820557 ] concat
  q
0 g
2.361701 w
0 J
1 j
[ 21.255312 18.893611] 0 d
10 M q 1 0 0 -1 0 1080 cm
231.637 644.887 m 417.691 519.715 l S Q
  Q
Q
q
0 1079.179 1105 -1080 re W n
[ 1 0 0 1 0 -0.820557 ] concat
  q
0 g
2.361701 w
0 J
1 j
[ 21.255312 18.893611] 0 d
10 M q 1 0 0 -1 0 1080 cm
233.715 450.164 m 285.766 450.164 l S Q
  Q
Q
q
0 1079.179 1105 -1080 re W n
[ 1 0 0 1 0 -0.820557 ] concat
  q
0 g
2.361701 w
0 J
1 j
[ 21.255312 18.893611] 0 d
10 M q 1 0 0 -1 0 1080 cm
259.574 242.238 m 197.203 197.699 l S Q
  Q
Q
q
0 1079.179 1105 -1080 re W n
[ 1 0 0 1 0 -0.820557 ] concat
  q
0 g
2.361701 w
0 J
1 j
[ 21.255312 18.893611] 0 d
10 M q 1 0 0 -1 0 1080 cm
259.574 242.238 m 380.988 451.957 l S Q
  Q
Q
q
0 1079.179 1105 -1080 re W n
[ 1 0 0 1 0 -0.820557 ] concat
  q
0 g
2.361701 w
0 J
1 j
[ 21.255312 18.893611] 0 d
10 M q 1 0 0 -1 0 1080 cm
285.766 450.164 m 233.715 450.164 l S Q
  Q
Q
q
0 1079.179 1105 -1080 re W n
[ 1 0 0 1 0 -0.820557 ] concat
  q
0 g
2.361701 w
0 J
1 j
[ 21.255312 18.893611] 0 d
10 M q 1 0 0 -1 0 1080 cm
285.766 450.164 m 293.961 452.477 l S Q
  Q
Q
q
0 1079.179 1105 -1080 re W n
[ 1 0 0 1 0 -0.820557 ] concat
  q
0 g
2.361701 w
0 J
1 j
[ 21.255312 18.893611] 0 d
10 M q 1 0 0 -1 0 1080 cm
293.961 452.477 m 285.766 450.164 l S Q
  Q
Q
q
0 1079.179 1105 -1080 re W n
[ 1 0 0 1 0 -0.820557 ] concat
  q
0 g
2.361701 w
0 J
1 j
[ 21.255312 18.893611] 0 d
10 M q 1 0 0 -1 0 1080 cm
293.961 452.477 m 380.66 461.57 l S Q
  Q
Q
q
0 1079.179 1105 -1080 re W n
[ 1 0 0 1 0 -0.820557 ] concat
  q
0 g
2.361701 w
0 J
1 j
[ 21.255312 18.893611] 0 d
10 M q 1 0 0 -1 0 1080 cm
380.66 461.57 m 293.961 452.477 l S Q
  Q
Q
q
0 1079.179 1105 -1080 re W n
[ 1 0 0 1 0 -0.820557 ] concat
  q
0 g
2.361701 w
0 J
1 j
[ 21.255312 18.893611] 0 d
10 M q 1 0 0 -1 0 1080 cm
380.66 461.57 m 380.988 451.957 l S Q
  Q
Q
q
0 1079.179 1105 -1080 re W n
[ 1 0 0 1 0 -0.820557 ] concat
  q
0 g
2.361701 w
0 J
1 j
[ 21.255312 18.893611] 0 d
10 M q 1 0 0 -1 0 1080 cm
380.66 461.57 m 417.691 519.715 l S Q
  Q
Q
q
0 1079.179 1105 -1080 re W n
[ 1 0 0 1 0 -0.820557 ] concat
  q
0 g
2.361701 w
0 J
1 j
[ 21.255312 18.893611] 0 d
10 M q 1 0 0 -1 0 1080 cm
380.988 451.957 m 259.574 242.238 l S Q
  Q
Q
q
0 1079.179 1105 -1080 re W n
[ 1 0 0 1 0 -0.820557 ] concat
  q
0 g
2.361701 w
0 J
1 j
[ 21.255312 18.893611] 0 d
10 M q 1 0 0 -1 0 1080 cm
380.988 451.957 m 453.188 282.859 l S Q
  Q
Q
q
0 1079.179 1105 -1080 re W n
[ 1 0 0 1 0 -0.820557 ] concat
  q
0 g
2.361701 w
0 J
1 j
[ 21.255312 18.893611] 0 d
10 M q 1 0 0 -1 0 1080 cm
380.988 451.957 m 380.66 461.57 l S Q
  Q
Q
q
0 1079.179 1105 -1080 re W n
[ 1 0 0 1 0 -0.820557 ] concat
  q
0 g
2.361701 w
0 J
1 j
[ 21.255312 18.893611] 0 d
10 M q 1 0 0 -1 0 1080 cm
417.691 519.715 m 380.66 461.57 l S Q
  Q
Q
q
0 1079.179 1105 -1080 re W n
[ 1 0 0 1 0 -0.820557 ] concat
  q
0 g
2.361701 w
0 J
1 j
[ 21.255312 18.893611] 0 d
10 M q 1 0 0 -1 0 1080 cm
417.691 519.715 m 231.637 644.887 l S Q
  Q
Q
q
0 1079.179 1105 -1080 re W n
[ 1 0 0 1 0 -0.820557 ] concat
  q
0 g
2.361701 w
0 J
1 j
[ 21.255312 18.893611] 0 d
10 M q 1 0 0 -1 0 1080 cm
417.691 519.715 m 426.523 526.543 l S Q
  Q
Q
q
0 1079.179 1105 -1080 re W n
[ 1 0 0 1 0 -0.820557 ] concat
  q
0 g
2.361701 w
0 J
1 j
[ 21.255312 18.893611] 0 d
10 M q 1 0 0 -1 0 1080 cm
426.523 526.543 m 417.691 519.715 l S Q
  Q
Q
q
0 1079.179 1105 -1080 re W n
[ 1 0 0 1 0 -0.820557 ] concat
  q
0 g
2.361701 w
0 J
1 j
[ 21.255312 18.893611] 0 d
10 M q 1 0 0 -1 0 1080 cm
426.523 526.543 m 475.766 552.758 l S Q
  Q
Q
q
0 1079.179 1105 -1080 re W n
[ 1 0 0 1 0 -0.820557 ] concat
  q
0 g
2.361701 w
0 J
1 j
[ 21.255312 18.893611] 0 d
10 M q 1 0 0 -1 0 1080 cm
453.188 282.859 m 524.582 212.719 l S Q
  Q
Q
q
0 1079.179 1105 -1080 re W n
[ 1 0 0 1 0 -0.820557 ] concat
  q
0 g
2.361701 w
0 J
1 j
[ 21.255312 18.893611] 0 d
10 M q 1 0 0 -1 0 1080 cm
453.188 282.859 m 380.988 451.957 l S Q
  Q
Q
q
0 1079.179 1105 -1080 re W n
[ 1 0 0 1 0 -0.820557 ] concat
  q
0 g
2.361701 w
0 J
1 j
[ 21.255312 18.893611] 0 d
10 M q 1 0 0 -1 0 1080 cm
475.766 552.758 m 426.523 526.543 l S Q
  Q
Q
q
0 1079.179 1105 -1080 re W n
[ 1 0 0 1 0 -0.820557 ] concat
  q
0 g
2.361701 w
0 J
1 j
[ 21.255312 18.893611] 0 d
10 M q 1 0 0 -1 0 1080 cm
475.766 552.758 m 476.688 553.039 l S Q
  Q
Q
q
0 1079.179 1105 -1080 re W n
[ 1 0 0 1 0 -0.820557 ] concat
  q
0 g
2.361701 w
0 J
1 j
[ 21.255312 18.893611] 0 d
10 M q 1 0 0 -1 0 1080 cm
476.688 553.039 m 475.766 552.758 l S Q
  Q
Q
q
0 1079.179 1105 -1080 re W n
[ 1 0 0 1 0 -0.820557 ] concat
  q
0 g
2.361701 w
0 J
1 j
[ 21.255312 18.893611] 0 d
10 M q 1 0 0 -1 0 1080 cm
476.688 553.039 m 528.668 578.875 l S Q
  Q
Q
q
0 1079.179 1105 -1080 re W n
[ 1 0 0 1 0 -0.820557 ] concat
  q
0 g
2.361701 w
0 J
1 j
[ 21.255312 18.893611] 0 d
10 M q 1 0 0 -1 0 1080 cm
502.477 62.277 m 511.828 114.449 l S Q
  Q
Q
q
0 1079.179 1105 -1080 re W n
[ 1 0 0 1 0 -0.820557 ] concat
  q
0 g
2.361701 w
0 J
1 j
[ 21.255312 18.893611] 0 d
10 M q 1 0 0 -1 0 1080 cm
511.828 114.449 m 502.477 62.277 l S Q
  Q
Q
q
0 1079.179 1105 -1080 re W n
[ 1 0 0 1 0 -0.820557 ] concat
  q
0 g
2.361701 w
0 J
1 j
[ 21.255312 18.893611] 0 d
10 M q 1 0 0 -1 0 1080 cm
511.828 114.449 m 544.395 155.637 l S Q
  Q
Q
q
0 1079.179 1105 -1080 re W n
[ 1 0 0 1 0 -0.820557 ] concat
  q
0 g
2.361701 w
0 J
1 j
[ 21.255312 18.893611] 0 d
10 M q 1 0 0 -1 0 1080 cm
524.582 212.719 m 544.395 155.637 l S Q
  Q
Q
q
0 1079.179 1105 -1080 re W n
[ 1 0 0 1 0 -0.820557 ] concat
  q
0 g
2.361701 w
0 J
1 j
[ 21.255312 18.893611] 0 d
10 M q 1 0 0 -1 0 1080 cm
524.582 212.719 m 453.188 282.859 l S Q
  Q
Q
q
0 1079.179 1105 -1080 re W n
[ 1 0 0 1 0 -0.820557 ] concat
  q
0 g
2.361701 w
0 J
1 j
[ 21.255312 18.893611] 0 d
10 M q 1 0 0 -1 0 1080 cm
528.668 578.875 m 580.059 555.285 l S Q
  Q
Q
q
0 1079.179 1105 -1080 re W n
[ 1 0 0 1 0 -0.820557 ] concat
  q
0 g
2.361701 w
0 J
1 j
[ 21.255312 18.893611] 0 d
10 M q 1 0 0 -1 0 1080 cm
528.668 578.875 m 476.688 553.039 l S Q
  Q
Q
q
0 1079.179 1105 -1080 re W n
[ 1 0 0 1 0 -0.820557 ] concat
  q
0 g
2.361701 w
0 J
1 j
[ 21.255312 18.893611] 0 d
10 M q 1 0 0 -1 0 1080 cm
528.668 578.875 m 556.984 631.402 l S Q
  Q
Q
q
0 1079.179 1105 -1080 re W n
[ 1 0 0 1 0 -0.820557 ] concat
  q
0 g
2.361701 w
0 J
1 j
[ 21.255312 18.893611] 0 d
10 M q 1 0 0 -1 0 1080 cm
544.395 155.637 m 511.828 114.449 l S Q
  Q
Q
q
0 1079.179 1105 -1080 re W n
[ 1 0 0 1 0 -0.820557 ] concat
  q
0 g
2.361701 w
0 J
1 j
[ 21.255312 18.893611] 0 d
10 M q 1 0 0 -1 0 1080 cm
544.395 155.637 m 568.602 143.734 l S Q
  Q
Q
q
0 1079.179 1105 -1080 re W n
[ 1 0 0 1 0 -0.820557 ] concat
  q
0 g
2.361701 w
0 J
1 j
[ 21.255312 18.893611] 0 d
10 M q 1 0 0 -1 0 1080 cm
544.395 155.637 m 524.582 212.719 l S Q
  Q
Q
q
0 1079.179 1105 -1080 re W n
[ 1 0 0 1 0 -0.820557 ] concat
  q
0 g
2.361701 w
0 J
1 j
[ 21.255312 18.893611] 0 d
10 M q 1 0 0 -1 0 1080 cm
556.984 631.402 m 528.668 578.875 l S Q
  Q
Q
q
0 1079.179 1105 -1080 re W n
[ 1 0 0 1 0 -0.820557 ] concat
  q
0 g
2.361701 w
0 J
1 j
[ 21.255312 18.893611] 0 d
10 M q 1 0 0 -1 0 1080 cm
556.984 631.402 m 615.152 699.488 l S Q
  Q
Q
q
0 1079.179 1105 -1080 re W n
[ 1 0 0 1 0 -0.820557 ] concat
  q
0 g
2.361701 w
0 J
1 j
[ 21.255312 18.893611] 0 d
10 M q 1 0 0 -1 0 1080 cm
568.602 143.734 m 610.734 98.082 l S Q
  Q
Q
q
0 1079.179 1105 -1080 re W n
[ 1 0 0 1 0 -0.820557 ] concat
  q
0 g
2.361701 w
0 J
1 j
[ 21.255312 18.893611] 0 d
10 M q 1 0 0 -1 0 1080 cm
568.602 143.734 m 544.395 155.637 l S Q
  Q
Q
q
0 1079.179 1105 -1080 re W n
[ 1 0 0 1 0 -0.820557 ] concat
  q
0 g
2.361701 w
0 J
1 j
[ 21.255312 18.893611] 0 d
10 M q 1 0 0 -1 0 1080 cm
580.059 555.285 m 716.258 454.18 l S Q
  Q
Q
q
0 1079.179 1105 -1080 re W n
[ 1 0 0 1 0 -0.820557 ] concat
  q
0 g
2.361701 w
0 J
1 j
[ 21.255312 18.893611] 0 d
10 M q 1 0 0 -1 0 1080 cm
580.059 555.285 m 528.668 578.875 l S Q
  Q
Q
q
0 1079.179 1105 -1080 re W n
[ 1 0 0 1 0 -0.820557 ] concat
  q
0 g
2.361701 w
0 J
1 j
[ 21.255312 18.893611] 0 d
10 M q 1 0 0 -1 0 1080 cm
610.734 98.082 m 615.438 69.246 l S Q
  Q
Q
q
0 1079.179 1105 -1080 re W n
[ 1 0 0 1 0 -0.820557 ] concat
  q
0 g
2.361701 w
0 J
1 j
[ 21.255312 18.893611] 0 d
10 M q 1 0 0 -1 0 1080 cm
610.734 98.082 m 568.602 143.734 l S Q
  Q
Q
q
0 1079.179 1105 -1080 re W n
[ 1 0 0 1 0 -0.820557 ] concat
  q
0 g
2.361701 w
0 J
1 j
[ 21.255312 18.893611] 0 d
10 M q 1 0 0 -1 0 1080 cm
615.152 699.488 m 556.984 631.402 l S Q
  Q
Q
q
0 1079.179 1105 -1080 re W n
[ 1 0 0 1 0 -0.820557 ] concat
  q
0 g
2.361701 w
0 J
1 j
[ 21.255312 18.893611] 0 d
10 M q 1 0 0 -1 0 1080 cm
615.152 699.488 m 699.512 854.418 l S Q
  Q
Q
q
0 1079.179 1105 -1080 re W n
[ 1 0 0 1 0 -0.820557 ] concat
  q
0 g
2.361701 w
0 J
1 j
[ 21.255312 18.893611] 0 d
10 M q 1 0 0 -1 0 1080 cm
615.438 69.246 m 610.734 98.082 l S Q
  Q
Q
q
0 1079.179 1105 -1080 re W n
[ 1 0 0 1 0 -0.820557 ] concat
  q
0 g
2.361701 w
0 J
1 j
[ 21.255312 18.893611] 0 d
10 M q 1 0 0 -1 0 1080 cm
699.512 854.418 m 615.152 699.488 l S Q
  Q
Q
q
0 1079.179 1105 -1080 re W n
[ 1 0 0 1 0 -0.820557 ] concat
  q
0 g
2.361701 w
0 J
1 j
[ 21.255312 18.893611] 0 d
10 M q 1 0 0 -1 0 1080 cm
716.258 454.18 m 752.156 446.266 l S Q
  Q
Q
q
0 1079.179 1105 -1080 re W n
[ 1 0 0 1 0 -0.820557 ] concat
  q
0 g
2.361701 w
0 J
1 j
[ 21.255312 18.893611] 0 d
10 M q 1 0 0 -1 0 1080 cm
716.258 454.18 m 580.059 555.285 l S Q
  Q
Q
q
0 1079.179 1105 -1080 re W n
[ 1 0 0 1 0 -0.820557 ] concat
  q
0 g
2.361701 w
0 J
1 j
[ 21.255312 18.893611] 0 d
10 M q 1 0 0 -1 0 1080 cm
752.156 446.266 m 831.035 367.363 l S Q
  Q
Q
q
0 1079.179 1105 -1080 re W n
[ 1 0 0 1 0 -0.820557 ] concat
  q
0 g
2.361701 w
0 J
1 j
[ 21.255312 18.893611] 0 d
10 M q 1 0 0 -1 0 1080 cm
752.156 446.266 m 716.258 454.18 l S Q
  Q
Q
q
0 1079.179 1105 -1080 re W n
[ 1 0 0 1 0 -0.820557 ] concat
  q
0 g
2.361701 w
0 J
1 j
[ 21.255312 18.893611] 0 d
10 M q 1 0 0 -1 0 1080 cm
831.035 367.363 m 836.703 353.238 l S Q
  Q
Q
q
0 1079.179 1105 -1080 re W n
[ 1 0 0 1 0 -0.820557 ] concat
  q
0 g
2.361701 w
0 J
1 j
[ 21.255312 18.893611] 0 d
10 M q 1 0 0 -1 0 1080 cm
831.035 367.363 m 752.156 446.266 l S Q
  Q
Q
q
0 1079.179 1105 -1080 re W n
[ 1 0 0 1 0 -0.820557 ] concat
  q
0 g
2.361701 w
0 J
1 j
[ 21.255312 18.893611] 0 d
10 M q 1 0 0 -1 0 1080 cm
835.594 322.891 m 851.867 291.648 l S Q
  Q
Q
q
0 1079.179 1105 -1080 re W n
[ 1 0 0 1 0 -0.820557 ] concat
  q
0 g
2.361701 w
0 J
1 j
[ 21.255312 18.893611] 0 d
10 M q 1 0 0 -1 0 1080 cm
835.594 322.891 m 836.703 353.238 l S Q
  Q
Q
q
0 1079.179 1105 -1080 re W n
[ 1 0 0 1 0 -0.820557 ] concat
  q
0 g
2.361701 w
0 J
1 j
[ 21.255312 18.893611] 0 d
10 M q 1 0 0 -1 0 1080 cm
836.703 353.238 m 835.594 322.891 l S Q
  Q
Q
q
0 1079.179 1105 -1080 re W n
[ 1 0 0 1 0 -0.820557 ] concat
  q
0 g
2.361701 w
0 J
1 j
[ 21.255312 18.893611] 0 d
10 M q 1 0 0 -1 0 1080 cm
836.703 353.238 m 831.035 367.363 l S Q
  Q
Q
q
0 1079.179 1105 -1080 re W n
[ 1 0 0 1 0 -0.820557 ] concat
  q
0 g
2.361701 w
0 J
1 j
[ 21.255312 18.893611] 0 d
10 M q 1 0 0 -1 0 1080 cm
848.395 261.18 m 851.867 269.02 l S Q
  Q
Q
q
0 1079.179 1105 -1080 re W n
[ 1 0 0 1 0 -0.820557 ] concat
  q
0 g
2.361701 w
0 J
1 j
[ 21.255312 18.893611] 0 d
10 M q 1 0 0 -1 0 1080 cm
851.867 291.648 m 851.867 269.02 l S Q
  Q
Q
q
0 1079.179 1105 -1080 re W n
[ 1 0 0 1 0 -0.820557 ] concat
  q
0 g
2.361701 w
0 J
1 j
[ 21.255312 18.893611] 0 d
10 M q 1 0 0 -1 0 1080 cm
851.867 291.648 m 835.594 322.891 l S Q
  Q
Q
q
0 1079.179 1105 -1080 re W n
[ 1 0 0 1 0 -0.820557 ] concat
  q
0 g
2.361701 w
0 J
1 j
[ 21.255312 18.893611] 0 d
10 M q 1 0 0 -1 0 1080 cm
851.867 269.02 m 848.395 261.18 l S Q
  Q
Q
q
0 1079.179 1105 -1080 re W n
[ 1 0 0 1 0 -0.820557 ] concat
  q
0 g
2.361701 w
0 J
1 j
[ 21.255312 18.893611] 0 d
10 M q 1 0 0 -1 0 1080 cm
851.867 269.02 m 851.867 291.648 l S Q
  Q
Q
q
0 1079.179 1105 -1080 re W n
[ 1 0 0 1 0 -0.820557 ] concat
  q
0 0.6 0 rg
5.904253 w
1 J
1 j
[] 0.0 d
10 M q 1 0 0 -1 0 1080 cm
587.852 162.035 m 505.523 196.094 l S Q
  Q
Q
q
0 1079.179 1105 -1080 re W n
[ 1 0 0 1 0 -0.820557 ] concat
  q
0 g
2.361701 w
1 J
1 j
[] 0.0 d
10 M q 1 0 0 -1 0 1080 cm
505.523 196.094 m 511.215 272.754 l S Q
  Q
Q
q
0 1079.179 1105 -1080 re W n
[ 1 0 0 1 0 -0.820557 ] concat
  q
0 g
2.361701 w
1 J
1 j
[] 0.0 d
10 M q 1 0 0 -1 0 1080 cm
511.215 272.754 m 587.852 343.723 l S Q
  Q
Q
q
0 1079.179 1105 -1080 re W n
[ 1 0 0 1 0 -0.820557 ] concat
  q
0 g
2.361701 w
1 J
1 j
[] 0.0 d
10 M q 1 0 0 -1 0 1080 cm
587.852 343.723 m 616.238 428.887 l S Q
  Q
Q
q
0 1079.179 1105 -1080 re W n
[ 1 0 0 1 0 -0.820557 ] concat
  q
0 g
2.361701 w
1 J
1 j
[] 0.0 d
10 M q 1 0 0 -1 0 1080 cm
616.238 428.887 m 638.957 528.242 l S Q
  Q
Q
q
0 1079.179 1105 -1080 re W n
[ 1 0 0 1 0 -0.820557 ] concat
  q
0 g
2.361701 w
1 J
1 j
[] 0.0 d
10 M q 1 0 0 -1 0 1080 cm
638.957 528.242 m 647.461 590.684 l S Q
  Q
Q
q
0 1079.179 1105 -1080 re W n
[ 1 0 0 1 0 -0.820557 ] concat
  q
0 g
2.361701 w
1 J
1 j
[] 0.0 d
10 M q 1 0 0 -1 0 1080 cm
647.461 590.684 m 732.625 647.461 l S Q
  Q
Q
q
0 1079.179 1105 -1080 re W n
[ 1 0 0 1 0 -0.820557 ] concat
  q
0 g
2.361701 w
1 J
1 j
[] 0.0 d
10 M q 1 0 0 -1 0 1080 cm
732.625 647.461 m 803.594 704.234 l S Q
  Q
Q
q
0 1079.179 1105 -1080 re W n
[ 1 0 0 1 0 -0.820557 ] concat
  q
0 g
2.361701 w
1 J
1 j
[] 0.0 d
10 M q 1 0 0 -1 0 1080 cm
803.594 704.234 m 800.758 775.203 l S Q
  Q
Q
q
0 1079.179 1105 -1080 re W n
[ 1 0 0 1 0 -0.820557 ] concat
  q
0 g
2.361701 w
1 J
1 j
[] 0.0 d
10 M q 1 0 0 -1 0 1080 cm
800.758 775.203 m 746.816 840.508 l S Q
  Q
Q
q
0 1079.179 1105 -1080 re W n
[ 1 0 0 1 0 -0.820557 ] concat
  q
0 g
2.361701 w
1 J
1 j
[] 0.0 d
10 M q 1 0 0 -1 0 1080 cm
746.816 840.508 m 675.848 908.617 l S Q
  Q
Q
q
0 1079.179 1105 -1080 re W n
[ 1 0 0 1 0 -0.820557 ] concat
  q
0 g
2.361701 w
1 J
1 j
[] 0.0 d
10 M q 1 0 0 -1 0 1080 cm
675.848 908.617 m 576.492 914.309 l S Q
  Q
Q
q
0 1079.179 1105 -1080 re W n
[ 1 0 0 1 0 -0.820557 ] concat
  q
0 g
2.361701 w
1 J
1 j
[] 0.0 d
10 M q 1 0 0 -1 0 1080 cm
576.492 914.309 m 531.074 973.918 l S Q
  Q
Q
q
0 1079.179 1105 -1080 re W n
[ 1 0 0 1 0 -0.820557 ] concat
  q
0 g
2.361701 w
1 J
1 j
[] 0.0 d
10 M q 1 0 0 -1 0 1080 cm
531.074 973.918 m 457.273 1050.555 l S Q
  Q
Q
q
0 1079.179 1105 -1080 re W n
[ 1 0 0 1 0 -0.820557 ] concat
  q
0 g
2.361701 w
1 J
1 j
[] 0.0 d
10 M q 1 0 0 -1 0 1080 cm
457.273 1050.555 m 366.418 1059.082 l S Q
  Q
Q
q
0 1079.179 1105 -1080 re W n
[ 1 0 0 1 0 -0.820557 ] concat
  q
0.266667 g
2.361701 w
2 J
0 j
[] 0.0 d
10 M q 1 0 0 -1 0 1080 cm
320.059 1061.914 m 320.059 1064.535 317.934 1066.641 315.336 1066.641 c
 312.715 1066.641 310.609 1064.535 310.609 1061.914 c 310.609 1059.316 312.715
 1057.191 315.336 1057.191 c 317.934 1057.191 320.059 1059.316 320.059 1061.914
 c h
320.059 1061.914 m S Q
  Q
Q
q
0 1079.179 1105 -1080 re W n
[ 1 0 0 1 0 -0.820557 ] concat
  q
0.266667 g
2.361701 w
2 J
0 j
[] 0.0 d
10 M q 1 0 0 -1 0 1080 cm
371.141 1059.082 m 371.141 1061.703 369.039 1063.805 366.418 1063.805 c
 363.82 1063.805 361.695 1061.703 361.695 1059.082 c 361.695 1056.484 363.82
 1054.359 366.418 1054.359 c 369.039 1054.359 371.141 1056.484 371.141 1059.082
 c h
371.141 1059.082 m S Q
  Q
Q
q
0 1079.179 1105 -1080 re W n
[ 1 0 0 1 0 -0.820557 ] concat
  q
0.266667 g
2.361701 w
2 J
0 j
[] 0.0 d
10 M q 1 0 0 -1 0 1080 cm
461.996 1050.555 m 461.996 1053.176 459.871 1055.277 457.273 1055.277 c
 454.652 1055.277 452.551 1053.176 452.551 1050.555 c 452.551 1047.957 454.652
 1045.832 457.273 1045.832 c 459.871 1045.832 461.996 1047.957 461.996 1050.555
 c h
461.996 1050.555 m S Q
  Q
Q
q
0 1079.179 1105 -1080 re W n
[ 1 0 0 1 0 -0.820557 ] concat
  q
0.266667 g
2.361701 w
2 J
0 j
[] 0.0 d
10 M q 1 0 0 -1 0 1080 cm
527.273 1050.555 m 527.273 1053.176 525.172 1055.277 522.551 1055.277 c
 519.953 1055.277 517.828 1053.176 517.828 1050.555 c 517.828 1047.957 519.953
 1045.832 522.551 1045.832 c 525.172 1045.832 527.273 1047.957 527.273 1050.555
 c h
527.273 1050.555 m S Q
  Q
Q
q
0 1079.179 1105 -1080 re W n
[ 1 0 0 1 0 -0.820557 ] concat
  q
0.266667 g
2.361701 w
2 J
0 j
[] 0.0 d
10 M q 1 0 0 -1 0 1080 cm
606.77 1064.75 m 606.77 1067.371 604.668 1069.473 602.047 1069.473 c 599.445
 1069.473 597.32 1067.371 597.32 1064.75 c 597.32 1062.152 599.445 1060.027
 602.047 1060.027 c 604.668 1060.027 606.77 1062.152 606.77 1064.75 c h
606.77 1064.75 m S Q
  Q
Q
q
0 1079.179 1105 -1080 re W n
[ 1 0 0 1 0 -0.820557 ] concat
  q
0.266667 g
2.361701 w
2 J
0 j
[] 0.0 d
10 M q 1 0 0 -1 0 1080 cm
677.738 1070.441 m 677.738 1073.039 675.637 1075.164 673.016 1075.164 c
 670.418 1075.164 668.289 1073.039 668.289 1070.441 c 668.289 1067.82 670.418
 1065.719 673.016 1065.719 c 675.637 1065.719 677.738 1067.82 677.738 1070.441
 c h
677.738 1070.441 m S Q
  Q
Q
q
0 1079.179 1105 -1080 re W n
[ 1 0 0 1 0 -0.820557 ] concat
  q
0.266667 g
2.361701 w
2 J
0 j
[] 0.0 d
10 M q 1 0 0 -1 0 1080 cm
723.152 1073.273 m 723.152 1075.898 721.051 1078 718.43 1078 c 715.832 
1078 713.707 1075.898 713.707 1073.273 c 713.707 1070.676 715.832 1068.551
 718.43 1068.551 c 721.051 1068.551 723.152 1070.676 723.152 1073.273 c 
h
723.152 1073.273 m S Q
  Q
Q
q
0 1079.179 1105 -1080 re W n
[ 1 0 0 1 0 -0.820557 ] concat
  q
0.266667 g
2.361701 w
2 J
0 j
[] 0.0 d
10 M q 1 0 0 -1 0 1080 cm
819.676 1064.75 m 819.676 1067.371 817.574 1069.473 814.953 1069.473 c 
812.355 1069.473 810.23 1067.371 810.23 1064.75 c 810.23 1062.152 812.355
 1060.027 814.953 1060.027 c 817.574 1060.027 819.676 1062.152 819.676 1064.75
 c h
819.676 1064.75 m S Q
  Q
Q
q
0 1079.179 1105 -1080 re W n
[ 1 0 0 1 0 -0.820557 ] concat
  q
0.266667 g
2.361701 w
2 J
0 j
[] 0.0 d
10 M q 1 0 0 -1 0 1080 cm
887.813 1050.555 m 887.813 1053.176 885.684 1055.277 883.086 1055.277 c
 880.465 1055.277 878.363 1053.176 878.363 1050.555 c 878.363 1047.957 880.465
 1045.832 883.086 1045.832 c 885.684 1045.832 887.813 1047.957 887.813 1050.555
 c h
887.813 1050.555 m S Q
  Q
Q
q
0 1079.179 1105 -1080 re W n
[ 1 0 0 1 0 -0.820557 ] concat
  q
0.266667 g
2.361701 w
2 J
0 j
[] 0.0 d
10 M q 1 0 0 -1 0 1080 cm
955.945 1056.246 m 955.945 1058.844 953.82 1060.973 951.223 1060.973 c 
948.602 1060.973 946.5 1058.844 946.5 1056.246 c 946.5 1053.625 948.602 
1051.523 951.223 1051.523 c 953.82 1051.523 955.945 1053.625 955.945 1056.246
 c h
955.945 1056.246 m S Q
  Q
Q
q
0 1079.179 1105 -1080 re W n
[ 1 0 0 1 0 -0.820557 ] concat
  q
0.266667 g
2.361701 w
2 J
0 j
[] 0.0 d
10 M q 1 0 0 -1 0 1080 cm
1029.75 1073.273 m 1029.75 1075.898 1027.625 1078 1025.027 1078 c 1022.402
 1078 1020.301 1075.898 1020.301 1073.273 c 1020.301 1070.676 1022.402 1068.551
 1025.027 1068.551 c 1027.625 1068.551 1029.75 1070.676 1029.75 1073.273
 c h
1029.75 1073.273 m S Q
  Q
Q
q
0 1079.179 1105 -1080 re W n
[ 1 0 0 1 0 -0.820557 ] concat
  q
0.266667 g
2.361701 w
2 J
0 j
[] 0.0 d
10 M q 1 0 0 -1 0 1080 cm
1078 1053.414 m 1078 1056.012 1075.898 1058.137 1073.273 1058.137 c 1070.676
 1058.137 1068.551 1056.012 1068.551 1053.414 c 1068.551 1050.793 1070.676
 1048.691 1073.273 1048.691 c 1075.898 1048.691 1078 1050.793 1078 1053.414
 c h
1078 1053.414 m S Q
  Q
Q
q
0 1079.179 1105 -1080 re W n
[ 1 0 0 1 0 -0.820557 ] concat
  q
0.266667 g
2.361701 w
2 J
0 j
[] 0.0 d
10 M q 1 0 0 -1 0 1080 cm
368.309 999.473 m 368.309 1002.07 366.207 1004.195 363.582 1004.195 c 360.984
 1004.195 358.859 1002.07 358.859 999.473 c 358.859 996.852 360.984 994.75
 363.582 994.75 c 366.207 994.75 368.309 996.852 368.309 999.473 c h
368.309 999.473 m S Q
  Q
Q
q
0 1079.179 1105 -1080 re W n
[ 1 0 0 1 0 -0.820557 ] concat
  q
0.266667 g
2.361701 w
2 J
0 j
[] 0.0 d
10 M q 1 0 0 -1 0 1080 cm
444.969 990.945 m 444.969 993.566 442.844 995.668 440.246 995.668 c 437.625
 995.668 435.52 993.566 435.52 990.945 c 435.52 988.348 437.625 986.223 
440.246 986.223 c 442.844 986.223 444.969 988.348 444.969 990.945 c h
444.969 990.945 m S Q
  Q
Q
q
0 1079.179 1105 -1080 re W n
[ 1 0 0 1 0 -0.820557 ] concat
  q
0.266667 g
2.361701 w
2 J
0 j
[] 0.0 d
10 M q 1 0 0 -1 0 1080 cm
535.801 973.918 m 535.801 976.539 533.699 978.641 531.074 978.641 c 528.477
 978.641 526.352 976.539 526.352 973.918 c 526.352 971.32 528.477 969.195
 531.074 969.195 c 533.699 969.195 535.801 971.32 535.801 973.918 c h
535.801 973.918 m S Q
  Q
Q
q
0 1079.179 1105 -1080 re W n
[ 1 0 0 1 0 -0.820557 ] concat
  q
0.266667 g
2.361701 w
2 J
0 j
[] 0.0 d
10 M q 1 0 0 -1 0 1080 cm
592.574 1005.141 m 592.574 1007.762 590.473 1009.863 587.852 1009.863 c
 585.254 1009.863 583.129 1007.762 583.129 1005.141 c 583.129 1002.543 585.254
 1000.418 587.852 1000.418 c 590.473 1000.418 592.574 1002.543 592.574 1005.141
 c h
592.574 1005.141 m S Q
  Q
Q
q
0 1079.179 1105 -1080 re W n
[ 1 0 0 1 0 -0.820557 ] concat
  q
0.266667 g
2.361701 w
2 J
0 j
[] 0.0 d
10 M q 1 0 0 -1 0 1080 cm
680.57 1002.305 m 680.57 1004.926 678.469 1007.031 675.848 1007.031 c 673.25
 1007.031 671.125 1004.926 671.125 1002.305 c 671.125 999.707 673.25 997.582
 675.848 997.582 c 678.469 997.582 680.57 999.707 680.57 1002.305 c h
680.57 1002.305 m S Q
  Q
Q
q
0 1079.179 1105 -1080 re W n
[ 1 0 0 1 0 -0.820557 ] concat
  q
0.266667 g
2.361701 w
2 J
0 j
[] 0.0 d
10 M q 1 0 0 -1 0 1080 cm
737.348 996.637 m 737.348 999.234 735.246 1001.363 732.625 1001.363 c 730.027
 1001.363 727.898 999.234 727.898 996.637 c 727.898 994.016 730.027 991.914
 732.625 991.914 c 735.246 991.914 737.348 994.016 737.348 996.637 c h
737.348 996.637 m S Q
  Q
Q
q
0 1079.179 1105 -1080 re W n
[ 1 0 0 1 0 -0.820557 ] concat
  q
0.266667 g
2.361701 w
2 J
0 j
[] 0.0 d
10 M q 1 0 0 -1 0 1080 cm
811.148 999.473 m 811.148 1002.07 809.047 1004.195 806.426 1004.195 c 803.828
 1004.195 801.703 1002.07 801.703 999.473 c 801.703 996.852 803.828 994.75
 806.426 994.75 c 809.047 994.75 811.148 996.852 811.148 999.473 c h
811.148 999.473 m S Q
  Q
Q
q
0 1079.179 1105 -1080 re W n
[ 1 0 0 1 0 -0.820557 ] concat
  q
0.266667 g
2.361701 w
2 J
0 j
[] 0.0 d
10 M q 1 0 0 -1 0 1080 cm
873.617 1002.305 m 873.617 1004.926 871.492 1007.031 868.895 1007.031 c
 866.273 1007.031 864.172 1004.926 864.172 1002.305 c 864.172 999.707 866.273
 997.582 868.895 997.582 c 871.492 997.582 873.617 999.707 873.617 1002.305
 c h
873.617 1002.305 m S Q
  Q
Q
q
0 1079.179 1105 -1080 re W n
[ 1 0 0 1 0 -0.820557 ] concat
  q
0.266667 g
2.361701 w
2 J
0 j
[] 0.0 d
10 M q 1 0 0 -1 0 1080 cm
936.059 990.945 m 936.059 993.566 933.957 995.668 931.336 995.668 c 928.738
 995.668 926.613 993.566 926.613 990.945 c 926.613 988.348 928.738 986.223
 931.336 986.223 c 933.957 986.223 936.059 988.348 936.059 990.945 c h
936.059 990.945 m S Q
  Q
Q
q
0 1079.179 1105 -1080 re W n
[ 1 0 0 1 0 -0.820557 ] concat
  q
0.266667 g
2.361701 w
2 J
0 j
[] 0.0 d
10 M q 1 0 0 -1 0 1080 cm
1018.391 1005.141 m 1018.391 1007.762 1016.289 1009.863 1013.664 1009.863
 c 1011.066 1009.863 1008.941 1007.762 1008.941 1005.141 c 1008.941 1002.543
 1011.066 1000.418 1013.664 1000.418 c 1016.289 1000.418 1018.391 1002.543
 1018.391 1005.141 c h
1018.391 1005.141 m S Q
  Q
Q
q
0 1079.179 1105 -1080 re W n
[ 1 0 0 1 0 -0.820557 ] concat
  q
0.266667 g
2.361701 w
2 J
0 j
[] 0.0 d
10 M q 1 0 0 -1 0 1080 cm
1075.164 979.586 m 1075.164 982.207 1073.063 984.309 1070.441 984.309 c
 1067.844 984.309 1065.719 982.207 1065.719 979.586 c 1065.719 976.988 1067.844
 974.863 1070.441 974.863 c 1073.063 974.863 1075.164 976.988 1075.164 979.586
 c h
1075.164 979.586 m S Q
  Q
Q
q
0 1079.179 1105 -1080 re W n
[ 1 0 0 1 0 -0.820557 ] concat
  q
0.266667 g
2.361701 w
2 J
0 j
[] 0.0 d
10 M q 1 0 0 -1 0 1080 cm
527.273 917.145 m 527.273 919.766 525.172 921.867 522.551 921.867 c 519.953
 921.867 517.828 919.766 517.828 917.145 c 517.828 914.547 519.953 912.418
 522.551 912.418 c 525.172 912.418 527.273 914.547 527.273 917.145 c h
527.273 917.145 m S Q
  Q
Q
q
0 1079.179 1105 -1080 re W n
[ 1 0 0 1 0 -0.820557 ] concat
  q
0.266667 g
2.361701 w
2 J
0 j
[] 0.0 d
10 M q 1 0 0 -1 0 1080 cm
581.215 914.309 m 581.215 916.906 579.113 919.031 576.492 919.031 c 573.895
 919.031 571.77 916.906 571.77 914.309 c 571.77 911.688 573.895 909.586 
576.492 909.586 c 579.113 909.586 581.215 911.688 581.215 914.309 c h
581.215 914.309 m S Q
  Q
Q
q
0 1079.179 1105 -1080 re W n
[ 1 0 0 1 0 -0.820557 ] concat
  q
0.266667 g
2.361701 w
2 J
0 j
[] 0.0 d
10 M q 1 0 0 -1 0 1080 cm
680.57 908.617 m 680.57 911.238 678.469 913.34 675.848 913.34 c 673.25 
913.34 671.125 911.238 671.125 908.617 c 671.125 906.02 673.25 903.895 675.848
 903.895 c 678.469 903.895 680.57 906.02 680.57 908.617 c h
680.57 908.617 m S Q
  Q
Q
q
0 1079.179 1105 -1080 re W n
[ 1 0 0 1 0 -0.820557 ] concat
  q
0.266667 g
2.361701 w
2 J
0 j
[] 0.0 d
10 M q 1 0 0 -1 0 1080 cm
743.039 917.145 m 743.039 919.766 740.914 921.867 738.316 921.867 c 735.695
 921.867 733.59 919.766 733.59 917.145 c 733.59 914.547 735.695 912.418 
738.316 912.418 c 740.914 912.418 743.039 914.547 743.039 917.145 c h
743.039 917.145 m S Q
  Q
Q
q
0 1079.179 1105 -1080 re W n
[ 1 0 0 1 0 -0.820557 ] concat
  q
0.266667 g
2.361701 w
2 J
0 j
[] 0.0 d
10 M q 1 0 0 -1 0 1080 cm
819.676 914.309 m 819.676 916.906 817.574 919.031 814.953 919.031 c 812.355
 919.031 810.23 916.906 810.23 914.309 c 810.23 911.688 812.355 909.586 
814.953 909.586 c 817.574 909.586 819.676 911.688 819.676 914.309 c h
819.676 914.309 m S Q
  Q
Q
q
0 1079.179 1105 -1080 re W n
[ 1 0 0 1 0 -0.820557 ] concat
  q
0.266667 g
2.361701 w
2 J
0 j
[] 0.0 d
10 M q 1 0 0 -1 0 1080 cm
867.926 925.668 m 867.926 928.266 865.824 930.391 863.203 930.391 c 860.605
 930.391 858.477 928.266 858.477 925.668 c 858.477 923.047 860.605 920.945
 863.203 920.945 c 865.824 920.945 867.926 923.047 867.926 925.668 c h
867.926 925.668 m S Q
  Q
Q
q
0 1079.179 1105 -1080 re W n
[ 1 0 0 1 0 -0.820557 ] concat
  q
0.266667 g
2.361701 w
2 J
0 j
[] 0.0 d
10 M q 1 0 0 -1 0 1080 cm
944.586 925.668 m 944.586 928.266 942.461 930.391 939.863 930.391 c 937.242
 930.391 935.141 928.266 935.141 925.668 c 935.141 923.047 937.242 920.945
 939.863 920.945 c 942.461 920.945 944.586 923.047 944.586 925.668 c h
944.586 925.668 m S Q
  Q
Q
q
0 1079.179 1105 -1080 re W n
[ 1 0 0 1 0 -0.820557 ] concat
  q
0.266667 g
2.361701 w
2 J
0 j
[] 0.0 d
10 M q 1 0 0 -1 0 1080 cm
1004.195 919.977 m 1004.195 922.598 1002.094 924.699 999.473 924.699 c 
996.875 924.699 994.75 922.598 994.75 919.977 c 994.75 917.379 996.875 915.254
 999.473 915.254 c 1002.094 915.254 1004.195 917.379 1004.195 919.977 c 
h
1004.195 919.977 m S Q
  Q
Q
q
0 1079.179 1105 -1080 re W n
[ 1 0 0 1 0 -0.820557 ] concat
  q
0.266667 g
2.361701 w
2 J
0 j
[] 0.0 d
10 M q 1 0 0 -1 0 1080 cm
1103.551 919.977 m 1103.551 922.598 1101.449 924.699 1098.828 924.699 c
 1096.23 924.699 1094.105 922.598 1094.105 919.977 c 1094.105 917.379 1096.23
 915.254 1098.828 915.254 c 1101.449 915.254 1103.551 917.379 1103.551 919.977
 c h
1103.551 919.977 m S Q
  Q
Q
q
0 1079.179 1105 -1080 re W n
[ 1 0 0 1 0 -0.820557 ] concat
  q
0.266667 g
2.361701 w
2 J
0 j
[] 0.0 d
10 M q 1 0 0 -1 0 1080 cm
609.602 851.844 m 609.602 854.465 607.5 856.566 604.879 856.566 c 602.281
 856.566 600.156 854.465 600.156 851.844 c 600.156 849.246 602.281 847.117
 604.879 847.117 c 607.5 847.117 609.602 849.246 609.602 851.844 c h
609.602 851.844 m S Q
  Q
Q
q
0 1079.179 1105 -1080 re W n
[ 1 0 0 1 0 -0.820557 ] concat
  q
0.266667 g
2.361701 w
2 J
0 j
[] 0.0 d
10 M q 1 0 0 -1 0 1080 cm
680.57 849.008 m 680.57 851.629 678.469 853.73 675.848 853.73 c 673.25 
853.73 671.125 851.629 671.125 849.008 c 671.125 846.41 673.25 844.285 675.848
 844.285 c 678.469 844.285 680.57 846.41 680.57 849.008 c h
680.57 849.008 m S Q
  Q
Q
q
0 1079.179 1105 -1080 re W n
[ 1 0 0 1 0 -0.820557 ] concat
  q
0.266667 g
2.361701 w
2 J
0 j
[] 0.0 d
10 M q 1 0 0 -1 0 1080 cm
751.539 840.508 m 751.539 843.105 749.438 845.23 746.816 845.23 c 744.219
 845.23 742.094 843.105 742.094 840.508 c 742.094 837.883 744.219 835.781
 746.816 835.781 c 749.438 835.781 751.539 837.883 751.539 840.508 c h
751.539 840.508 m S Q
  Q
Q
q
0 1079.179 1105 -1080 re W n
[ 1 0 0 1 0 -0.820557 ] concat
  q
0.266667 g
2.361701 w
2 J
0 j
[] 0.0 d
10 M q 1 0 0 -1 0 1080 cm
796.957 860.367 m 796.957 862.988 794.855 865.09 792.234 865.09 c 789.637
 865.09 787.508 862.988 787.508 860.367 c 787.508 857.77 789.637 855.645
 792.234 855.645 c 794.855 855.645 796.957 857.77 796.957 860.367 c h
796.957 860.367 m S Q
  Q
Q
q
0 1079.179 1105 -1080 re W n
[ 1 0 0 1 0 -0.820557 ] concat
  q
0.266667 g
2.361701 w
2 J
0 j
[] 0.0 d
10 M q 1 0 0 -1 0 1080 cm
870.781 851.844 m 870.781 854.465 868.656 856.566 866.059 856.566 c 863.438
 856.566 861.336 854.465 861.336 851.844 c 861.336 849.246 863.438 847.117
 866.059 847.117 c 868.656 847.117 870.781 849.246 870.781 851.844 c h
870.781 851.844 m S Q
  Q
Q
q
0 1079.179 1105 -1080 re W n
[ 1 0 0 1 0 -0.820557 ] concat
  q
0.266667 g
2.361701 w
2 J
0 j
[] 0.0 d
10 M q 1 0 0 -1 0 1080 cm
944.586 834.813 m 944.586 837.438 942.461 839.539 939.863 839.539 c 937.242
 839.539 935.141 837.438 935.141 834.813 c 935.141 832.215 937.242 830.09
 939.863 830.09 c 942.461 830.09 944.586 832.215 944.586 834.813 c h
944.586 834.813 m S Q
  Q
Q
q
0 1079.179 1105 -1080 re W n
[ 1 0 0 1 0 -0.820557 ] concat
  q
0.266667 g
2.361701 w
2 J
0 j
[] 0.0 d
10 M q 1 0 0 -1 0 1080 cm
1015.555 846.176 m 1015.555 848.797 1013.43 850.898 1010.832 850.898 c 
1008.211 850.898 1006.109 848.797 1006.109 846.176 c 1006.109 843.574 1008.211
 841.449 1010.832 841.449 c 1013.43 841.449 1015.555 843.574 1015.555 846.176
 c h
1015.555 846.176 m S Q
  Q
Q
q
0 1079.179 1105 -1080 re W n
[ 1 0 0 1 0 -0.820557 ] concat
  q
0.266667 g
2.361701 w
2 J
0 j
[] 0.0 d
10 M q 1 0 0 -1 0 1080 cm
1095.027 846.176 m 1095.027 848.797 1092.926 850.898 1090.305 850.898 c
 1087.707 850.898 1085.578 848.797 1085.578 846.176 c 1085.578 843.574 1087.707
 841.449 1090.305 841.449 c 1092.926 841.449 1095.027 843.574 1095.027 846.176
 c h
1095.027 846.176 m S Q
  Q
Q
q
0 1079.179 1105 -1080 re W n
[ 1 0 0 1 0 -0.820557 ] concat
  q
0.266667 g
2.361701 w
2 J
0 j
[] 0.0 d
10 M q 1 0 0 -1 0 1080 cm
731.68 783.73 m 731.68 786.328 729.555 788.453 726.957 788.453 c 724.332
 788.453 722.23 786.328 722.23 783.73 c 722.23 781.109 724.332 779.008 726.957
 779.008 c 729.555 779.008 731.68 781.109 731.68 783.73 c h
731.68 783.73 m S Q
  Q
Q
q
0 1079.179 1105 -1080 re W n
[ 1 0 0 1 0 -0.820557 ] concat
  q
0.266667 g
2.361701 w
2 J
0 j
[] 0.0 d
10 M q 1 0 0 -1 0 1080 cm
805.48 775.203 m 805.48 777.828 803.379 779.93 800.758 779.93 c 798.16 
779.93 796.035 777.828 796.035 775.203 c 796.035 772.605 798.16 770.48 800.758
 770.48 c 803.379 770.48 805.48 772.605 805.48 775.203 c h
805.48 775.203 m S Q
  Q
Q
q
0 1079.179 1105 -1080 re W n
[ 1 0 0 1 0 -0.820557 ] concat
  q
0.266667 g
2.361701 w
2 J
0 j
[] 0.0 d
10 M q 1 0 0 -1 0 1080 cm
870.781 769.535 m 870.781 772.133 868.656 774.262 866.059 774.262 c 863.438
 774.262 861.336 772.133 861.336 769.535 c 861.336 766.914 863.438 764.813
 866.059 764.813 c 868.656 764.813 870.781 766.914 870.781 769.535 c h
870.781 769.535 m S Q
  Q
Q
q
0 1079.179 1105 -1080 re W n
[ 1 0 0 1 0 -0.820557 ] concat
  q
0.266667 g
2.361701 w
2 J
0 j
[] 0.0 d
10 M q 1 0 0 -1 0 1080 cm
950.254 763.844 m 950.254 766.465 948.152 768.57 945.531 768.57 c 942.934
 768.57 940.809 766.465 940.809 763.844 c 940.809 761.246 942.934 759.121
 945.531 759.121 c 948.152 759.121 950.254 761.246 950.254 763.844 c h
950.254 763.844 m S Q
  Q
Q
q
0 1079.179 1105 -1080 re W n
[ 1 0 0 1 0 -0.820557 ] concat
  q
0.266667 g
2.361701 w
2 J
0 j
[] 0.0 d
10 M q 1 0 0 -1 0 1080 cm
1004.195 775.203 m 1004.195 777.828 1002.094 779.93 999.473 779.93 c 996.875
 779.93 994.75 777.828 994.75 775.203 c 994.75 772.605 996.875 770.48 999.473
 770.48 c 1002.094 770.48 1004.195 772.605 1004.195 775.203 c h
1004.195 775.203 m S Q
  Q
Q
q
0 1079.179 1105 -1080 re W n
[ 1 0 0 1 0 -0.820557 ] concat
  q
0.266667 g
2.361701 w
2 J
0 j
[] 0.0 d
10 M q 1 0 0 -1 0 1080 cm
1092.191 763.844 m 1092.191 766.465 1090.09 768.57 1087.469 768.57 c 1084.871
 768.57 1082.746 766.465 1082.746 763.844 c 1082.746 761.246 1084.871 759.121
 1087.469 759.121 c 1090.09 759.121 1092.191 761.246 1092.191 763.844 c 
h
1092.191 763.844 m S Q
  Q
Q
q
0 1079.179 1105 -1080 re W n
[ 1 0 0 1 0 -0.820557 ] concat
  q
0.266667 g
2.361701 w
2 J
0 j
[] 0.0 d
10 M q 1 0 0 -1 0 1080 cm
808.316 704.234 m 808.316 706.855 806.215 708.961 803.594 708.961 c 800.996
 708.961 798.871 706.855 798.871 704.234 c 798.871 701.637 800.996 699.512
 803.594 699.512 c 806.215 699.512 808.316 701.637 808.316 704.234 c h
808.316 704.234 m S Q
  Q
Q
q
0 1079.179 1105 -1080 re W n
[ 1 0 0 1 0 -0.820557 ] concat
  q
0.266667 g
2.361701 w
2 J
0 j
[] 0.0 d
10 M q 1 0 0 -1 0 1080 cm
879.285 718.43 m 879.285 721.051 877.184 723.152 874.563 723.152 c 871.965
 723.152 869.84 721.051 869.84 718.43 c 869.84 715.832 871.965 713.707 874.563
 713.707 c 877.184 713.707 879.285 715.832 879.285 718.43 c h
879.285 718.43 m S Q
  Q
Q
q
0 1079.179 1105 -1080 re W n
[ 1 0 0 1 0 -0.820557 ] concat
  q
0.266667 g
2.361701 w
2 J
0 j
[] 0.0 d
10 M q 1 0 0 -1 0 1080 cm
947.422 701.402 m 947.422 704 945.316 706.125 942.695 706.125 c 940.098
 706.125 937.973 704 937.973 701.402 c 937.973 698.781 940.098 696.68 942.695
 696.68 c 945.316 696.68 947.422 698.781 947.422 701.402 c h
947.422 701.402 m S Q
  Q
Q
q
0 1079.179 1105 -1080 re W n
[ 1 0 0 1 0 -0.820557 ] concat
  q
0.266667 g
2.361701 w
2 J
0 j
[] 0.0 d
10 M q 1 0 0 -1 0 1080 cm
1001.363 715.594 m 1001.363 718.195 999.234 720.32 996.637 720.32 c 994.016
 720.32 991.914 718.195 991.914 715.594 c 991.914 712.973 994.016 710.871
 996.637 710.871 c 999.234 710.871 1001.363 712.973 1001.363 715.594 c h
1001.363 715.594 m S Q
  Q
Q
q
0 1079.179 1105 -1080 re W n
[ 1 0 0 1 0 -0.820557 ] concat
  q
0.266667 g
2.361701 w
2 J
0 j
[] 0.0 d
10 M q 1 0 0 -1 0 1080 cm
1083.691 712.762 m 1083.691 715.359 1081.566 717.484 1078.969 717.484 c
 1076.344 717.484 1074.242 715.359 1074.242 712.762 c 1074.242 710.141 1076.344
 708.039 1078.969 708.039 c 1081.566 708.039 1083.691 710.141 1083.691 712.762
 c h
1083.691 712.762 m S Q
  Q
Q
q
0 1079.179 1105 -1080 re W n
[ 1 0 0 1 0 -0.820557 ] concat
  q
0.266667 g
2.361701 w
2 J
0 j
[] 0.0 d
10 M q 1 0 0 -1 0 1080 cm
1007.031 647.461 m 1007.031 650.082 1004.926 652.184 1002.305 652.184 c
 999.707 652.184 997.582 650.082 997.582 647.461 c 997.582 644.863 999.707
 642.738 1002.305 642.738 c 1004.926 642.738 1007.031 644.863 1007.031 647.461
 c h
1007.031 647.461 m S Q
  Q
Q
q
0 1079.179 1105 -1080 re W n
[ 1 0 0 1 0 -0.820557 ] concat
  q
0.266667 g
2.361701 w
2 J
0 j
[] 0.0 d
10 M q 1 0 0 -1 0 1080 cm
1097.883 641.793 m 1097.883 644.391 1095.758 646.516 1093.16 646.516 c 
1090.539 646.516 1088.438 644.391 1088.438 641.793 c 1088.438 639.172 1090.539
 637.07 1093.16 637.07 c 1095.758 637.07 1097.883 639.172 1097.883 641.793
 c h
1097.883 641.793 m S Q
  Q
Q
q
0 1079.179 1105 -1080 re W n
[ 1 0 0 1 0 -0.820557 ] concat
  q
0.266667 g
2.361701 w
2 J
0 j
[] 0.0 d
10 M q 1 0 0 -1 0 1080 cm
601.102 712.762 m 601.102 715.359 598.977 717.484 596.375 717.484 c 593.754
 717.484 591.652 715.359 591.652 712.762 c 591.652 710.141 593.754 708.039
 596.375 708.039 c 598.977 708.039 601.102 710.141 601.102 712.762 c h
601.102 712.762 m S Q
  Q
Q
q
0 1079.179 1105 -1080 re W n
[ 1 0 0 1 0 -0.820557 ] concat
  q
0.266667 g
2.361701 w
2 J
0 j
[] 0.0 d
10 M q 1 0 0 -1 0 1080 cm
637.988 789.398 m 637.988 792.02 635.887 794.121 633.266 794.121 c 630.668
 794.121 628.543 792.02 628.543 789.398 c 628.543 786.801 630.668 784.676
 633.266 784.676 c 635.887 784.676 637.988 786.801 637.988 789.398 c h
637.988 789.398 m S Q
  Q
Q
q
0 1079.179 1105 -1080 re W n
[ 1 0 0 1 0 -0.820557 ] concat
  q
0.266667 g
2.361701 w
2 J
0 j
[] 0.0 d
10 M q 1 0 0 -1 0 1080 cm
527.273 772.371 m 527.273 774.969 525.172 777.094 522.551 777.094 c 519.953
 777.094 517.828 774.969 517.828 772.371 c 517.828 769.75 519.953 767.648
 522.551 767.648 c 525.172 767.648 527.273 769.75 527.273 772.371 c h
527.273 772.371 m S Q
  Q
Q
q
0 1079.179 1105 -1080 re W n
[ 1 0 0 1 0 -0.820557 ] concat
  q
0.266667 g
2.361701 w
2 J
0 j
[] 0.0 d
10 M q 1 0 0 -1 0 1080 cm
521.605 860.367 m 521.605 862.988 519.504 865.09 516.883 865.09 c 514.285
 865.09 512.16 862.988 512.16 860.367 c 512.16 857.77 514.285 855.645 516.883
 855.645 c 519.504 855.645 521.605 857.77 521.605 860.367 c h
521.605 860.367 m S Q
  Q
Q
q
0 1079.179 1105 -1080 re W n
[ 1 0 0 1 0 -0.820557 ] concat
  q
0.266667 g
2.361701 w
2 J
0 j
[] 0.0 d
10 M q 1 0 0 -1 0 1080 cm
459.16 743.984 m 459.16 746.582 457.035 748.707 454.438 748.707 c 451.816
 748.707 449.715 746.582 449.715 743.984 c 449.715 741.363 451.816 739.258
 454.438 739.258 c 457.035 739.258 459.16 741.363 459.16 743.984 c h
459.16 743.984 m S Q
  Q
Q
q
0 1079.179 1105 -1080 re W n
[ 1 0 0 1 0 -0.820557 ] concat
  q
0.266667 g
2.361701 w
2 J
0 j
[] 0.0 d
10 M q 1 0 0 -1 0 1080 cm
430.773 823.453 m 430.773 826.074 428.648 828.18 426.051 828.18 c 423.43
 828.18 421.328 826.074 421.328 823.453 c 421.328 820.855 423.43 818.73 
426.051 818.73 c 428.648 818.73 430.773 820.855 430.773 823.453 c h
430.773 823.453 m S Q
  Q
Q
q
0 1079.179 1105 -1080 re W n
[ 1 0 0 1 0 -0.820557 ] concat
  q
0.266667 g
2.361701 w
2 J
0 j
[] 0.0 d
10 M q 1 0 0 -1 0 1080 cm
476.191 673.016 m 476.191 675.613 474.063 677.738 471.465 677.738 c 468.844
 677.738 466.742 675.613 466.742 673.016 c 466.742 670.391 468.844 668.289
 471.465 668.289 c 474.063 668.289 476.191 670.391 476.191 673.016 c h
476.191 673.016 m S Q
  Q
Q
q
0 1079.179 1105 -1080 re W n
[ 1 0 0 1 0 -0.820557 ] concat
  q
0.266667 g
2.361701 w
2 J
0 j
[] 0.0 d
10 M q 1 0 0 -1 0 1080 cm
567.02 681.516 m 567.02 684.137 564.918 686.238 562.297 686.238 c 559.699
 686.238 557.574 684.137 557.574 681.516 c 557.574 678.918 559.699 676.793
 562.297 676.793 c 564.918 676.793 567.02 678.918 567.02 681.516 c h
567.02 681.516 m S Q
  Q
Q
q
0 1079.179 1105 -1080 re W n
[ 1 0 0 1 0 -0.820557 ] concat
  q
0.266667 g
2.361701 w
2 J
0 j
[] 0.0 d
10 M q 1 0 0 -1 0 1080 cm
657.875 661.652 m 657.875 664.277 655.75 666.379 653.152 666.379 c 650.531
 666.379 648.43 664.277 648.43 661.652 c 648.43 659.055 650.531 656.93 653.152
 656.93 c 655.75 656.93 657.875 659.055 657.875 661.652 c h
657.875 661.652 m S Q
  Q
Q
q
0 1079.179 1105 -1080 re W n
[ 1 0 0 1 0 -0.820557 ] concat
  q
0.266667 g
2.361701 w
2 J
0 j
[] 0.0 d
10 M q 1 0 0 -1 0 1080 cm
723.152 707.07 m 723.152 709.691 721.051 711.793 718.43 711.793 c 715.832
 711.793 713.707 709.691 713.707 707.07 c 713.707 704.473 715.832 702.348
 718.43 702.348 c 721.051 702.348 723.152 704.473 723.152 707.07 c h
723.152 707.07 m S Q
  Q
Q
q
0 1079.179 1105 -1080 re W n
[ 1 0 0 1 0 -0.820557 ] concat
  q
0.266667 g
2.361701 w
2 J
0 j
[] 0.0 d
10 M q 1 0 0 -1 0 1080 cm
572.711 616.238 m 572.711 618.836 570.586 620.961 567.988 620.961 c 565.367
 620.961 563.266 618.836 563.266 616.238 c 563.266 613.617 565.367 611.516
 567.988 611.516 c 570.586 611.516 572.711 613.617 572.711 616.238 c h
572.711 616.238 m S Q
  Q
Q
q
0 1079.179 1105 -1080 re W n
[ 1 0 0 1 0 -0.820557 ] concat
  q
0.266667 g
2.361701 w
2 J
0 j
[] 0.0 d
10 M q 1 0 0 -1 0 1080 cm
677.738 726.957 m 677.738 729.555 675.637 731.68 673.016 731.68 c 670.418
 731.68 668.289 729.555 668.289 726.957 c 668.289 724.332 670.418 722.23
 673.016 722.23 c 675.637 722.23 677.738 724.332 677.738 726.957 c h
677.738 726.957 m S Q
  Q
Q
q
0 1079.179 1105 -1080 re W n
[ 1 0 0 1 0 -0.820557 ] concat
  q
0.266667 g
2.361701 w
2 J
0 j
[] 0.0 d
10 M q 1 0 0 -1 0 1080 cm
504.578 602.043 m 504.578 604.645 502.453 606.77 499.855 606.77 c 497.234
 606.77 495.129 604.645 495.129 602.043 c 495.129 599.422 497.234 597.32
 499.855 597.32 c 502.453 597.32 504.578 599.422 504.578 602.043 c h
504.578 602.043 m S Q
  Q
Q
q
0 1079.179 1105 -1080 re W n
[ 1 0 0 1 0 -0.820557 ] concat
  q
0.266667 g
2.361701 w
2 J
0 j
[] 0.0 d
10 M q 1 0 0 -1 0 1080 cm
430.773 576.492 m 430.773 579.113 428.648 581.215 426.051 581.215 c 423.43
 581.215 421.328 579.113 421.328 576.492 c 421.328 573.895 423.43 571.77
 426.051 571.77 c 428.648 571.77 430.773 573.895 430.773 576.492 c h
430.773 576.492 m S Q
  Q
Q
q
0 1079.179 1105 -1080 re W n
[ 1 0 0 1 0 -0.820557 ] concat
  q
0.266667 g
2.361701 w
2 J
0 j
[] 0.0 d
10 M q 1 0 0 -1 0 1080 cm
365.473 653.129 m 365.473 655.75 363.371 657.852 360.75 657.852 c 358.152
 657.852 356.027 655.75 356.027 653.129 c 356.027 650.531 358.152 648.406
 360.75 648.406 c 363.371 648.406 365.473 650.531 365.473 653.129 c h
365.473 653.129 m S Q
  Q
Q
q
0 1079.179 1105 -1080 re W n
[ 1 0 0 1 0 -0.820557 ] concat
  q
0.266667 g
2.361701 w
2 J
0 j
[] 0.0 d
10 M q 1 0 0 -1 0 1080 cm
393.859 758.176 m 393.859 760.773 391.758 762.898 389.137 762.898 c 386.539
 762.898 384.414 760.773 384.414 758.176 c 384.414 755.555 386.539 753.453
 389.137 753.453 c 391.758 753.453 393.859 755.555 393.859 758.176 c h
393.859 758.176 m S Q
  Q
Q
q
0 1079.179 1105 -1080 re W n
[ 1 0 0 1 0 -0.820557 ] concat
  q
0.266667 g
2.361701 w
2 J
0 j
[] 0.0 d
10 M q 1 0 0 -1 0 1080 cm
257.59 743.984 m 257.59 746.582 255.488 748.707 252.867 748.707 c 250.27
 748.707 248.145 746.582 248.145 743.984 c 248.145 741.363 250.27 739.258
 252.867 739.258 c 255.488 739.258 257.59 741.363 257.59 743.984 c h
257.59 743.984 m S Q
  Q
Q
q
0 1079.179 1105 -1080 re W n
[ 1 0 0 1 0 -0.820557 ] concat
  q
0.266667 g
2.361701 w
2 J
0 j
[] 0.0 d
10 M q 1 0 0 -1 0 1080 cm
328.559 712.762 m 328.559 715.359 326.457 717.484 323.836 717.484 c 321.238
 717.484 319.113 715.359 319.113 712.762 c 319.113 710.141 321.238 708.039
 323.836 708.039 c 326.457 708.039 328.559 710.141 328.559 712.762 c h
328.559 712.762 m S Q
  Q
Q
q
0 1079.179 1105 -1080 re W n
[ 1 0 0 1 0 -0.820557 ] concat
  q
0.266667 g
2.361701 w
2 J
0 j
[] 0.0 d
10 M q 1 0 0 -1 0 1080 cm
339.918 789.398 m 339.918 792.02 337.816 794.121 335.195 794.121 c 332.598
 794.121 330.473 792.02 330.473 789.398 c 330.473 786.801 332.598 784.676
 335.195 784.676 c 337.816 784.676 339.918 786.801 339.918 789.398 c h
339.918 789.398 m S Q
  Q
Q
q
0 1079.179 1105 -1080 re W n
[ 1 0 0 1 0 -0.820557 ] concat
  q
0.266667 g
2.361701 w
2 J
0 j
[] 0.0 d
10 M q 1 0 0 -1 0 1080 cm
251.922 655.984 m 251.922 658.586 249.82 660.711 247.199 660.711 c 244.602
 660.711 242.477 658.586 242.477 655.984 c 242.477 653.363 244.602 651.262
 247.199 651.262 c 249.82 651.262 251.922 653.363 251.922 655.984 c h
251.922 655.984 m S Q
  Q
Q
q
0 1079.179 1105 -1080 re W n
[ 1 0 0 1 0 -0.820557 ] concat
  q
0.266667 g
2.361701 w
2 J
0 j
[] 0.0 d
10 M q 1 0 0 -1 0 1080 cm
314.367 590.684 m 314.367 593.305 312.266 595.41 309.645 595.41 c 307.043
 595.41 304.918 593.305 304.918 590.684 c 304.918 588.086 307.043 585.961
 309.645 585.961 c 312.266 585.961 314.367 588.086 314.367 590.684 c h
314.367 590.684 m S Q
  Q
Q
q
0 1079.179 1105 -1080 re W n
[ 1 0 0 1 0 -0.820557 ] concat
  q
0.266667 g
2.361701 w
2 J
0 j
[] 0.0 d
10 M q 1 0 0 -1 0 1080 cm
365.473 545.27 m 365.473 547.867 363.371 549.992 360.75 549.992 c 358.152
 549.992 356.027 547.867 356.027 545.27 c 356.027 542.648 358.152 540.547
 360.75 540.547 c 363.371 540.547 365.473 542.648 365.473 545.27 c h
365.473 545.27 m S Q
  Q
Q
q
0 1079.179 1105 -1080 re W n
[ 1 0 0 1 0 -0.820557 ] concat
  q
0.266667 g
2.361701 w
2 J
0 j
[] 0.0 d
10 M q 1 0 0 -1 0 1080 cm
436.441 536.742 m 436.441 539.367 434.34 541.469 431.719 541.469 c 429.121
 541.469 426.996 539.367 426.996 536.742 c 426.996 534.145 429.121 532.02
 431.719 532.02 c 434.34 532.02 436.441 534.145 436.441 536.742 c h
436.441 536.742 m S Q
  Q
Q
q
0 1079.179 1105 -1080 re W n
[ 1 0 0 1 0 -0.820557 ] concat
  q
0.266667 g
2.361701 w
2 J
0 j
[] 0.0 d
10 M q 1 0 0 -1 0 1080 cm
510.246 499.855 m 510.246 502.453 508.145 504.578 505.523 504.578 c 502.926
 504.578 500.797 502.453 500.797 499.855 c 500.797 497.234 502.926 495.129
 505.523 495.129 c 508.145 495.129 510.246 497.234 510.246 499.855 c h
510.246 499.855 m S Q
  Q
Q
q
0 1079.179 1105 -1080 re W n
[ 1 0 0 1 0 -0.820557 ] concat
  q
0.266667 g
2.361701 w
2 J
0 j
[] 0.0 d
10 M q 1 0 0 -1 0 1080 cm
592.574 511.191 m 592.574 513.813 590.473 515.914 587.852 515.914 c 585.254
 515.914 583.129 513.813 583.129 511.191 c 583.129 508.594 585.254 506.469
 587.852 506.469 c 590.473 506.469 592.574 508.594 592.574 511.191 c h
592.574 511.191 m S Q
  Q
Q
q
0 1079.179 1105 -1080 re W n
[ 1 0 0 1 0 -0.820557 ] concat
  q
0.266667 g
2.361701 w
2 J
0 j
[] 0.0 d
10 M q 1 0 0 -1 0 1080 cm
711.793 519.715 m 711.793 522.336 709.691 524.438 707.07 524.438 c 704.473
 524.438 702.348 522.336 702.348 519.715 c 702.348 517.117 704.473 514.992
 707.07 514.992 c 709.691 514.992 711.793 517.117 711.793 519.715 c h
711.793 519.715 m S Q
  Q
Q
q
0 1079.179 1105 -1080 re W n
[ 1 0 0 1 0 -0.820557 ] concat
  q
0.266667 g
2.361701 w
2 J
0 j
[] 0.0 d
10 M q 1 0 0 -1 0 1080 cm
652.184 590.684 m 652.184 593.305 650.082 595.41 647.461 595.41 c 644.863
 595.41 642.738 593.305 642.738 590.684 c 642.738 588.086 644.863 585.961
 647.461 585.961 c 650.082 585.961 652.184 588.086 652.184 590.684 c h
652.184 590.684 m S Q
  Q
Q
q
0 1079.179 1105 -1080 re W n
[ 1 0 0 1 0 -0.820557 ] concat
  q
0.266667 g
2.361701 w
2 J
0 j
[] 0.0 d
10 M q 1 0 0 -1 0 1080 cm
620.961 428.887 m 620.961 431.484 618.859 433.609 616.238 433.609 c 613.641
 433.609 611.516 431.484 611.516 428.887 c 611.516 426.262 613.641 424.16
 616.238 424.16 c 618.859 424.16 620.961 426.262 620.961 428.887 c h
620.961 428.887 m S Q
  Q
Q
q
0 1079.179 1105 -1080 re W n
[ 1 0 0 1 0 -0.820557 ] concat
  q
0.266667 g
2.361701 w
2 J
0 j
[] 0.0 d
10 M q 1 0 0 -1 0 1080 cm
683.406 471.465 m 683.406 474.063 681.305 476.191 678.684 476.191 c 676.086
 476.191 673.957 474.063 673.957 471.465 c 673.957 468.844 676.086 466.742
 678.684 466.742 c 681.305 466.742 683.406 468.844 683.406 471.465 c h
683.406 471.465 m S Q
  Q
Q
q
0 1079.179 1105 -1080 re W n
[ 1 0 0 1 0 -0.820557 ] concat
  q
0.266667 g
2.361701 w
2 J
0 j
[] 0.0 d
10 M q 1 0 0 -1 0 1080 cm
737.348 596.352 m 737.348 598.977 735.246 601.078 732.625 601.078 c 730.027
 601.078 727.898 598.977 727.898 596.352 c 727.898 593.754 730.027 591.629
 732.625 591.629 c 735.246 591.629 737.348 593.754 737.348 596.352 c h
737.348 596.352 m S Q
  Q
Q
q
0 1079.179 1105 -1080 re W n
[ 1 0 0 1 0 -0.820557 ] concat
  q
0.266667 g
2.361701 w
2 J
0 j
[] 0.0 d
10 M q 1 0 0 -1 0 1080 cm
504.578 426.027 m 504.578 428.648 502.453 430.75 499.855 430.75 c 497.234
 430.75 495.129 428.648 495.129 426.027 c 495.129 423.43 497.234 421.305
 499.855 421.305 c 502.453 421.305 504.578 423.43 504.578 426.027 c h
504.578 426.027 m S Q
  Q
Q
q
0 1079.179 1105 -1080 re W n
[ 1 0 0 1 0 -0.820557 ] concat
  q
0.266667 g
2.361701 w
2 J
0 j
[] 0.0 d
10 M q 1 0 0 -1 0 1080 cm
547.16 414.691 m 547.16 417.289 545.035 419.414 542.438 419.414 c 539.813
 419.414 537.711 417.289 537.711 414.691 c 537.711 412.07 539.813 409.969
 542.438 409.969 c 545.035 409.969 547.16 412.07 547.16 414.691 c h
547.16 414.691 m S Q
  Q
Q
q
0 1079.179 1105 -1080 re W n
[ 1 0 0 1 0 -0.820557 ] concat
  q
0.266667 g
2.361701 w
2 J
0 j
[] 0.0 d
10 M q 1 0 0 -1 0 1080 cm
425.082 369.254 m 425.082 371.875 422.98 373.977 420.359 373.977 c 417.762
 373.977 415.637 371.875 415.637 369.254 c 415.637 366.652 417.762 364.527
 420.359 364.527 c 422.98 364.527 425.082 366.652 425.082 369.254 c h
425.082 369.254 m S Q
  Q
Q
q
0 1079.179 1105 -1080 re W n
[ 1 0 0 1 0 -0.820557 ] concat
  q
0.266667 g
2.361701 w
2 J
0 j
[] 0.0 d
10 M q 1 0 0 -1 0 1080 cm
385.336 454.414 m 385.336 457.035 383.234 459.137 380.613 459.137 c 378.016
 459.137 375.887 457.035 375.887 454.414 c 375.887 451.816 378.016 449.691
 380.613 449.691 c 383.234 449.691 385.336 451.816 385.336 454.414 c h
385.336 454.414 m S Q
  Q
Q
q
0 1079.179 1105 -1080 re W n
[ 1 0 0 1 0 -0.820557 ] concat
  q
0.266667 g
2.361701 w
2 J
0 j
[] 0.0 d
10 M q 1 0 0 -1 0 1080 cm
456.305 434.555 m 456.305 437.176 454.203 439.277 451.582 439.277 c 448.984
 439.277 446.859 437.176 446.859 434.555 c 446.859 431.957 448.984 429.828
 451.582 429.828 c 454.203 429.828 456.305 431.957 456.305 434.555 c h
456.305 434.555 m S Q
  Q
Q
q
0 1079.179 1105 -1080 re W n
[ 1 0 0 1 0 -0.820557 ] concat
  q
0.266667 g
2.361701 w
2 J
0 j
[] 0.0 d
10 M q 1 0 0 -1 0 1080 cm
481.859 338.031 m 481.859 340.652 479.758 342.754 477.133 342.754 c 474.535
 342.754 472.41 340.652 472.41 338.031 c 472.41 335.434 474.535 333.309 
477.133 333.309 c 479.758 333.309 481.859 335.434 481.859 338.031 c h
481.859 338.031 m S Q
  Q
Q
q
0 1079.179 1105 -1080 re W n
[ 1 0 0 1 0 -0.820557 ] concat
  q
0.266667 g
2.361701 w
2 J
0 j
[] 0.0 d
10 M q 1 0 0 -1 0 1080 cm
277.477 403.332 m 277.477 405.93 275.352 408.055 272.754 408.055 c 270.133
 408.055 268.031 405.93 268.031 403.332 c 268.031 400.711 270.133 398.609
 272.754 398.609 c 275.352 398.609 277.477 400.711 277.477 403.332 c h
277.477 403.332 m S Q
  Q
Q
q
0 1079.179 1105 -1080 re W n
[ 1 0 0 1 0 -0.820557 ] concat
  q
0.266667 g
2.361701 w
2 J
0 j
[] 0.0 d
10 M q 1 0 0 -1 0 1080 cm
274.641 494.164 m 274.641 496.785 272.516 498.887 269.918 498.887 c 267.297
 498.887 265.195 496.785 265.195 494.164 c 265.195 491.566 267.297 489.438
 269.918 489.438 c 272.516 489.438 274.641 491.566 274.641 494.164 c h
274.641 494.164 m S Q
  Q
Q
q
0 1079.179 1105 -1080 re W n
[ 1 0 0 1 0 -0.820557 ] concat
  q
0.266667 g
2.361701 w
2 J
0 j
[] 0.0 d
10 M q 1 0 0 -1 0 1080 cm
339.918 440.223 m 339.918 442.844 337.816 444.945 335.195 444.945 c 332.598
 444.945 330.473 442.844 330.473 440.223 c 330.473 437.625 332.598 435.496
 335.195 435.496 c 337.816 435.496 339.918 437.625 339.918 440.223 c h
339.918 440.223 m S Q
  Q
Q
q
0 1079.179 1105 -1080 re W n
[ 1 0 0 1 0 -0.820557 ] concat
  q
0.266667 g
2.361701 w
2 J
0 j
[] 0.0 d
10 M q 1 0 0 -1 0 1080 cm
354.113 383.445 m 354.113 386.066 352.012 388.168 349.391 388.168 c 346.793
 388.168 344.668 386.066 344.668 383.445 c 344.668 380.848 346.793 378.723
 349.391 378.723 c 352.012 378.723 354.113 380.848 354.113 383.445 c h
354.113 383.445 m S Q
  Q
Q
q
0 1079.179 1105 -1080 re W n
[ 1 0 0 1 0 -0.820557 ] concat
  q
0.266667 g
2.361701 w
2 J
0 j
[] 0.0 d
10 M q 1 0 0 -1 0 1080 cm
232.063 550.938 m 232.063 553.559 229.934 555.66 227.336 555.66 c 224.715
 555.66 222.613 553.559 222.613 550.938 c 222.613 548.34 224.715 546.215
 227.336 546.215 c 229.934 546.215 232.063 548.34 232.063 550.938 c h
232.063 550.938 m S Q
  Q
Q
q
0 1079.179 1105 -1080 re W n
[ 1 0 0 1 0 -0.820557 ] concat
  q
0.266667 g
2.361701 w
2 J
0 j
[] 0.0 d
10 M q 1 0 0 -1 0 1080 cm
192.313 440.223 m 192.313 442.844 190.188 444.945 187.59 444.945 c 184.969
 444.945 182.867 442.844 182.867 440.223 c 182.867 437.625 184.969 435.496
 187.59 435.496 c 190.188 435.496 192.313 437.625 192.313 440.223 c h
192.313 440.223 m S Q
  Q
Q
q
0 1079.179 1105 -1080 re W n
[ 1 0 0 1 0 -0.820557 ] concat
  q
0.266667 g
2.361701 w
2 J
0 j
[] 0.0 d
10 M q 1 0 0 -1 0 1080 cm
223.535 349.391 m 223.535 352.012 221.434 354.113 218.813 354.113 c 216.215
 354.113 214.09 352.012 214.09 349.391 c 214.09 346.793 216.215 344.668 
218.813 344.668 c 221.434 344.668 223.535 346.793 223.535 349.391 c h
223.535 349.391 m S Q
  Q
Q
q
0 1079.179 1105 -1080 re W n
[ 1 0 0 1 0 -0.820557 ] concat
  q
0.266667 g
2.361701 w
2 J
0 j
[] 0.0 d
10 M q 1 0 0 -1 0 1080 cm
172.43 542.438 m 172.43 545.035 170.324 547.16 167.703 547.16 c 165.105
 547.16 162.98 545.035 162.98 542.438 c 162.98 539.813 165.105 537.711 167.703
 537.711 c 170.324 537.711 172.43 539.813 172.43 542.438 c h
172.43 542.438 m S Q
  Q
Q
q
0 1079.179 1105 -1080 re W n
[ 1 0 0 1 0 -0.820557 ] concat
  q
0.266667 g
2.361701 w
2 J
0 j
[] 0.0 d
10 M q 1 0 0 -1 0 1080 cm
132.703 655.984 m 132.703 658.586 130.578 660.711 127.98 660.711 c 125.359
 660.711 123.258 658.586 123.258 655.984 c 123.258 653.363 125.359 651.262
 127.98 651.262 c 130.578 651.262 132.703 653.363 132.703 655.984 c h
132.703 655.984 m S Q
  Q
Q
q
0 1079.179 1105 -1080 re W n
[ 1 0 0 1 0 -0.820557 ] concat
  q
0.266667 g
2.361701 w
2 J
0 j
[] 0.0 d
10 M q 1 0 0 -1 0 1080 cm
203.672 633.266 m 203.672 635.887 201.547 637.988 198.949 637.988 c 196.328
 637.988 194.227 635.887 194.227 633.266 c 194.227 630.668 196.328 628.543
 198.949 628.543 c 201.547 628.543 203.672 630.668 203.672 633.266 c h
203.672 633.266 m S Q
  Q
Q
q
0 1079.179 1105 -1080 re W n
[ 1 0 0 1 0 -0.820557 ] concat
  q
0.266667 g
2.361701 w
2 J
0 j
[] 0.0 d
10 M q 1 0 0 -1 0 1080 cm
161.09 712.762 m 161.09 715.359 158.965 717.484 156.367 717.484 c 153.746
 717.484 151.645 715.359 151.645 712.762 c 151.645 710.141 153.746 708.039
 156.367 708.039 c 158.965 708.039 161.09 710.141 161.09 712.762 c h
161.09 712.762 m S Q
  Q
Q
q
0 1079.179 1105 -1080 re W n
[ 1 0 0 1 0 -0.820557 ] concat
  q
0.266667 g
2.361701 w
2 J
0 j
[] 0.0 d
10 M q 1 0 0 -1 0 1080 cm
152.566 587.852 m 152.566 590.449 150.465 592.574 147.844 592.574 c 145.246
 592.574 143.121 590.449 143.121 587.852 c 143.121 585.23 145.246 583.129
 147.844 583.129 c 150.465 583.129 152.566 585.23 152.566 587.852 c h
152.566 587.852 m S Q
  Q
Q
q
0 1079.179 1105 -1080 re W n
[ 1 0 0 1 0 -0.820557 ] concat
  q
0.266667 g
2.361701 w
2 J
0 j
[] 0.0 d
10 M q 1 0 0 -1 0 1080 cm
348.445 312.477 m 348.445 315.098 346.32 317.199 343.723 317.199 c 341.102
 317.199 339 315.098 339 312.477 c 339 309.879 341.102 307.754 343.723 307.754
 c 346.32 307.754 348.445 309.879 348.445 312.477 c h
348.445 312.477 m S Q
  Q
Q
q
0 1079.179 1105 -1080 re W n
[ 1 0 0 1 0 -0.820557 ] concat
  q
0.266667 g
2.361701 w
2 J
0 j
[] 0.0 d
10 M q 1 0 0 -1 0 1080 cm
277.477 289.781 m 277.477 292.379 275.352 294.504 272.754 294.504 c 270.133
 294.504 268.031 292.379 268.031 289.781 c 268.031 287.16 270.133 285.059
 272.754 285.059 c 275.352 285.059 277.477 287.16 277.477 289.781 c h
277.477 289.781 m S Q
  Q
Q
q
0 1079.179 1105 -1080 re W n
[ 1 0 0 1 0 -0.820557 ] concat
  q
0.266667 g
2.361701 w
2 J
0 j
[] 0.0 d
10 M q 1 0 0 -1 0 1080 cm
405.223 264.227 m 405.223 266.848 403.094 268.949 400.496 268.949 c 397.875
 268.949 395.773 266.848 395.773 264.227 c 395.773 261.629 397.875 259.504
 400.496 259.504 c 403.094 259.504 405.223 261.629 405.223 264.227 c h
405.223 264.227 m S Q
  Q
Q
q
0 1079.179 1105 -1080 re W n
[ 1 0 0 1 0 -0.820557 ] concat
  q
0.266667 g
2.361701 w
2 J
0 j
[] 0.0 d
10 M q 1 0 0 -1 0 1080 cm
598.242 303.973 m 598.242 306.574 596.141 308.699 593.52 308.699 c 590.922
 308.699 588.797 306.574 588.797 303.973 c 588.797 301.352 590.922 299.25
 593.52 299.25 c 596.141 299.25 598.242 301.352 598.242 303.973 c h
598.242 303.973 m S Q
  Q
Q
q
0 1079.179 1105 -1080 re W n
[ 1 0 0 1 0 -0.820557 ] concat
  q
0.266667 g
2.361701 w
2 J
0 j
[] 0.0 d
10 M q 1 0 0 -1 0 1080 cm
515.938 272.754 m 515.938 275.352 513.813 277.477 511.215 277.477 c 508.594
 277.477 506.492 275.352 506.492 272.754 c 506.492 270.133 508.594 268.031
 511.215 268.031 c 513.813 268.031 515.938 270.133 515.938 272.754 c h
515.938 272.754 m S Q
  Q
Q
q
0 1079.179 1105 -1080 re W n
[ 1 0 0 1 0 -0.820557 ] concat
  q
0.266667 g
2.361701 w
2 J
0 j
[] 0.0 d
10 M q 1 0 0 -1 0 1080 cm
592.574 343.723 m 592.574 346.32 590.473 348.445 587.852 348.445 c 585.254
 348.445 583.129 346.32 583.129 343.723 c 583.129 341.102 585.254 339 587.852
 339 c 590.473 339 592.574 341.102 592.574 343.723 c h
592.574 343.723 m S Q
  Q
Q
q
0 1079.179 1105 -1080 re W n
[ 1 0 0 1 0 -0.820557 ] concat
  q
0.266667 g
2.361701 w
2 J
0 j
[] 0.0 d
10 M q 1 0 0 -1 0 1080 cm
666.379 349.391 m 666.379 352.012 664.277 354.113 661.656 354.113 c 659.055
 354.113 656.93 352.012 656.93 349.391 c 656.93 346.793 659.055 344.668 
661.656 344.668 c 664.277 344.668 666.379 346.793 666.379 349.391 c h
666.379 349.391 m S Q
  Q
Q
q
0 1079.179 1105 -1080 re W n
[ 1 0 0 1 0 -0.820557 ] concat
  q
0.266667 g
2.361701 w
2 J
0 j
[] 0.0 d
10 M q 1 0 0 -1 0 1080 cm
697.598 400.496 m 697.598 403.094 695.496 405.223 692.875 405.223 c 690.277
 405.223 688.152 403.094 688.152 400.496 c 688.152 397.875 690.277 395.773
 692.875 395.773 c 695.496 395.773 697.598 397.875 697.598 400.496 c h
697.598 400.496 m S Q
  Q
Q
q
0 1079.179 1105 -1080 re W n
[ 1 0 0 1 0 -0.820557 ] concat
  q
0.266667 g
2.361701 w
2 J
0 j
[] 0.0 d
10 M q 1 0 0 -1 0 1080 cm
112.82 233.004 m 112.82 235.602 110.715 237.73 108.094 237.73 c 105.496
 237.73 103.371 235.602 103.371 233.004 c 103.371 230.383 105.496 228.281
 108.094 228.281 c 110.715 228.281 112.82 230.383 112.82 233.004 c h
112.82 233.004 m S Q
  Q
Q
q
0 1079.179 1105 -1080 re W n
[ 1 0 0 1 0 -0.820557 ] concat
  q
0.266667 g
2.361701 w
2 J
0 j
[] 0.0 d
10 M q 1 0 0 -1 0 1080 cm
229.203 264.227 m 229.203 266.848 227.102 268.949 224.48 268.949 c 221.883
 268.949 219.758 266.848 219.758 264.227 c 219.758 261.629 221.883 259.504
 224.48 259.504 c 227.102 259.504 229.203 261.629 229.203 264.227 c h
229.203 264.227 m S Q
  Q
Q
q
0 1079.179 1105 -1080 re W n
[ 1 0 0 1 0 -0.820557 ] concat
  q
0.266667 g
2.361701 w
2 J
0 j
[] 0.0 d
10 M q 1 0 0 -1 0 1080 cm
183.789 289.781 m 183.789 292.379 181.688 294.504 179.063 294.504 c 176.465
 294.504 174.34 292.379 174.34 289.781 c 174.34 287.16 176.465 285.059 179.063
 285.059 c 181.688 285.059 183.789 287.16 183.789 289.781 c h
183.789 289.781 m S Q
  Q
Q
q
0 1079.179 1105 -1080 re W n
[ 1 0 0 1 0 -0.820557 ] concat
  q
0.266667 g
2.361701 w
2 J
0 j
[] 0.0 d
10 M q 1 0 0 -1 0 1080 cm
115.652 369.254 m 115.652 371.875 113.551 373.977 110.93 373.977 c 108.332
 373.977 106.207 371.875 106.207 369.254 c 106.207 366.652 108.332 364.527
 110.93 364.527 c 113.551 364.527 115.652 366.652 115.652 369.254 c h
115.652 369.254 m S Q
  Q
Q
q
0 1079.179 1105 -1080 re W n
[ 1 0 0 1 0 -0.820557 ] concat
  q
0.266667 g
2.361701 w
2 J
0 j
[] 0.0 d
10 M q 1 0 0 -1 0 1080 cm
192.313 213.121 m 192.313 215.742 190.188 217.844 187.59 217.844 c 184.969
 217.844 182.867 215.742 182.867 213.121 c 182.867 210.523 184.969 208.398
 187.59 208.398 c 190.188 208.398 192.313 210.523 192.313 213.121 c h
192.313 213.121 m S Q
  Q
Q
q
0 1079.179 1105 -1080 re W n
[ 1 0 0 1 0 -0.820557 ] concat
  q
0.266667 g
2.361701 w
2 J
0 j
[] 0.0 d
10 M q 1 0 0 -1 0 1080 cm
274.641 218.813 m 274.641 221.41 272.516 223.535 269.918 223.535 c 267.297
 223.535 265.195 221.41 265.195 218.813 c 265.195 216.191 267.297 214.09
 269.918 214.09 c 272.516 214.09 274.641 216.191 274.641 218.813 c h
274.641 218.813 m S Q
  Q
Q
q
0 1079.179 1105 -1080 re W n
[ 1 0 0 1 0 -0.820557 ] concat
  q
0.266667 g
2.361701 w
2 J
0 j
[] 0.0 d
10 M q 1 0 0 -1 0 1080 cm
345.613 196.094 m 345.613 198.715 343.484 200.816 340.887 200.816 c 338.266
 200.816 336.164 198.715 336.164 196.094 c 336.164 193.496 338.266 191.367
 340.887 191.367 c 343.484 191.367 345.613 193.496 345.613 196.094 c h
345.613 196.094 m S Q
  Q
Q
q
0 1079.179 1105 -1080 re W n
[ 1 0 0 1 0 -0.820557 ] concat
  q
0.266667 g
2.361701 w
2 J
0 j
[] 0.0 d
10 M q 1 0 0 -1 0 1080 cm
237.73 110.93 m 237.73 113.551 235.629 115.652 233.004 115.652 c 230.406
 115.652 228.281 113.551 228.281 110.93 c 228.281 108.332 230.406 106.207
 233.004 106.207 c 235.629 106.207 237.73 108.332 237.73 110.93 c h
237.73 110.93 m S Q
  Q
Q
q
0 1079.179 1105 -1080 re W n
[ 1 0 0 1 0 -0.820557 ] concat
  q
0.266667 g
2.361701 w
2 J
0 j
[] 0.0 d
10 M q 1 0 0 -1 0 1080 cm
308.699 252.867 m 308.699 255.488 306.598 257.59 303.977 257.59 c 301.375
 257.59 299.25 255.488 299.25 252.867 c 299.25 250.27 301.375 248.145 303.977
 248.145 c 306.598 248.145 308.699 250.27 308.699 252.867 c h
308.699 252.867 m S Q
  Q
Q
q
0 1079.179 1105 -1080 re W n
[ 1 0 0 1 0 -0.820557 ] concat
  q
0.266667 g
2.361701 w
2 J
0 j
[] 0.0 d
10 M q 1 0 0 -1 0 1080 cm
283.145 150.676 m 283.145 153.297 281.043 155.398 278.422 155.398 c 275.824
 155.398 273.699 153.297 273.699 150.676 c 273.699 148.078 275.824 145.953
 278.422 145.953 c 281.043 145.953 283.145 148.078 283.145 150.676 c h
283.145 150.676 m S Q
  Q
Q
q
0 1079.179 1105 -1080 re W n
[ 1 0 0 1 0 -0.820557 ] concat
  q
0.266667 g
2.361701 w
2 J
0 j
[] 0.0 d
10 M q 1 0 0 -1 0 1080 cm
101.457 136.484 m 101.457 139.105 99.355 141.207 96.734 141.207 c 94.137
 141.207 92.012 139.105 92.012 136.484 c 92.012 133.887 94.137 131.758 96.734
 131.758 c 99.355 131.758 101.457 133.887 101.457 136.484 c h
101.457 136.484 m S Q
  Q
Q
q
0 1079.179 1105 -1080 re W n
[ 1 0 0 1 0 -0.820557 ] concat
  q
0.266667 g
2.361701 w
2 J
0 j
[] 0.0 d
10 M q 1 0 0 -1 0 1080 cm
161.09 91.066 m 161.09 93.664 158.965 95.789 156.367 95.789 c 153.746 95.789
 151.645 93.664 151.645 91.066 c 151.645 88.445 153.746 86.344 156.367 86.344
 c 158.965 86.344 161.09 88.445 161.09 91.066 c h
161.09 91.066 m S Q
  Q
Q
q
0 1079.179 1105 -1080 re W n
[ 1 0 0 1 0 -0.820557 ] concat
  q
0.266667 g
2.361701 w
2 J
0 j
[] 0.0 d
10 M q 1 0 0 -1 0 1080 cm
158.234 167.703 m 158.234 170.324 156.133 172.43 153.512 172.43 c 150.914
 172.43 148.789 170.324 148.789 167.703 c 148.789 165.105 150.914 162.98
 153.512 162.98 c 156.133 162.98 158.234 165.105 158.234 167.703 c h
158.234 167.703 m S Q
  Q
Q
q
0 1079.179 1105 -1080 re W n
[ 1 0 0 1 0 -0.820557 ] concat
  q
0.266667 g
2.361701 w
2 J
0 j
[] 0.0 d
10 M q 1 0 0 -1 0 1080 cm
92.957 428.887 m 92.957 431.484 90.832 433.609 88.234 433.609 c 85.613 
433.609 83.512 431.484 83.512 428.887 c 83.512 426.262 85.613 424.16 88.234
 424.16 c 90.832 424.16 92.957 426.262 92.957 428.887 c h
92.957 428.887 m S Q
  Q
Q
q
0 1079.179 1105 -1080 re W n
[ 1 0 0 1 0 -0.820557 ] concat
  q
0.266667 g
2.361701 w
2 J
0 j
[] 0.0 d
10 M q 1 0 0 -1 0 1080 cm
115.652 531.074 m 115.652 533.672 113.551 535.801 110.93 535.801 c 108.332
 535.801 106.207 533.672 106.207 531.074 c 106.207 528.453 108.332 526.352
 110.93 526.352 c 113.551 526.352 115.652 528.453 115.652 531.074 c h
115.652 531.074 m S Q
  Q
Q
q
0 1079.179 1105 -1080 re W n
[ 1 0 0 1 0 -0.820557 ] concat
  q
0.266667 g
2.361701 w
2 J
0 j
[] 0.0 d
10 M q 1 0 0 -1 0 1080 cm
439.277 142.152 m 439.277 144.773 437.176 146.875 434.555 146.875 c 431.957
 146.875 429.828 144.773 429.828 142.152 c 429.828 139.555 431.957 137.426
 434.555 137.426 c 437.176 137.426 439.277 139.555 439.277 142.152 c h
439.277 142.152 m S Q
  Q
Q
q
0 1079.179 1105 -1080 re W n
[ 1 0 0 1 0 -0.820557 ] concat
  q
0.266667 g
2.361701 w
2 J
0 j
[] 0.0 d
10 M q 1 0 0 -1 0 1080 cm
510.246 196.094 m 510.246 198.715 508.145 200.816 505.523 200.816 c 502.926
 200.816 500.797 198.715 500.797 196.094 c 500.797 193.496 502.926 191.367
 505.523 191.367 c 508.145 191.367 510.246 193.496 510.246 196.094 c h
510.246 196.094 m S Q
  Q
Q
q
0 1079.179 1105 -1080 re W n
[ 1 0 0 1 0 -0.820557 ] concat
  q
0.266667 g
2.361701 w
2 J
0 j
[] 0.0 d
10 M q 1 0 0 -1 0 1080 cm
436.441 213.121 m 436.441 215.742 434.34 217.844 431.719 217.844 c 429.121
 217.844 426.996 215.742 426.996 213.121 c 426.996 210.523 429.121 208.398
 431.719 208.398 c 434.34 208.398 436.441 210.523 436.441 213.121 c h
436.441 213.121 m S Q
  Q
Q
q
0 1079.179 1105 -1080 re W n
[ 1 0 0 1 0 -0.820557 ] concat
  q
0.266667 g
2.361701 w
2 J
0 j
[] 0.0 d
10 M q 1 0 0 -1 0 1080 cm
450.637 65.512 m 450.637 68.137 448.535 70.238 445.914 70.238 c 443.316
 70.238 441.191 68.137 441.191 65.512 c 441.191 62.914 443.316 60.789 445.914
 60.789 c 448.535 60.789 450.637 62.914 450.637 65.512 c h
450.637 65.512 m S Q
  Q
Q
q
0 1079.179 1105 -1080 re W n
[ 1 0 0 1 0 -0.820557 ] concat
  q
0.266667 g
2.361701 w
2 J
0 j
[] 0.0 d
10 M q 1 0 0 -1 0 1080 cm
504.578 91.066 m 504.578 93.664 502.453 95.789 499.855 95.789 c 497.234
 95.789 495.129 93.664 495.129 91.066 c 495.129 88.445 497.234 86.344 499.855
 86.344 c 502.453 86.344 504.578 88.445 504.578 91.066 c h
504.578 91.066 m S Q
  Q
Q
q
0 1079.179 1105 -1080 re W n
[ 1 0 0 1 0 -0.820557 ] concat
  q
0.266667 g
2.361701 w
2 J
0 j
[] 0.0 d
10 M q 1 0 0 -1 0 1080 cm
501.742 5.902 m 501.742 8.504 499.617 10.629 497.02 10.629 c 494.398 10.629
 492.297 8.504 492.297 5.902 c 492.297 3.281 494.398 1.18 497.02 1.18 c 
499.617 1.18 501.742 3.281 501.742 5.902 c h
501.742 5.902 m S Q
  Q
Q
q
0 1079.179 1105 -1080 re W n
[ 1 0 0 1 0 -0.820557 ] concat
  q
0.266667 g
2.361701 w
2 J
0 j
[] 0.0 d
10 M q 1 0 0 -1 0 1080 cm
618.129 5.902 m 618.129 8.504 616.004 10.629 613.406 10.629 c 610.785 10.629
 608.68 8.504 608.68 5.902 c 608.68 3.281 610.785 1.18 613.406 1.18 c 616.004
 1.18 618.129 3.281 618.129 5.902 c h
618.129 5.902 m S Q
  Q
Q
q
0 1079.179 1105 -1080 re W n
[ 1 0 0 1 0 -0.820557 ] concat
  q
0.266667 g
2.361701 w
2 J
0 j
[] 0.0 d
10 M q 1 0 0 -1 0 1080 cm
561.352 45.652 m 561.352 48.25 559.227 50.375 556.629 50.375 c 554.008 
50.375 551.906 48.25 551.906 45.652 c 551.906 43.031 554.008 40.93 556.629
 40.93 c 559.227 40.93 561.352 43.031 561.352 45.652 c h
561.352 45.652 m S Q
  Q
Q
q
0 1079.179 1105 -1080 re W n
[ 1 0 0 1 0 -0.820557 ] concat
  q
0.266667 g
2.361701 w
2 J
0 j
[] 0.0 d
10 M q 1 0 0 -1 0 1080 cm
672.07 147.844 m 672.07 150.441 669.945 152.566 667.348 152.566 c 664.723
 152.566 662.621 150.441 662.621 147.844 c 662.621 145.223 664.723 143.117
 667.348 143.117 c 669.945 143.117 672.07 145.223 672.07 147.844 c h
672.07 147.844 m S Q
  Q
Q
q
0 1079.179 1105 -1080 re W n
[ 1 0 0 1 0 -0.820557 ] concat
  q
0.266667 g
2.361701 w
2 J
0 j
[] 0.0 d
10 M q 1 0 0 -1 0 1080 cm
643.684 213.121 m 643.684 215.742 641.555 217.844 638.957 217.844 c 636.336
 217.844 634.234 215.742 634.234 213.121 c 634.234 210.523 636.336 208.398
 638.957 208.398 c 641.555 208.398 643.684 210.523 643.684 213.121 c h
643.684 213.121 m S Q
  Q
Q
q
0 1079.179 1105 -1080 re W n
[ 1 0 0 1 0 -0.820557 ] concat
  q
0.266667 g
2.361701 w
2 J
0 j
[] 0.0 d
10 M q 1 0 0 -1 0 1080 cm
592.574 162.035 m 592.574 164.633 590.473 166.758 587.852 166.758 c 585.254
 166.758 583.129 164.633 583.129 162.035 c 583.129 159.414 585.254 157.313
 587.852 157.313 c 590.473 157.313 592.574 159.414 592.574 162.035 c h
592.574 162.035 m S Q
  Q
Q
q
0 1079.179 1105 -1080 re W n
[ 1 0 0 1 0 -0.820557 ] concat
  q
0.266667 g
2.361701 w
2 J
0 j
[] 0.0 d
10 M q 1 0 0 -1 0 1080 cm
581.215 207.453 m 581.215 210.074 579.113 212.176 576.492 212.176 c 573.895
 212.176 571.77 210.074 571.77 207.453 c 571.77 204.855 573.895 202.727 
576.492 202.727 c 579.113 202.727 581.215 204.855 581.215 207.453 c h
581.215 207.453 m S Q
  Q
Q
q
0 1079.179 1105 -1080 re W n
[ 1 0 0 1 0 -0.820557 ] concat
  q
0.266667 g
2.361701 w
2 J
0 j
[] 0.0 d
10 M q 1 0 0 -1 0 1080 cm
626.629 85.375 m 626.629 87.996 624.527 90.098 621.906 90.098 c 619.309
 90.098 617.184 87.996 617.184 85.375 c 617.184 82.777 619.309 80.652 621.906
 80.652 c 624.527 80.652 626.629 82.777 626.629 85.375 c h
626.629 85.375 m S Q
  Q
Q
q
0 1079.179 1105 -1080 re W n
[ 1 0 0 1 0 -0.820557 ] concat
  q
0.266667 g
2.361701 w
2 J
0 j
[] 0.0 d
10 M q 1 0 0 -1 0 1080 cm
683.406 65.512 m 683.406 68.137 681.305 70.238 678.684 70.238 c 676.086
 70.238 673.957 68.137 673.957 65.512 c 673.957 62.914 676.086 60.789 678.684
 60.789 c 681.305 60.789 683.406 62.914 683.406 65.512 c h
683.406 65.512 m S Q
  Q
Q
q
0 1079.179 1105 -1080 re W n
[ 1 0 0 1 0 -0.820557 ] concat
  q
0.266667 g
2.361701 w
2 J
0 j
[] 0.0 d
10 M q 1 0 0 -1 0 1080 cm
768.57 394.805 m 768.57 397.426 766.465 399.527 763.844 399.527 c 761.246
 399.527 759.121 397.426 759.121 394.805 c 759.121 392.207 761.246 390.082
 763.844 390.082 c 766.465 390.082 768.57 392.207 768.57 394.805 c h
768.57 394.805 m S Q
  Q
Q
q
0 1079.179 1105 -1080 re W n
[ 1 0 0 1 0 -0.820557 ] concat
  q
0.266667 g
2.361701 w
2 J
0 j
[] 0.0 d
10 M q 1 0 0 -1 0 1080 cm
768.57 479.969 m 768.57 482.59 766.465 484.691 763.844 484.691 c 761.246
 484.691 759.121 482.59 759.121 479.969 c 759.121 477.371 761.246 475.246
 763.844 475.246 c 766.465 475.246 768.57 477.371 768.57 479.969 c h
768.57 479.969 m S Q
  Q
Q
q
0 1079.179 1105 -1080 re W n
[ 1 0 0 1 0 -0.820557 ] concat
  q
0.266667 g
2.361701 w
2 J
0 j
[] 0.0 d
10 M q 1 0 0 -1 0 1080 cm
845.23 389.137 m 845.23 391.734 843.105 393.859 840.508 393.859 c 837.883
 393.859 835.781 391.734 835.781 389.137 c 835.781 386.516 837.883 384.414
 840.508 384.414 c 843.105 384.414 845.23 386.516 845.23 389.137 c h
845.23 389.137 m S Q
  Q
Q
q
0 1079.179 1105 -1080 re W n
[ 1 0 0 1 0 -0.820557 ] concat
  q
0.266667 g
2.361701 w
2 J
0 j
[] 0.0 d
10 M q 1 0 0 -1 0 1080 cm
845.23 298.281 m 845.23 300.906 843.105 303.008 840.508 303.008 c 837.883
 303.008 835.781 300.906 835.781 298.281 c 835.781 295.684 837.883 293.559
 840.508 293.559 c 843.105 293.559 845.23 295.684 845.23 298.281 c h
845.23 298.281 m S Q
  Q
Q
q
0 1079.179 1105 -1080 re W n
[ 1 0 0 1 0 -0.820557 ] concat
  q
0.266667 g
2.361701 w
2 J
0 j
[] 0.0 d
10 M q 1 0 0 -1 0 1080 cm
762.902 343.723 m 762.902 346.32 760.797 348.445 758.176 348.445 c 755.578
 348.445 753.453 346.32 753.453 343.723 c 753.453 341.102 755.578 339 758.176
 339 c 760.797 339 762.902 341.102 762.902 343.723 c h
762.902 343.723 m S Q
  Q
Q
q
0 1079.179 1105 -1080 re W n
[ 1 0 0 1 0 -0.820557 ] concat
  q
0.266667 g
2.361701 w
2 J
0 j
[] 0.0 d
10 M q 1 0 0 -1 0 1080 cm
782.762 267.063 m 782.762 269.684 780.66 271.785 778.039 271.785 c 775.441
 271.785 773.316 269.684 773.316 267.063 c 773.316 264.465 775.441 262.336
 778.039 262.336 c 780.66 262.336 782.762 264.465 782.762 267.063 c h
782.762 267.063 m S Q
  Q
Q
q
0 1079.179 1105 -1080 re W n
[ 1 0 0 1 0 -0.820557 ] concat
  q
0.266667 g
2.361701 w
2 J
0 j
[] 0.0 d
10 M q 1 0 0 -1 0 1080 cm
859.422 440.223 m 859.422 442.844 857.297 444.945 854.699 444.945 c 852.078
 444.945 849.977 442.844 849.977 440.223 c 849.977 437.625 852.078 435.496
 854.699 435.496 c 857.297 435.496 859.422 437.625 859.422 440.223 c h
859.422 440.223 m S Q
  Q
Q
q
0 1079.179 1105 -1080 re W n
[ 1 0 0 1 0 -0.820557 ] concat
  q
0.266667 g
2.361701 w
2 J
0 j
[] 0.0 d
10 M q 1 0 0 -1 0 1080 cm
805.48 536.742 m 805.48 539.367 803.379 541.469 800.758 541.469 c 798.16
 541.469 796.035 539.367 796.035 536.742 c 796.035 534.145 798.16 532.02
 800.758 532.02 c 803.379 532.02 805.48 534.145 805.48 536.742 c h
805.48 536.742 m S Q
  Q
Q
q
0 1079.179 1105 -1080 re W n
[ 1 0 0 1 0 -0.820557 ] concat
  q
0.266667 g
2.361701 w
2 J
0 j
[] 0.0 d
10 M q 1 0 0 -1 0 1080 cm
919.031 338.031 m 919.031 340.652 916.93 342.754 914.309 342.754 c 911.711
 342.754 909.586 340.652 909.586 338.031 c 909.586 335.434 911.711 333.309
 914.309 333.309 c 916.93 333.309 919.031 335.434 919.031 338.031 c h
919.031 338.031 m S Q
  Q
Q
q
0 1079.179 1105 -1080 re W n
[ 1 0 0 1 0 -0.820557 ] concat
  q
0.266667 g
2.361701 w
2 J
0 j
[] 0.0 d
10 M q 1 0 0 -1 0 1080 cm
904.84 400.496 m 904.84 403.094 902.738 405.223 900.117 405.223 c 897.516
 405.223 895.391 403.094 895.391 400.496 c 895.391 397.875 897.516 395.773
 900.117 395.773 c 902.738 395.773 904.84 397.875 904.84 400.496 c h
904.84 400.496 m S Q
  Q
Q
q
0 1079.179 1105 -1080 re W n
[ 1 0 0 1 0 -0.820557 ] concat
  q
0.266667 g
2.361701 w
2 J
0 j
[] 0.0 d
10 M q 1 0 0 -1 0 1080 cm
794.121 627.598 m 794.121 630.195 792.02 632.32 789.398 632.32 c 786.801
 632.32 784.676 630.195 784.676 627.598 c 784.676 624.977 786.801 622.875
 789.398 622.875 c 792.02 622.875 794.121 624.977 794.121 627.598 c h
794.121 627.598 m S Q
  Q
Q
q
0 1079.179 1105 -1080 re W n
[ 1 0 0 1 0 -0.820557 ] concat
  q
0.266667 g
2.361701 w
2 J
0 j
[] 0.0 d
10 M q 1 0 0 -1 0 1080 cm
833.871 193.258 m 833.871 195.879 831.77 197.98 829.145 197.98 c 826.547
 197.98 824.422 195.879 824.422 193.258 c 824.422 190.66 826.547 188.535
 829.145 188.535 c 831.77 188.535 833.871 190.66 833.871 193.258 c h
833.871 193.258 m S Q
  Q
Q
q
0 1079.179 1105 -1080 re W n
[ 1 0 0 1 0 -0.820557 ] concat
  q
0.266667 g
2.361701 w
2 J
0 j
[] 0.0 d
10 M q 1 0 0 -1 0 1080 cm
904.84 213.121 m 904.84 215.742 902.738 217.844 900.117 217.844 c 897.516
 217.844 895.391 215.742 895.391 213.121 c 895.391 210.523 897.516 208.398
 900.117 208.398 c 902.738 208.398 904.84 210.523 904.84 213.121 c h
904.84 213.121 m S Q
  Q
Q
q
0 1079.179 1105 -1080 re W n
[ 1 0 0 1 0 -0.820557 ] concat
  q
0.266667 g
2.361701 w
2 J
0 j
[] 0.0 d
10 M q 1 0 0 -1 0 1080 cm
930.391 267.063 m 930.391 269.684 928.266 271.785 925.668 271.785 c 923.047
 271.785 920.945 269.684 920.945 267.063 c 920.945 264.465 923.047 262.336
 925.668 262.336 c 928.266 262.336 930.391 264.465 930.391 267.063 c h
930.391 267.063 m S Q
  Q
Q
q
0 1079.179 1105 -1080 re W n
[ 1 0 0 1 0 -0.820557 ] concat
  q
0.266667 g
2.361701 w
2 J
0 j
[] 0.0 d
10 M q 1 0 0 -1 0 1080 cm
67.402 56.988 m 67.402 59.609 65.301 61.711 62.68 61.711 c 60.082 61.711
 57.957 59.609 57.957 56.988 c 57.957 54.391 60.082 52.266 62.68 52.266 
c 65.301 52.266 67.402 54.391 67.402 56.988 c h
67.402 56.988 m S Q
  Q
Q
q
0 1079.179 1105 -1080 re W n
[ 1 0 0 1 0 -0.820557 ] concat
  q
0.266667 g
2.361701 w
2 J
0 j
[] 0.0 d
10 M q 1 0 0 -1 0 1080 cm
10.629 127.957 m 10.629 130.578 8.527 132.68 5.906 132.68 c 3.305 132.68
 1.18 130.578 1.18 127.957 c 1.18 125.359 3.305 123.234 5.906 123.234 c 
8.527 123.234 10.629 125.359 10.629 127.957 c h
10.629 127.957 m S Q
  Q
Q
q
0 1079.179 1105 -1080 re W n
[ 1 0 0 1 0 -0.820557 ] concat
  q
0.266667 g
2.361701 w
2 J
0 j
[] 0.0 d
10 M q 1 0 0 -1 0 1080 cm
36.18 173.395 m 36.18 175.992 34.055 178.121 31.457 178.121 c 28.836 178.121
 26.734 175.992 26.734 173.395 c 26.734 170.773 28.836 168.672 31.457 168.672
 c 34.055 168.672 36.18 170.773 36.18 173.395 c h
36.18 173.395 m S Q
  Q
Q
q
0 1079.179 1105 -1080 re W n
[ 1 0 0 1 0 -0.820557 ] concat
  q
0.266667 g
2.361701 w
2 J
0 j
[] 0.0 d
10 M q 1 0 0 -1 0 1080 cm
112.82 11.574 m 112.82 14.195 110.715 16.297 108.094 16.297 c 105.496 16.297
 103.371 14.195 103.371 11.574 c 103.371 8.973 105.496 6.848 108.094 6.848
 c 110.715 6.848 112.82 8.973 112.82 11.574 c h
112.82 11.574 m S Q
  Q
Q
q
0 1079.179 1105 -1080 re W n
[ 1 0 0 1 0 -0.820557 ] concat
  q
0.266667 g
2.361701 w
2 J
0 j
[] 0.0 d
10 M q 1 0 0 -1 0 1080 cm
206.508 11.574 m 206.508 14.195 204.383 16.297 201.785 16.297 c 199.164
 16.297 197.059 14.195 197.059 11.574 c 197.059 8.973 199.164 6.848 201.785
 6.848 c 204.383 6.848 206.508 8.973 206.508 11.574 c h
206.508 11.574 m S Q
  Q
Q
q
0 1079.179 1105 -1080 re W n
[ 1 0 0 1 0 -0.820557 ] concat
  q
0.266667 g
2.361701 w
2 J
0 j
[] 0.0 d
10 M q 1 0 0 -1 0 1080 cm
558.52 110.93 m 558.52 113.551 556.395 115.652 553.797 115.652 c 551.176
 115.652 549.07 113.551 549.07 110.93 c 549.07 108.332 551.176 106.207 553.797
 106.207 c 556.395 106.207 558.52 108.332 558.52 110.93 c h
558.52 110.93 m S Q
  Q
Q
q
0 1079.179 1105 -1080 re W n
[ 1 0 0 1 0 -0.820557 ] concat
  q
0 0.6 0 rg
599.66 917.965 m 599.66 911.445 594.371 906.156 587.852 906.156 c 581.332
 906.156 576.043 911.445 576.043 917.965 c 576.043 924.48 581.332 929.773
 587.852 929.773 c 594.371 929.773 599.66 924.48 599.66 917.965 c h
599.66 917.965 m f
  Q
Q
q
0 1079.179 1105 -1080 re W n
[ 1 0 0 1 0 -0.820557 ] concat
  q
0 g
2.361701 w
1 J
1 j
[] 0.0 d
10 M q 1 0 0 -1 0 1080 cm
599.66 162.035 m 599.66 168.555 594.371 173.844 587.852 173.844 c 581.332
 173.844 576.043 168.555 576.043 162.035 c 576.043 155.52 581.332 150.227
 587.852 150.227 c 594.371 150.227 599.66 155.52 599.66 162.035 c h
599.66 162.035 m S Q
  Q
Q
q
0 1079.179 1105 -1080 re W n
[ 1 0 0 1 0 -0.820557 ] concat
  q
0 0.6 0 rg
517.332 883.906 m 517.332 877.391 512.039 872.098 505.523 872.098 c 499.004
 872.098 493.715 877.391 493.715 883.906 c 493.715 890.426 499.004 895.715
 505.523 895.715 c 512.039 895.715 517.332 890.426 517.332 883.906 c h
517.332 883.906 m f
  Q
Q
q
0 1079.179 1105 -1080 re W n
[ 1 0 0 1 0 -0.820557 ] concat
  q
0 g
2.361701 w
1 J
1 j
[] 0.0 d
10 M q 1 0 0 -1 0 1080 cm
517.332 196.094 m 517.332 202.609 512.039 207.902 505.523 207.902 c 499.004
 207.902 493.715 202.609 493.715 196.094 c 493.715 189.574 499.004 184.285
 505.523 184.285 c 512.039 184.285 517.332 189.574 517.332 196.094 c h
517.332 196.094 m S Q
  Q
Q
q
0 1079.179 1105 -1080 re W n
[ 1 0 0 1 0 -0.820557 ] concat
  q
0 g
2.361701 w
2 J
0 j
[] 0.0 d
10 M q 1 0 0 -1 0 1080 cm
515.938 272.754 m 515.938 275.352 513.813 277.477 511.215 277.477 c 508.594
 277.477 506.492 275.352 506.492 272.754 c 506.492 270.133 508.594 268.031
 511.215 268.031 c 513.813 268.031 515.938 270.133 515.938 272.754 c h
515.938 272.754 m S Q
  Q
Q
q
0 1079.179 1105 -1080 re W n
[ 1 0 0 1 0 -0.820557 ] concat
  q
0 g
2.361701 w
2 J
0 j
[] 0.0 d
10 M q 1 0 0 -1 0 1080 cm
592.574 343.723 m 592.574 346.32 590.473 348.445 587.852 348.445 c 585.254
 348.445 583.129 346.32 583.129 343.723 c 583.129 341.102 585.254 339 587.852
 339 c 590.473 339 592.574 341.102 592.574 343.723 c h
592.574 343.723 m S Q
  Q
Q
q
0 1079.179 1105 -1080 re W n
[ 1 0 0 1 0 -0.820557 ] concat
  q
0 g
2.361701 w
2 J
0 j
[] 0.0 d
10 M q 1 0 0 -1 0 1080 cm
620.961 428.887 m 620.961 431.484 618.859 433.609 616.238 433.609 c 613.641
 433.609 611.516 431.484 611.516 428.887 c 611.516 426.262 613.641 424.16
 616.238 424.16 c 618.859 424.16 620.961 426.262 620.961 428.887 c h
620.961 428.887 m S Q
  Q
Q
q
0 1079.179 1105 -1080 re W n
[ 1 0 0 1 0 -0.820557 ] concat
  q
0 g
2.361701 w
2 J
0 j
[] 0.0 d
10 M q 1 0 0 -1 0 1080 cm
643.684 528.242 m 643.684 530.84 641.555 532.965 638.957 532.965 c 636.336
 532.965 634.234 530.84 634.234 528.242 c 634.234 525.621 636.336 523.52
 638.957 523.52 c 641.555 523.52 643.684 525.621 643.684 528.242 c h
643.684 528.242 m S Q
  Q
Q
q
0 1079.179 1105 -1080 re W n
[ 1 0 0 1 0 -0.820557 ] concat
  q
0 g
2.361701 w
2 J
0 j
[] 0.0 d
10 M q 1 0 0 -1 0 1080 cm
652.184 590.684 m 652.184 593.305 650.082 595.41 647.461 595.41 c 644.863
 595.41 642.738 593.305 642.738 590.684 c 642.738 588.086 644.863 585.961
 647.461 585.961 c 650.082 585.961 652.184 588.086 652.184 590.684 c h
652.184 590.684 m S Q
  Q
Q
q
0 1079.179 1105 -1080 re W n
[ 1 0 0 1 0 -0.820557 ] concat
  q
0 g
2.361701 w
2 J
0 j
[] 0.0 d
10 M q 1 0 0 -1 0 1080 cm
737.348 647.461 m 737.348 650.082 735.246 652.184 732.625 652.184 c 730.027
 652.184 727.898 650.082 727.898 647.461 c 727.898 644.863 730.027 642.738
 732.625 642.738 c 735.246 642.738 737.348 644.863 737.348 647.461 c h
737.348 647.461 m S Q
  Q
Q
q
0 1079.179 1105 -1080 re W n
[ 1 0 0 1 0 -0.820557 ] concat
  q
0 g
2.361701 w
2 J
0 j
[] 0.0 d
10 M q 1 0 0 -1 0 1080 cm
808.316 704.234 m 808.316 706.855 806.215 708.961 803.594 708.961 c 800.996
 708.961 798.871 706.855 798.871 704.234 c 798.871 701.637 800.996 699.512
 803.594 699.512 c 806.215 699.512 808.316 701.637 808.316 704.234 c h
808.316 704.234 m S Q
  Q
Q
q
0 1079.179 1105 -1080 re W n
[ 1 0 0 1 0 -0.820557 ] concat
  q
0 g
2.361701 w
2 J
0 j
[] 0.0 d
10 M q 1 0 0 -1 0 1080 cm
805.48 775.203 m 805.48 777.828 803.379 779.93 800.758 779.93 c 798.16 
779.93 796.035 777.828 796.035 775.203 c 796.035 772.605 798.16 770.48 800.758
 770.48 c 803.379 770.48 805.48 772.605 805.48 775.203 c h
805.48 775.203 m S Q
  Q
Q
q
0 1079.179 1105 -1080 re W n
[ 1 0 0 1 0 -0.820557 ] concat
  q
0 g
2.361701 w
2 J
0 j
[] 0.0 d
10 M q 1 0 0 -1 0 1080 cm
751.539 840.508 m 751.539 843.105 749.438 845.23 746.816 845.23 c 744.219
 845.23 742.094 843.105 742.094 840.508 c 742.094 837.883 744.219 835.781
 746.816 835.781 c 749.438 835.781 751.539 837.883 751.539 840.508 c h
751.539 840.508 m S Q
  Q
Q
q
0 1079.179 1105 -1080 re W n
[ 1 0 0 1 0 -0.820557 ] concat
  q
0 g
2.361701 w
2 J
0 j
[] 0.0 d
10 M q 1 0 0 -1 0 1080 cm
680.57 908.617 m 680.57 911.238 678.469 913.34 675.848 913.34 c 673.25 
913.34 671.125 911.238 671.125 908.617 c 671.125 906.02 673.25 903.895 675.848
 903.895 c 678.469 903.895 680.57 906.02 680.57 908.617 c h
680.57 908.617 m S Q
  Q
Q
q
0 1079.179 1105 -1080 re W n
[ 1 0 0 1 0 -0.820557 ] concat
  q
0 g
2.361701 w
2 J
0 j
[] 0.0 d
10 M q 1 0 0 -1 0 1080 cm
581.215 914.309 m 581.215 916.906 579.113 919.031 576.492 919.031 c 573.895
 919.031 571.77 916.906 571.77 914.309 c 571.77 911.688 573.895 909.586 
576.492 909.586 c 579.113 909.586 581.215 911.688 581.215 914.309 c h
581.215 914.309 m S Q
  Q
Q
q
0 1079.179 1105 -1080 re W n
[ 1 0 0 1 0 -0.820557 ] concat
  q
0 g
2.361701 w
2 J
0 j
[] 0.0 d
10 M q 1 0 0 -1 0 1080 cm
535.801 973.918 m 535.801 976.539 533.699 978.641 531.074 978.641 c 528.477
 978.641 526.352 976.539 526.352 973.918 c 526.352 971.32 528.477 969.195
 531.074 969.195 c 533.699 969.195 535.801 971.32 535.801 973.918 c h
535.801 973.918 m S Q
  Q
Q
q
0 1079.179 1105 -1080 re W n
[ 1 0 0 1 0 -0.820557 ] concat
  q
0 g
2.361701 w
2 J
0 j
[] 0.0 d
10 M q 1 0 0 -1 0 1080 cm
461.996 1050.555 m 461.996 1053.176 459.871 1055.277 457.273 1055.277 c
 454.652 1055.277 452.551 1053.176 452.551 1050.555 c 452.551 1047.957 454.652
 1045.832 457.273 1045.832 c 459.871 1045.832 461.996 1047.957 461.996 1050.555
 c h
461.996 1050.555 m S Q
  Q
Q
q
0 1079.179 1105 -1080 re W n
[ 1 0 0 1 0 -0.820557 ] concat
  q
0 g
2.361701 w
2 J
0 j
[] 0.0 d
10 M q 1 0 0 -1 0 1080 cm
371.141 1059.082 m 371.141 1061.703 369.039 1063.805 366.418 1063.805 c
 363.82 1063.805 361.695 1061.703 361.695 1059.082 c 361.695 1056.484 363.82
 1054.359 366.418 1054.359 c 369.039 1054.359 371.141 1056.484 371.141 1059.082
 c h
371.141 1059.082 m S Q
  Q
Q
q
0 1079.179 1105 -1080 re W n
[ 1 0 0 1 0 -0.820557 ] concat
  q
1 0.498039 0 rg
599.66 917.965 m 599.66 911.445 594.371 906.156 587.852 906.156 c 581.332
 906.156 576.043 911.445 576.043 917.965 c 576.043 924.48 581.332 929.773
 587.852 929.773 c 594.371 929.773 599.66 924.48 599.66 917.965 c h
599.66 917.965 m f
  Q
Q
q
0 1079.179 1105 -1080 re W n
[ 1 0 0 1 0 -0.820557 ] concat
  q
0 g
2.361701 w
1 J
1 j
[] 0.0 d
10 M q 1 0 0 -1 0 1080 cm
599.66 162.035 m 599.66 168.555 594.371 173.844 587.852 173.844 c 581.332
 173.844 576.043 168.555 576.043 162.035 c 576.043 155.52 581.332 150.227
 587.852 150.227 c 594.371 150.227 599.66 155.52 599.66 162.035 c h
599.66 162.035 m S Q
  Q
Q
q
0 1079.179 1105 -1080 re W n
[ 1 0 0 1 0 -0.820557 ] concat
  q
1 0 0 rg
534.027 867.281 m 534.027 862.063 529.801 857.836 524.582 857.836 c 519.363
 857.836 515.133 862.063 515.133 867.281 c 515.133 872.5 519.363 876.727
 524.582 876.727 c 529.801 876.727 534.027 872.5 534.027 867.281 c h
534.027 867.281 m f
  Q
Q
q
0 1079.179 1105 -1080 re W n
[ 1 0 0 1 0 -0.820557 ] concat
  q
0 g
2.361701 w
1 J
1 j
[] 0.0 d
10 M q 1 0 0 -1 0 1080 cm
534.027 212.719 m 534.027 217.938 529.801 222.164 524.582 222.164 c 519.363
 222.164 515.133 217.938 515.133 212.719 c 515.133 207.5 519.363 203.273
 524.582 203.273 c 529.801 203.273 534.027 207.5 534.027 212.719 c h
534.027 212.719 m S Q
  Q
Q
Q Q
showpage
%%Trailer
end restore
%%EOF
