%!PS-Adobe-3.0 EPSF-3.0
%%Creator: cairo 1.14.1 (http://cairographics.org)
%%CreationDate: Thu May 26 02:51:03 2016
%%Pages: 1
%%DocumentData: Clean7Bit
%%LanguageLevel: 2
%%BoundingBox: 0 -1 691 1003
%%EndComments
%%BeginProlog
save
50 dict begin
/q { gsave } bind def
/Q { grestore } bind def
/cm { 6 array astore concat } bind def
/w { setlinewidth } bind def
/J { setlinecap } bind def
/j { setlinejoin } bind def
/M { setmiterlimit } bind def
/d { setdash } bind def
/m { moveto } bind def
/l { lineto } bind def
/c { curveto } bind def
/h { closepath } bind def
/re { exch dup neg 3 1 roll 5 3 roll moveto 0 rlineto
      0 exch rlineto 0 rlineto closepath } bind def
/S { stroke } bind def
/f { fill } bind def
/f* { eofill } bind def
/n { newpath } bind def
/W { clip } bind def
/W* { eoclip } bind def
/BT { } bind def
/ET { } bind def
/pdfmark where { pop globaldict /?pdfmark /exec load put }
    { globaldict begin /?pdfmark /pop load def /pdfmark
    /cleartomark load def end } ifelse
/BDC { mark 3 1 roll /BDC pdfmark } bind def
/EMC { mark /EMC pdfmark } bind def
/cairo_store_point { /cairo_point_y exch def /cairo_point_x exch def } def
/Tj { show currentpoint cairo_store_point } bind def
/TJ {
  {
    dup
    type /stringtype eq
    { show } { -0.001 mul 0 cairo_font_matrix dtransform rmoveto } ifelse
  } forall
  currentpoint cairo_store_point
} bind def
/cairo_selectfont { cairo_font_matrix aload pop pop pop 0 0 6 array astore
    cairo_font exch selectfont cairo_point_x cairo_point_y moveto } bind def
/Tf { pop /cairo_font exch def /cairo_font_matrix where
      { pop cairo_selectfont } if } bind def
/Td { matrix translate cairo_font_matrix matrix concatmatrix dup
      /cairo_font_matrix exch def dup 4 get exch 5 get cairo_store_point
      /cairo_font where { pop cairo_selectfont } if } bind def
/Tm { 2 copy 8 2 roll 6 array astore /cairo_font_matrix exch def
      cairo_store_point /cairo_font where { pop cairo_selectfont } if } bind def
/g { setgray } bind def
/rg { setrgbcolor } bind def
/d1 { setcachedevice } bind def
%%EndProlog
%%BeginSetup
%%EndSetup
%%Page: 1 1
%%BeginPageSetup
%%PageBoundingBox: 0 -1 691 1003
%%EndPageSetup
q 0 -1 691 1004 rectclip q
q
0 1002.761 691 -1003 re W n
[ 1 0 0 1 0 -0.238586 ] concat
  q
1 0 0 rg
3.611126 w
1 J
1 j
[] 0.0 d
10 M q 1 0 0 -1 0 1003 cm
31.566 423.32 m 79.832 494.289 l S Q
  Q
Q
q
0 1002.761 691 -1003 re W n
[ 1 0 0 1 0 -0.238586 ] concat
  q
1 0 0 rg
3.611126 w
1 J
1 j
[] 0.0 d
10 M q 1 0 0 -1 0 1003 cm
79.832 494.289 m 113.898 542.559 l S Q
  Q
Q
q
0 1002.761 691 -1003 re W n
[ 1 0 0 1 0 -0.238586 ] concat
  q
1 0 0 rg
3.611126 w
1 J
1 j
[] 0.0 d
10 M q 1 0 0 -1 0 1003 cm
113.898 542.559 m 216.094 587.965 l S Q
  Q
Q
q
0 1002.761 691 -1003 re W n
[ 1 0 0 1 0 -0.238586 ] concat
  q
1 0 0 rg
3.611126 w
1 J
1 j
[] 0.0 d
10 M q 1 0 0 -1 0 1003 cm
216.094 587.965 m 287.063 607.848 l S Q
  Q
Q
q
0 1002.761 691 -1003 re W n
[ 1 0 0 1 0 -0.238586 ] concat
  q
1 0 0 rg
3.611126 w
1 J
1 j
[] 0.0 d
10 M q 1 0 0 -1 0 1003 cm
287.063 607.848 m 340.988 576.625 l S Q
  Q
Q
q
0 1002.761 691 -1003 re W n
[ 1 0 0 1 0 -0.238586 ] concat
  q
1 0 0 rg
3.611126 w
1 J
1 j
[] 0.0 d
10 M q 1 0 0 -1 0 1003 cm
340.988 576.625 m 411.961 548.219 l S Q
  Q
Q
q
0 1002.761 691 -1003 re W n
[ 1 0 0 1 0 -0.238586 ] concat
  q
1 0 0 rg
3.611126 w
1 J
1 j
[] 0.0 d
10 M q 1 0 0 -1 0 1003 cm
411.961 548.219 m 482.93 497.133 l S Q
  Q
Q
q
0 1002.761 691 -1003 re W n
[ 1 0 0 1 0 -0.238586 ] concat
  q
1 0 0 rg
3.611126 w
1 J
1 j
[] 0.0 d
10 M q 1 0 0 -1 0 1003 cm
482.93 497.133 m 431.82 431.844 l S Q
  Q
Q
q
0 1002.761 691 -1003 re W n
[ 1 0 0 1 0 -0.238586 ] concat
  q
1 0 0 rg
3.611126 w
1 J
1 j
[] 0.0 d
10 M q 1 0 0 -1 0 1003 cm
431.82 431.844 m 366.531 392.098 l S Q
  Q
Q
q
0 1002.761 691 -1003 re W n
[ 1 0 0 1 0 -0.238586 ] concat
  q
1 0 0 rg
3.611126 w
1 J
1 j
[] 0.0 d
10 M q 1 0 0 -1 0 1003 cm
366.531 392.098 m 338.148 340.988 l S Q
  Q
Q
q
0 1002.761 691 -1003 re W n
[ 1 0 0 1 0 -0.238586 ] concat
  q
1 0 0 rg
3.611126 w
1 J
1 j
[] 0.0 d
10 M q 1 0 0 -1 0 1003 cm
338.148 340.988 m 312.605 255.836 l S Q
  Q
Q
q
0 1002.761 691 -1003 re W n
[ 1 0 0 1 0 -0.238586 ] concat
  q
1 0 0 rg
3.611126 w
1 J
1 j
[] 0.0 d
10 M q 1 0 0 -1 0 1003 cm
312.605 255.836 m 315.445 204.727 l S Q
  Q
Q
q
0 1002.761 691 -1003 re W n
[ 1 0 0 1 0 -0.238586 ] concat
  q
1 0 0 rg
3.611126 w
1 J
1 j
[] 0.0 d
10 M q 1 0 0 -1 0 1003 cm
315.445 204.727 m 340.988 128.098 l S Q
  Q
Q
q
0 1002.761 691 -1003 re W n
[ 1 0 0 1 0 -0.238586 ] concat
  q
1 0 0 rg
3.611126 w
1 J
1 j
[] 0.0 d
10 M q 1 0 0 -1 0 1003 cm
340.988 128.098 m 423.324 71.309 l S Q
  Q
Q
q
0 1002.761 691 -1003 re W n
[ 1 0 0 1 0 -0.238586 ] concat
  q
1 0 0 rg
3.611126 w
1 J
1 j
[] 0.0 d
10 M q 1 0 0 -1 0 1003 cm
423.324 71.309 m 482.93 6.02 l S Q
  Q
Q
q
0 1002.761 691 -1003 re W n
[ 1 0 0 1 0 -0.238586 ] concat
  q
1 0 0 rg
3.611126 w
1 J
1 j
[] 0.0 d
10 M q 1 0 0 -1 0 1003 cm
482.93 6.02 m 545.379 51.445 l S Q
  Q
Q
q
0 1002.761 691 -1003 re W n
[ 1 0 0 1 0 -0.238586 ] concat
  q
1 0 0 rg
3.611126 w
1 J
1 j
[] 0.0 d
10 M q 1 0 0 -1 0 1003 cm
545.379 51.445 m 545.379 128.098 l S Q
  Q
Q
q
0 1002.761 691 -1003 re W n
[ 1 0 0 1 0 -0.238586 ] concat
  q
1 0 0 rg
3.611126 w
1 J
1 j
[] 0.0 d
10 M q 1 0 0 -1 0 1003 cm
545.379 128.098 m 534.039 193.387 l S Q
  Q
Q
q
0 1002.761 691 -1003 re W n
[ 1 0 0 1 0 -0.238586 ] concat
  q
1 0 0 rg
3.611126 w
1 J
1 j
[] 0.0 d
10 M q 1 0 0 -1 0 1003 cm
534.039 193.387 m 553.902 244.473 l S Q
  Q
Q
q
0 1002.761 691 -1003 re W n
[ 1 0 0 1 0 -0.238586 ] concat
  q
1 0 0 rg
3.611126 w
1 J
1 j
[] 0.0 d
10 M q 1 0 0 -1 0 1003 cm
553.902 244.473 m 604.988 340.988 l S Q
  Q
Q
q
0 1002.761 691 -1003 re W n
[ 1 0 0 1 0 -0.238586 ] concat
  q
1 0 0 rg
3.611126 w
1 J
1 j
[] 0.0 d
10 M q 1 0 0 -1 0 1003 cm
604.988 340.988 m 636.234 400.617 l S Q
  Q
Q
q
0 1002.761 691 -1003 re W n
[ 1 0 0 1 0 -0.238586 ] concat
  q
1 0 0 rg
3.611126 w
1 J
1 j
[] 0.0 d
10 M q 1 0 0 -1 0 1003 cm
636.234 400.617 m 658.938 457.387 l S Q
  Q
Q
q
0 1002.761 691 -1003 re W n
[ 1 0 0 1 0 -0.238586 ] concat
  q
1 0 0 rg
3.611126 w
1 J
1 j
[] 0.0 d
10 M q 1 0 0 -1 0 1003 cm
658.938 457.387 m 684.48 531.195 l S Q
  Q
Q
q
0 1002.761 691 -1003 re W n
[ 1 0 0 1 0 -0.238586 ] concat
  q
1 0 0 rg
3.611126 w
1 J
1 j
[] 0.0 d
10 M q 1 0 0 -1 0 1003 cm
684.48 531.195 m 658.938 599.328 l S Q
  Q
Q
q
0 1002.761 691 -1003 re W n
[ 1 0 0 1 0 -0.238586 ] concat
  q
1 0 0 rg
3.611126 w
1 J
1 j
[] 0.0 d
10 M q 1 0 0 -1 0 1003 cm
658.938 599.328 m 664.617 673.137 l S Q
  Q
Q
q
0 1002.761 691 -1003 re W n
[ 1 0 0 1 0 -0.238586 ] concat
  q
1 0 0 rg
3.611126 w
1 J
1 j
[] 0.0 d
10 M q 1 0 0 -1 0 1003 cm
664.617 673.137 m 599.328 729.906 l S Q
  Q
Q
q
0 1002.761 691 -1003 re W n
[ 1 0 0 1 0 -0.238586 ] concat
  q
1 0 0 rg
3.611126 w
1 J
1 j
[] 0.0 d
10 M q 1 0 0 -1 0 1003 cm
599.328 729.906 m 502.793 749.789 l S Q
  Q
Q
q
0 1002.761 691 -1003 re W n
[ 1 0 0 1 0 -0.238586 ] concat
  q
1 0 0 rg
3.611126 w
1 J
1 j
[] 0.0 d
10 M q 1 0 0 -1 0 1003 cm
502.793 749.789 m 437.504 809.398 l S Q
  Q
Q
q
0 1002.761 691 -1003 re W n
[ 1 0 0 1 0 -0.238586 ] concat
  q
1 0 0 rg
3.611126 w
1 J
1 j
[] 0.0 d
10 M q 1 0 0 -1 0 1003 cm
437.504 809.398 m 383.578 860.484 l S Q
  Q
Q
q
0 1002.761 691 -1003 re W n
[ 1 0 0 1 0 -0.238586 ] concat
  q
1 0 0 rg
3.611126 w
1 J
1 j
[] 0.0 d
10 M q 1 0 0 -1 0 1003 cm
383.578 860.484 m 386.418 948.5 l S Q
  Q
Q
q
0 1002.761 691 -1003 re W n
[ 1 0 0 1 0 -0.238586 ] concat
  q
0 0 0.8 rg
3.611126 w
1 J
1 j
[] 0.0 d
10 M q 1 0 0 -1 0 1003 cm
31.566 423.32 m 386.418 948.5 l S Q
  Q
Q
q
0 1002.761 691 -1003 re W n
[ 1 0 0 1 0 -0.238586 ] concat
  q
0 g
2.407417 w
0 J
1 j
[ 21.666756 19.259338] 0 d
10 M q 1 0 0 -1 0 1003 cm
260.82 762.621 m 320.453 739.848 l S Q
  Q
Q
q
0 1002.761 691 -1003 re W n
[ 1 0 0 1 0 -0.238586 ] concat
  q
0 g
2.407417 w
0 J
1 j
[ 21.666756 19.259338] 0 d
10 M q 1 0 0 -1 0 1003 cm
320.453 739.848 m 375.633 698.656 l S Q
  Q
Q
q
0 1002.761 691 -1003 re W n
[ 1 0 0 1 0 -0.238586 ] concat
  q
0 g
2.407417 w
0 J
1 j
[ 21.666756 19.259338] 0 d
10 M q 1 0 0 -1 0 1003 cm
320.453 739.848 m 260.82 762.621 l S Q
  Q
Q
q
0 1002.761 691 -1003 re W n
[ 1 0 0 1 0 -0.238586 ] concat
  q
0 g
2.407417 w
0 J
1 j
[ 21.666756 19.259338] 0 d
10 M q 1 0 0 -1 0 1003 cm
375.633 698.656 m 390.605 692.445 l S Q
  Q
Q
q
0 1002.761 691 -1003 re W n
[ 1 0 0 1 0 -0.238586 ] concat
  q
0 g
2.407417 w
0 J
1 j
[ 21.666756 19.259338] 0 d
10 M q 1 0 0 -1 0 1003 cm
375.633 698.656 m 320.453 739.848 l S Q
  Q
Q
q
0 1002.761 691 -1003 re W n
[ 1 0 0 1 0 -0.238586 ] concat
  q
0 g
2.407417 w
0 J
1 j
[ 21.666756 19.259338] 0 d
10 M q 1 0 0 -1 0 1003 cm
390.605 692.445 m 418.172 666.66 l S Q
  Q
Q
q
0 1002.761 691 -1003 re W n
[ 1 0 0 1 0 -0.238586 ] concat
  q
0 g
2.407417 w
0 J
1 j
[ 21.666756 19.259338] 0 d
10 M q 1 0 0 -1 0 1003 cm
390.605 692.445 m 375.633 698.656 l S Q
  Q
Q
q
0 1002.761 691 -1003 re W n
[ 1 0 0 1 0 -0.238586 ] concat
  q
0 g
2.407417 w
0 J
1 j
[ 21.666756 19.259338] 0 d
10 M q 1 0 0 -1 0 1003 cm
418.172 666.66 m 518.559 621.426 l S Q
  Q
Q
q
0 1002.761 691 -1003 re W n
[ 1 0 0 1 0 -0.238586 ] concat
  q
0 g
2.407417 w
0 J
1 j
[ 21.666756 19.259338] 0 d
10 M q 1 0 0 -1 0 1003 cm
418.172 666.66 m 390.605 692.445 l S Q
  Q
Q
q
0 1002.761 691 -1003 re W n
[ 1 0 0 1 0 -0.238586 ] concat
  q
0 g
2.407417 w
0 J
1 j
[ 21.666756 19.259338] 0 d
10 M q 1 0 0 -1 0 1003 cm
424.719 198.586 m 433.145 173.648 l S Q
  Q
Q
q
0 1002.761 691 -1003 re W n
[ 1 0 0 1 0 -0.238586 ] concat
  q
0 g
2.407417 w
0 J
1 j
[ 21.666756 19.259338] 0 d
10 M q 1 0 0 -1 0 1003 cm
424.719 198.586 m 426.691 236.555 l S Q
  Q
Q
q
0 1002.761 691 -1003 re W n
[ 1 0 0 1 0 -0.238586 ] concat
  q
0 g
2.407417 w
0 J
1 j
[ 21.666756 19.259338] 0 d
10 M q 1 0 0 -1 0 1003 cm
426.691 236.555 m 424.719 198.586 l S Q
  Q
Q
q
0 1002.761 691 -1003 re W n
[ 1 0 0 1 0 -0.238586 ] concat
  q
0 g
2.407417 w
0 J
1 j
[ 21.666756 19.259338] 0 d
10 M q 1 0 0 -1 0 1003 cm
426.691 236.555 m 433.793 261.781 l S Q
  Q
Q
q
0 1002.761 691 -1003 re W n
[ 1 0 0 1 0 -0.238586 ] concat
  q
0 g
2.407417 w
0 J
1 j
[ 21.666756 19.259338] 0 d
10 M q 1 0 0 -1 0 1003 cm
433.145 173.648 m 462.227 147.262 l S Q
  Q
Q
q
0 1002.761 691 -1003 re W n
[ 1 0 0 1 0 -0.238586 ] concat
  q
0 g
2.407417 w
0 J
1 j
[ 21.666756 19.259338] 0 d
10 M q 1 0 0 -1 0 1003 cm
433.145 173.648 m 424.719 198.586 l S Q
  Q
Q
q
0 1002.761 691 -1003 re W n
[ 1 0 0 1 0 -0.238586 ] concat
  q
0 g
2.407417 w
0 J
1 j
[ 21.666756 19.259338] 0 d
10 M q 1 0 0 -1 0 1003 cm
433.793 261.781 m 426.691 236.555 l S Q
  Q
Q
q
0 1002.761 691 -1003 re W n
[ 1 0 0 1 0 -0.238586 ] concat
  q
0 g
2.407417 w
0 J
1 j
[ 21.666756 19.259338] 0 d
10 M q 1 0 0 -1 0 1003 cm
433.793 261.781 m 433.988 265.828 l S Q
  Q
Q
q
0 1002.761 691 -1003 re W n
[ 1 0 0 1 0 -0.238586 ] concat
  q
0 g
2.407417 w
0 J
1 j
[ 21.666756 19.259338] 0 d
10 M q 1 0 0 -1 0 1003 cm
433.988 265.828 m 433.793 261.781 l S Q
  Q
Q
q
0 1002.761 691 -1003 re W n
[ 1 0 0 1 0 -0.238586 ] concat
  q
0 g
2.407417 w
0 J
1 j
[ 21.666756 19.259338] 0 d
10 M q 1 0 0 -1 0 1003 cm
433.988 265.828 m 453.824 310.172 l S Q
  Q
Q
q
0 1002.761 691 -1003 re W n
[ 1 0 0 1 0 -0.238586 ] concat
  q
0 g
2.407417 w
0 J
1 j
[ 21.666756 19.259338] 0 d
10 M q 1 0 0 -1 0 1003 cm
453.824 310.172 m 433.988 265.828 l S Q
  Q
Q
q
0 1002.761 691 -1003 re W n
[ 1 0 0 1 0 -0.238586 ] concat
  q
0 g
2.407417 w
0 J
1 j
[ 21.666756 19.259338] 0 d
10 M q 1 0 0 -1 0 1003 cm
453.824 310.172 m 457.965 315.418 l S Q
  Q
Q
q
0 1002.761 691 -1003 re W n
[ 1 0 0 1 0 -0.238586 ] concat
  q
0 g
2.407417 w
0 J
1 j
[ 21.666756 19.259338] 0 d
10 M q 1 0 0 -1 0 1003 cm
457.965 315.418 m 453.824 310.172 l S Q
  Q
Q
q
0 1002.761 691 -1003 re W n
[ 1 0 0 1 0 -0.238586 ] concat
  q
0 g
2.407417 w
0 J
1 j
[ 21.666756 19.259338] 0 d
10 M q 1 0 0 -1 0 1003 cm
457.965 315.418 m 493.211 338.387 l S Q
  Q
Q
q
0 1002.761 691 -1003 re W n
[ 1 0 0 1 0 -0.238586 ] concat
  q
0 g
2.407417 w
0 J
1 j
[ 21.666756 19.259338] 0 d
10 M q 1 0 0 -1 0 1003 cm
462.227 147.262 m 488.973 89.773 l S Q
  Q
Q
q
0 1002.761 691 -1003 re W n
[ 1 0 0 1 0 -0.238586 ] concat
  q
0 g
2.407417 w
0 J
1 j
[ 21.666756 19.259338] 0 d
10 M q 1 0 0 -1 0 1003 cm
462.227 147.262 m 433.145 173.648 l S Q
  Q
Q
q
0 1002.761 691 -1003 re W n
[ 1 0 0 1 0 -0.238586 ] concat
  q
0 g
2.407417 w
0 J
1 j
[ 21.666756 19.259338] 0 d
10 M q 1 0 0 -1 0 1003 cm
485.457 68.203 m 488.973 89.773 l S Q
  Q
Q
q
0 1002.761 691 -1003 re W n
[ 1 0 0 1 0 -0.238586 ] concat
  q
0 g
2.407417 w
0 J
1 j
[ 21.666756 19.259338] 0 d
10 M q 1 0 0 -1 0 1003 cm
488.973 89.773 m 485.457 68.203 l S Q
  Q
Q
q
0 1002.761 691 -1003 re W n
[ 1 0 0 1 0 -0.238586 ] concat
  q
0 g
2.407417 w
0 J
1 j
[ 21.666756 19.259338] 0 d
10 M q 1 0 0 -1 0 1003 cm
488.973 89.773 m 462.227 147.262 l S Q
  Q
Q
q
0 1002.761 691 -1003 re W n
[ 1 0 0 1 0 -0.238586 ] concat
  q
0 g
2.407417 w
0 J
1 j
[ 21.666756 19.259338] 0 d
10 M q 1 0 0 -1 0 1003 cm
493.211 338.387 m 457.965 315.418 l S Q
  Q
Q
q
0 1002.761 691 -1003 re W n
[ 1 0 0 1 0 -0.238586 ] concat
  q
0 g
2.407417 w
0 J
1 j
[ 21.666756 19.259338] 0 d
10 M q 1 0 0 -1 0 1003 cm
493.211 338.387 m 529.684 407.891 l S Q
  Q
Q
q
0 1002.761 691 -1003 re W n
[ 1 0 0 1 0 -0.238586 ] concat
  q
0 g
2.407417 w
0 J
1 j
[ 21.666756 19.259338] 0 d
10 M q 1 0 0 -1 0 1003 cm
518.559 621.426 m 418.172 666.66 l S Q
  Q
Q
q
0 1002.761 691 -1003 re W n
[ 1 0 0 1 0 -0.238586 ] concat
  q
0 g
2.407417 w
0 J
1 j
[ 21.666756 19.259338] 0 d
10 M q 1 0 0 -1 0 1003 cm
518.559 621.426 m 526.551 620.801 l S Q
  Q
Q
q
0 1002.761 691 -1003 re W n
[ 1 0 0 1 0 -0.238586 ] concat
  q
0 g
2.407417 w
0 J
1 j
[ 21.666756 19.259338] 0 d
10 M q 1 0 0 -1 0 1003 cm
526.551 620.801 m 529.707 619.234 l S Q
  Q
Q
q
0 1002.761 691 -1003 re W n
[ 1 0 0 1 0 -0.238586 ] concat
  q
0 g
2.407417 w
0 J
1 j
[ 21.666756 19.259338] 0 d
10 M q 1 0 0 -1 0 1003 cm
526.551 620.801 m 518.559 621.426 l S Q
  Q
Q
q
0 1002.761 691 -1003 re W n
[ 1 0 0 1 0 -0.238586 ] concat
  q
0 g
2.407417 w
0 J
1 j
[ 21.666756 19.259338] 0 d
10 M q 1 0 0 -1 0 1003 cm
529.684 407.891 m 493.211 338.387 l S Q
  Q
Q
q
0 1002.761 691 -1003 re W n
[ 1 0 0 1 0 -0.238586 ] concat
  q
0 g
2.407417 w
0 J
1 j
[ 21.666756 19.259338] 0 d
10 M q 1 0 0 -1 0 1003 cm
529.684 407.891 m 537.746 414.195 l S Q
  Q
Q
q
0 1002.761 691 -1003 re W n
[ 1 0 0 1 0 -0.238586 ] concat
  q
0 g
2.407417 w
0 J
1 j
[ 21.666756 19.259338] 0 d
10 M q 1 0 0 -1 0 1003 cm
529.707 619.234 m 580.84 531.172 l S Q
  Q
Q
q
0 1002.761 691 -1003 re W n
[ 1 0 0 1 0 -0.238586 ] concat
  q
0 g
2.407417 w
0 J
1 j
[ 21.666756 19.259338] 0 d
10 M q 1 0 0 -1 0 1003 cm
529.707 619.234 m 580.625 642.469 l S Q
  Q
Q
q
0 1002.761 691 -1003 re W n
[ 1 0 0 1 0 -0.238586 ] concat
  q
0 g
2.407417 w
0 J
1 j
[ 21.666756 19.259338] 0 d
10 M q 1 0 0 -1 0 1003 cm
529.707 619.234 m 526.551 620.801 l S Q
  Q
Q
q
0 1002.761 691 -1003 re W n
[ 1 0 0 1 0 -0.238586 ] concat
  q
0 g
2.407417 w
0 J
1 j
[ 21.666756 19.259338] 0 d
10 M q 1 0 0 -1 0 1003 cm
537.746 414.195 m 529.684 407.891 l S Q
  Q
Q
q
0 1002.761 691 -1003 re W n
[ 1 0 0 1 0 -0.238586 ] concat
  q
0 g
2.407417 w
0 J
1 j
[ 21.666756 19.259338] 0 d
10 M q 1 0 0 -1 0 1003 cm
537.746 414.195 m 567.285 461.117 l S Q
  Q
Q
q
0 1002.761 691 -1003 re W n
[ 1 0 0 1 0 -0.238586 ] concat
  q
0 g
2.407417 w
0 J
1 j
[ 21.666756 19.259338] 0 d
10 M q 1 0 0 -1 0 1003 cm
567.285 461.117 m 537.746 414.195 l S Q
  Q
Q
q
0 1002.761 691 -1003 re W n
[ 1 0 0 1 0 -0.238586 ] concat
  q
0 g
2.407417 w
0 J
1 j
[ 21.666756 19.259338] 0 d
10 M q 1 0 0 -1 0 1003 cm
567.285 461.117 m 581.805 525.418 l S Q
  Q
Q
q
0 1002.761 691 -1003 re W n
[ 1 0 0 1 0 -0.238586 ] concat
  q
0 g
2.407417 w
0 J
1 j
[ 21.666756 19.259338] 0 d
10 M q 1 0 0 -1 0 1003 cm
580.625 642.469 m 529.707 619.234 l S Q
  Q
Q
q
0 1002.761 691 -1003 re W n
[ 1 0 0 1 0 -0.238586 ] concat
  q
0 g
2.407417 w
0 J
1 j
[ 21.666756 19.259338] 0 d
10 M q 1 0 0 -1 0 1003 cm
580.84 531.172 m 581.805 525.418 l S Q
  Q
Q
q
0 1002.761 691 -1003 re W n
[ 1 0 0 1 0 -0.238586 ] concat
  q
0 g
2.407417 w
0 J
1 j
[ 21.666756 19.259338] 0 d
10 M q 1 0 0 -1 0 1003 cm
580.84 531.172 m 529.707 619.234 l S Q
  Q
Q
q
0 1002.761 691 -1003 re W n
[ 1 0 0 1 0 -0.238586 ] concat
  q
0 g
2.407417 w
0 J
1 j
[ 21.666756 19.259338] 0 d
10 M q 1 0 0 -1 0 1003 cm
581.805 525.418 m 567.285 461.117 l S Q
  Q
Q
q
0 1002.761 691 -1003 re W n
[ 1 0 0 1 0 -0.238586 ] concat
  q
0 g
2.407417 w
0 J
1 j
[ 21.666756 19.259338] 0 d
10 M q 1 0 0 -1 0 1003 cm
581.805 525.418 m 580.84 531.172 l S Q
  Q
Q
q
0 1002.761 691 -1003 re W n
[ 1 0 0 1 0 -0.238586 ] concat
  q
0 0.6 0 rg
2.407417 w
1 J
1 j
[] 0.0 d
10 M q 1 0 0 -1 0 1003 cm
79.832 993.902 m 156.461 937.137 l S Q
  Q
Q
q
0 1002.761 691 -1003 re W n
[ 1 0 0 1 0 -0.238586 ] concat
  q
0 0.6 0 rg
2.407417 w
1 J
1 j
[] 0.0 d
10 M q 1 0 0 -1 0 1003 cm
156.461 937.137 m 218.934 849.145 l S Q
  Q
Q
q
0 1002.761 691 -1003 re W n
[ 1 0 0 1 0 -0.238586 ] concat
  q
0 0.6 0 rg
2.407417 w
1 J
1 j
[] 0.0 d
10 M q 1 0 0 -1 0 1003 cm
218.934 849.145 m 230.273 775.332 l S Q
  Q
Q
q
0 1002.761 691 -1003 re W n
[ 1 0 0 1 0 -0.238586 ] concat
  q
0 0.6 0 rg
6.018543 w
1 J
1 j
[] 0.0 d
10 M q 1 0 0 -1 0 1003 cm
230.273 775.332 m 295.563 690.16 l S Q
  Q
Q
q
0 1002.761 691 -1003 re W n
[ 1 0 0 1 0 -0.238586 ] concat
  q
0 g
2.407417 w
1 J
1 j
[] 0.0 d
10 M q 1 0 0 -1 0 1003 cm
295.563 690.16 m 397.758 658.934 l S Q
  Q
Q
q
0 1002.761 691 -1003 re W n
[ 1 0 0 1 0 -0.238586 ] concat
  q
0 g
2.407417 w
1 J
1 j
[] 0.0 d
10 M q 1 0 0 -1 0 1003 cm
397.758 658.934 m 437.504 613.531 l S Q
  Q
Q
q
0 1002.761 691 -1003 re W n
[ 1 0 0 1 0 -0.238586 ] concat
  q
0 g
2.407417 w
1 J
1 j
[] 0.0 d
10 M q 1 0 0 -1 0 1003 cm
437.504 613.531 m 519.836 593.645 l S Q
  Q
Q
q
0 1002.761 691 -1003 re W n
[ 1 0 0 1 0 -0.238586 ] concat
  q
0 g
2.407417 w
1 J
1 j
[] 0.0 d
10 M q 1 0 0 -1 0 1003 cm
519.836 593.645 m 590.809 511.313 l S Q
  Q
Q
q
0 1002.761 691 -1003 re W n
[ 1 0 0 1 0 -0.238586 ] concat
  q
0 g
2.407417 w
1 J
1 j
[] 0.0 d
10 M q 1 0 0 -1 0 1003 cm
590.809 511.313 m 502.793 386.414 l S Q
  Q
Q
q
0 1002.761 691 -1003 re W n
[ 1 0 0 1 0 -0.238586 ] concat
  q
0 g
2.407417 w
1 J
1 j
[] 0.0 d
10 M q 1 0 0 -1 0 1003 cm
502.793 386.414 m 514.156 301.266 l S Q
  Q
Q
q
0 1002.761 691 -1003 re W n
[ 1 0 0 1 0 -0.238586 ] concat
  q
0 g
2.407417 w
1 J
1 j
[] 0.0 d
10 M q 1 0 0 -1 0 1003 cm
514.156 301.266 m 468.727 258.676 l S Q
  Q
Q
q
0 1002.761 691 -1003 re W n
[ 1 0 0 1 0 -0.238586 ] concat
  q
0 g
2.407417 w
1 J
1 j
[] 0.0 d
10 M q 1 0 0 -1 0 1003 cm
468.727 258.676 m 474.406 179.184 l S Q
  Q
Q
q
0 1002.761 691 -1003 re W n
[ 1 0 0 1 0 -0.238586 ] concat
  q
0 g
2.407417 w
1 J
1 j
[] 0.0 d
10 M q 1 0 0 -1 0 1003 cm
474.406 179.184 m 477.25 122.418 l S Q
  Q
Q
q
0 1002.761 691 -1003 re W n
[ 1 0 0 1 0 -0.238586 ] concat
  q
0.266667 g
2.407417 w
2 J
0 j
[] 0.0 d
10 M q 1 0 0 -1 0 1003 cm
16.512 985.402 m 16.512 988.051 14.355 990.219 11.695 990.219 c 9.035 990.219
 6.879 988.051 6.879 985.402 c 6.879 982.73 9.035 980.59 11.695 980.59 c
 14.355 980.59 16.512 982.73 16.512 985.402 c h
16.512 985.402 m S Q
  Q
Q
q
0 1002.761 691 -1003 re W n
[ 1 0 0 1 0 -0.238586 ] concat
  q
0.266667 g
2.407417 w
2 J
0 j
[] 0.0 d
10 M q 1 0 0 -1 0 1003 cm
84.648 993.902 m 84.648 996.574 82.48 998.719 79.832 998.719 c 77.16 998.719
 75.016 996.574 75.016 993.902 c 75.016 991.254 77.16 989.086 79.832 989.086
 c 82.48 989.086 84.648 991.254 84.648 993.902 c h
84.648 993.902 m S Q
  Q
Q
q
0 1002.761 691 -1003 re W n
[ 1 0 0 1 0 -0.238586 ] concat
  q
0.266667 g
2.407417 w
2 J
0 j
[] 0.0 d
10 M q 1 0 0 -1 0 1003 cm
254.973 996.742 m 254.973 999.414 252.805 1001.559 250.156 1001.559 c 247.484
 1001.559 245.344 999.414 245.344 996.742 c 245.344 994.094 247.484 991.93
 250.156 991.93 c 252.805 991.93 254.973 994.094 254.973 996.742 c h
254.973 996.742 m S Q
  Q
Q
q
0 1002.761 691 -1003 re W n
[ 1 0 0 1 0 -0.238586 ] concat
  q
0.266667 g
2.407417 w
2 J
0 j
[] 0.0 d
10 M q 1 0 0 -1 0 1003 cm
311.738 993.902 m 311.738 996.574 309.598 998.719 306.926 998.719 c 304.277
 998.719 302.109 996.574 302.109 993.902 c 302.109 991.254 304.277 989.086
 306.926 989.086 c 309.598 989.086 311.738 991.254 311.738 993.902 c h
311.738 993.902 m S Q
  Q
Q
q
0 1002.761 691 -1003 re W n
[ 1 0 0 1 0 -0.238586 ] concat
  q
0.266667 g
2.407417 w
2 J
0 j
[] 0.0 d
10 M q 1 0 0 -1 0 1003 cm
371.348 988.246 m 371.348 990.895 369.203 993.059 366.531 993.059 c 363.883
 993.059 361.719 990.895 361.719 988.246 c 361.719 985.574 363.883 983.43
 366.531 983.43 c 369.203 983.43 371.348 985.574 371.348 988.246 c h
371.348 988.246 m S Q
  Q
Q
q
0 1002.761 691 -1003 re W n
[ 1 0 0 1 0 -0.238586 ] concat
  q
0.266667 g
2.407417 w
2 J
0 j
[] 0.0 d
10 M q 1 0 0 -1 0 1003 cm
33.543 948.5 m 33.543 951.148 31.387 953.313 28.727 953.313 c 26.07 953.313
 23.914 951.148 23.914 948.5 c 23.914 945.824 26.07 943.684 28.727 943.684
 c 31.387 943.684 33.543 945.824 33.543 948.5 c h
33.543 948.5 m S Q
  Q
Q
q
0 1002.761 691 -1003 re W n
[ 1 0 0 1 0 -0.238586 ] concat
  q
0.266667 g
2.407417 w
2 J
0 j
[] 0.0 d
10 M q 1 0 0 -1 0 1003 cm
93.145 934.293 m 93.145 936.969 91.004 939.109 88.332 939.109 c 85.684 
939.109 83.516 936.969 83.516 934.293 c 83.516 931.645 85.684 929.48 88.332
 929.48 c 91.004 929.48 93.145 931.645 93.145 934.293 c h
93.145 934.293 m S Q
  Q
Q
q
0 1002.761 691 -1003 re W n
[ 1 0 0 1 0 -0.238586 ] concat
  q
0.266667 g
2.407417 w
2 J
0 j
[] 0.0 d
10 M q 1 0 0 -1 0 1003 cm
161.273 937.137 m 161.273 939.809 159.133 941.949 156.461 941.949 c 153.813
 941.949 151.645 939.809 151.645 937.137 c 151.645 934.488 153.813 932.32
 156.461 932.32 c 159.133 932.32 161.273 934.488 161.273 937.137 c h
161.273 937.137 m S Q
  Q
Q
q
0 1002.761 691 -1003 re W n
[ 1 0 0 1 0 -0.238586 ] concat
  q
0.266667 g
2.407417 w
2 J
0 j
[] 0.0 d
10 M q 1 0 0 -1 0 1003 cm
249.289 939.977 m 249.289 942.625 247.125 944.789 244.477 944.789 c 241.805
 944.789 239.66 942.625 239.66 939.977 c 239.66 937.328 241.805 935.16 244.477
 935.16 c 247.125 935.16 249.289 937.328 249.289 939.977 c h
249.289 939.977 m S Q
  Q
Q
q
0 1002.761 691 -1003 re W n
[ 1 0 0 1 0 -0.238586 ] concat
  q
0.266667 g
2.407417 w
2 J
0 j
[] 0.0 d
10 M q 1 0 0 -1 0 1003 cm
317.422 937.137 m 317.422 939.809 315.254 941.949 312.605 941.949 c 309.957
 941.949 307.789 939.809 307.789 937.137 c 307.789 934.488 309.957 932.32
 312.605 932.32 c 315.254 932.32 317.422 934.488 317.422 937.137 c h
317.422 937.137 m S Q
  Q
Q
q
0 1002.761 691 -1003 re W n
[ 1 0 0 1 0 -0.238586 ] concat
  q
0.266667 g
2.407417 w
2 J
0 j
[] 0.0 d
10 M q 1 0 0 -1 0 1003 cm
391.23 948.5 m 391.23 951.148 389.066 953.313 386.418 953.313 c 383.746
 953.313 381.602 951.148 381.602 948.5 c 381.602 945.824 383.746 943.684
 386.418 943.684 c 389.066 943.684 391.23 945.824 391.23 948.5 c h
391.23 948.5 m S Q
  Q
Q
q
0 1002.761 691 -1003 re W n
[ 1 0 0 1 0 -0.238586 ] concat
  q
0.266667 g
2.407417 w
2 J
0 j
[] 0.0 d
10 M q 1 0 0 -1 0 1003 cm
10.832 857.641 m 10.832 860.316 8.676 862.457 6.02 862.457 c 3.359 862.457
 1.203 860.316 1.203 857.641 c 1.203 854.996 3.359 852.828 6.02 852.828 
c 8.676 852.828 10.832 854.996 10.832 857.641 c h
10.832 857.641 m S Q
  Q
Q
q
0 1002.761 691 -1003 re W n
[ 1 0 0 1 0 -0.238586 ] concat
  q
0.266667 g
2.407417 w
2 J
0 j
[] 0.0 d
10 M q 1 0 0 -1 0 1003 cm
113.031 860.484 m 113.031 863.156 110.863 865.297 108.215 865.297 c 105.543
 865.297 103.402 863.156 103.402 860.484 c 103.402 857.836 105.543 855.668
 108.215 855.668 c 110.863 855.668 113.031 857.836 113.031 860.484 c h
113.031 860.484 m S Q
  Q
Q
q
0 1002.761 691 -1003 re W n
[ 1 0 0 1 0 -0.238586 ] concat
  q
0.266667 g
2.407417 w
2 J
0 j
[] 0.0 d
10 M q 1 0 0 -1 0 1003 cm
175.48 854.824 m 175.48 857.473 173.336 859.641 170.664 859.641 c 168.016
 859.641 165.848 857.473 165.848 854.824 c 165.848 852.152 168.016 850.012
 170.664 850.012 c 173.336 850.012 175.48 852.152 175.48 854.824 c h
175.48 854.824 m S Q
  Q
Q
q
0 1002.761 691 -1003 re W n
[ 1 0 0 1 0 -0.238586 ] concat
  q
0.266667 g
2.407417 w
2 J
0 j
[] 0.0 d
10 M q 1 0 0 -1 0 1003 cm
223.746 849.145 m 223.746 851.793 221.582 853.961 218.934 853.961 c 216.262
 853.961 214.117 851.793 214.117 849.145 c 214.117 846.473 216.262 844.328
 218.934 844.328 c 221.582 844.328 223.746 846.473 223.746 849.145 c h
223.746 849.145 m S Q
  Q
Q
q
0 1002.761 691 -1003 re W n
[ 1 0 0 1 0 -0.238586 ] concat
  q
0.266667 g
2.407417 w
2 J
0 j
[] 0.0 d
10 M q 1 0 0 -1 0 1003 cm
314.578 874.688 m 314.578 877.336 312.414 879.5 309.766 879.5 c 307.117
 879.5 304.949 877.336 304.949 874.688 c 304.949 872.016 307.117 869.871
 309.766 869.871 c 312.414 869.871 314.578 872.016 314.578 874.688 c h
314.578 874.688 m S Q
  Q
Q
q
0 1002.761 691 -1003 re W n
[ 1 0 0 1 0 -0.238586 ] concat
  q
0.266667 g
2.407417 w
2 J
0 j
[] 0.0 d
10 M q 1 0 0 -1 0 1003 cm
36.379 795.195 m 36.379 797.867 34.227 800.008 31.566 800.008 c 28.91 800.008
 26.75 797.867 26.75 795.195 c 26.75 792.547 28.91 790.379 31.566 790.379
 c 34.227 790.379 36.379 792.547 36.379 795.195 c h
36.379 795.195 m S Q
  Q
Q
q
0 1002.761 691 -1003 re W n
[ 1 0 0 1 0 -0.238586 ] concat
  q
0.266667 g
2.407417 w
2 J
0 j
[] 0.0 d
10 M q 1 0 0 -1 0 1003 cm
101.668 778.172 m 101.668 780.82 99.523 782.988 96.852 782.988 c 94.203
 782.988 92.039 780.82 92.039 778.172 c 92.039 775.5 94.203 773.359 96.852
 773.359 c 99.523 773.359 101.668 775.5 101.668 778.172 c h
101.668 778.172 m S Q
  Q
Q
q
0 1002.761 691 -1003 re W n
[ 1 0 0 1 0 -0.238586 ] concat
  q
0.266667 g
2.407417 w
2 J
0 j
[] 0.0 d
10 M q 1 0 0 -1 0 1003 cm
184 778.172 m 184 780.82 181.836 782.988 179.188 782.988 c 176.516 782.988
 174.371 780.82 174.371 778.172 c 174.371 775.5 176.516 773.359 179.188 
773.359 c 181.836 773.359 184 775.5 184 778.172 c h
184 778.172 m S Q
  Q
Q
q
0 1002.761 691 -1003 re W n
[ 1 0 0 1 0 -0.238586 ] concat
  q
0.266667 g
2.407417 w
2 J
0 j
[] 0.0 d
10 M q 1 0 0 -1 0 1003 cm
235.086 775.332 m 235.086 777.98 232.945 780.148 230.273 780.148 c 227.625
 780.148 225.457 777.98 225.457 775.332 c 225.457 772.66 227.625 770.52 
230.273 770.52 c 232.945 770.52 235.086 772.66 235.086 775.332 c h
235.086 775.332 m S Q
  Q
Q
q
0 1002.761 691 -1003 re W n
[ 1 0 0 1 0 -0.238586 ] concat
  q
0.266667 g
2.407417 w
2 J
0 j
[] 0.0 d
10 M q 1 0 0 -1 0 1003 cm
25.027 732.746 m 25.027 735.418 22.871 737.559 20.211 737.559 c 17.551 
737.559 15.398 735.418 15.398 732.746 c 15.398 730.098 17.551 727.93 20.211
 727.93 c 22.871 727.93 25.027 730.098 25.027 732.746 c h
25.027 732.746 m S Q
  Q
Q
q
0 1002.761 691 -1003 re W n
[ 1 0 0 1 0 -0.238586 ] concat
  q
0.266667 g
2.407417 w
2 J
0 j
[] 0.0 d
10 M q 1 0 0 -1 0 1003 cm
93.145 718.543 m 93.145 721.215 91.004 723.355 88.332 723.355 c 85.684 
723.355 83.516 721.215 83.516 718.543 c 83.516 715.895 85.684 713.727 88.332
 713.727 c 91.004 713.727 93.145 715.895 93.145 718.543 c h
93.145 718.543 m S Q
  Q
Q
q
0 1002.761 691 -1003 re W n
[ 1 0 0 1 0 -0.238586 ] concat
  q
0.266667 g
2.407417 w
2 J
0 j
[] 0.0 d
10 M q 1 0 0 -1 0 1003 cm
164.117 729.906 m 164.117 732.578 161.973 734.719 159.301 734.719 c 156.652
 734.719 154.488 732.578 154.488 729.906 c 154.488 727.258 156.652 725.09
 159.301 725.09 c 161.973 725.09 164.117 727.258 164.117 729.906 c h
164.117 729.906 m S Q
  Q
Q
q
0 1002.761 691 -1003 re W n
[ 1 0 0 1 0 -0.238586 ] concat
  q
0.266667 g
2.407417 w
2 J
0 j
[] 0.0 d
10 M q 1 0 0 -1 0 1003 cm
22.188 658.934 m 22.188 661.605 20.031 663.75 17.371 663.75 c 14.715 663.75
 12.559 661.605 12.559 658.934 c 12.559 656.285 14.715 654.121 17.371 654.121
 c 20.031 654.121 22.188 656.285 22.188 658.934 c h
22.188 658.934 m S Q
  Q
Q
q
0 1002.761 691 -1003 re W n
[ 1 0 0 1 0 -0.238586 ] concat
  q
0.266667 g
2.407417 w
2 J
0 j
[] 0.0 d
10 M q 1 0 0 -1 0 1003 cm
110.191 633.391 m 110.191 636.039 108.023 638.207 105.375 638.207 c 102.727
 638.207 100.559 636.039 100.559 633.391 c 100.559 630.719 102.727 628.578
 105.375 628.578 c 108.023 628.578 110.191 630.719 110.191 633.391 c h
110.191 633.391 m S Q
  Q
Q
q
0 1002.761 691 -1003 re W n
[ 1 0 0 1 0 -0.238586 ] concat
  q
0.266667 g
2.407417 w
2 J
0 j
[] 0.0 d
10 M q 1 0 0 -1 0 1003 cm
169.797 661.773 m 169.797 664.445 167.656 666.59 164.984 666.59 c 162.336
 666.59 160.168 664.445 160.168 661.773 c 160.168 659.125 162.336 656.961
 164.984 656.961 c 167.656 656.961 169.797 659.125 169.797 661.773 c h
169.797 661.773 m S Q
  Q
Q
q
0 1002.761 691 -1003 re W n
[ 1 0 0 1 0 -0.238586 ] concat
  q
0.266667 g
2.407417 w
2 J
0 j
[] 0.0 d
10 M q 1 0 0 -1 0 1003 cm
33.543 562.422 m 33.543 565.07 31.387 567.234 28.727 567.234 c 26.07 567.234
 23.914 565.07 23.914 562.422 c 23.914 559.773 26.07 557.605 28.727 557.605
 c 31.387 557.605 33.543 559.773 33.543 562.422 c h
33.543 562.422 m S Q
  Q
Q
q
0 1002.761 691 -1003 re W n
[ 1 0 0 1 0 -0.238586 ] concat
  q
0.266667 g
2.407417 w
2 J
0 j
[] 0.0 d
10 M q 1 0 0 -1 0 1003 cm
95.984 590.805 m 95.984 593.477 93.844 595.617 91.172 595.617 c 88.523 
595.617 86.355 593.477 86.355 590.805 c 86.355 588.156 88.523 585.988 91.172
 585.988 c 93.844 585.988 95.984 588.156 95.984 590.805 c h
95.984 590.805 m S Q
  Q
Q
q
0 1002.761 691 -1003 re W n
[ 1 0 0 1 0 -0.238586 ] concat
  q
0.266667 g
2.407417 w
2 J
0 j
[] 0.0 d
10 M q 1 0 0 -1 0 1003 cm
39.219 488.609 m 39.219 491.281 37.078 493.426 34.406 493.426 c 31.746 
493.426 29.59 491.281 29.59 488.609 c 29.59 485.961 31.746 483.793 34.406
 483.793 c 37.078 483.793 39.219 485.961 39.219 488.609 c h
39.219 488.609 m S Q
  Q
Q
q
0 1002.761 691 -1003 re W n
[ 1 0 0 1 0 -0.238586 ] concat
  q
0.266667 g
2.407417 w
2 J
0 j
[] 0.0 d
10 M q 1 0 0 -1 0 1003 cm
84.648 494.289 m 84.648 496.938 82.48 499.105 79.832 499.105 c 77.16 499.105
 75.016 496.938 75.016 494.289 c 75.016 491.645 77.16 489.477 79.832 489.477
 c 82.48 489.477 84.648 491.645 84.648 494.289 c h
84.648 494.289 m S Q
  Q
Q
q
0 1002.761 691 -1003 re W n
[ 1 0 0 1 0 -0.238586 ] concat
  q
0.266667 g
2.407417 w
2 J
0 j
[] 0.0 d
10 M q 1 0 0 -1 0 1003 cm
36.379 423.32 m 36.379 425.992 34.227 428.137 31.566 428.137 c 28.91 428.137
 26.75 425.992 26.75 423.32 c 26.75 420.672 28.91 418.504 31.566 418.504
 c 34.227 418.504 36.379 420.672 36.379 423.32 c h
36.379 423.32 m S Q
  Q
Q
q
0 1002.761 691 -1003 re W n
[ 1 0 0 1 0 -0.238586 ] concat
  q
0.266667 g
2.407417 w
2 J
0 j
[] 0.0 d
10 M q 1 0 0 -1 0 1003 cm
325.941 781.016 m 325.941 783.664 323.777 785.828 321.129 785.828 c 318.457
 785.828 316.313 783.664 316.313 781.016 c 316.313 778.344 318.457 776.199
 321.129 776.199 c 323.777 776.199 325.941 778.344 325.941 781.016 c h
325.941 781.016 m S Q
  Q
Q
q
0 1002.761 691 -1003 re W n
[ 1 0 0 1 0 -0.238586 ] concat
  q
0.266667 g
2.407417 w
2 J
0 j
[] 0.0 d
10 M q 1 0 0 -1 0 1003 cm
300.375 690.16 m 300.375 692.832 298.234 694.973 295.563 694.973 c 292.914
 694.973 290.746 692.832 290.746 690.16 c 290.746 687.512 292.914 685.344
 295.563 685.344 c 298.234 685.344 300.375 687.512 300.375 690.16 c h
300.375 690.16 m S Q
  Q
Q
q
0 1002.761 691 -1003 re W n
[ 1 0 0 1 0 -0.238586 ] concat
  q
0.266667 g
2.407417 w
2 J
0 j
[] 0.0 d
10 M q 1 0 0 -1 0 1003 cm
402.57 658.934 m 402.57 661.605 400.43 663.75 397.758 663.75 c 395.109 
663.75 392.941 661.605 392.941 658.934 c 392.941 656.285 395.109 654.121
 397.758 654.121 c 400.43 654.121 402.57 656.285 402.57 658.934 c h
402.57 658.934 m S Q
  Q
Q
q
0 1002.761 691 -1003 re W n
[ 1 0 0 1 0 -0.238586 ] concat
  q
0.266667 g
2.407417 w
2 J
0 j
[] 0.0 d
10 M q 1 0 0 -1 0 1003 cm
436.637 715.727 m 436.637 718.375 434.492 720.539 431.82 720.539 c 429.172
 720.539 427.008 718.375 427.008 715.727 c 427.008 713.055 429.172 710.91
 431.82 710.91 c 434.492 710.91 436.637 713.055 436.637 715.727 c h
436.637 715.727 m S Q
  Q
Q
q
0 1002.761 691 -1003 re W n
[ 1 0 0 1 0 -0.238586 ] concat
  q
0.266667 g
2.407417 w
2 J
0 j
[] 0.0 d
10 M q 1 0 0 -1 0 1003 cm
442.316 809.398 m 442.316 812.047 440.176 814.211 437.504 814.211 c 434.855
 814.211 432.688 812.047 432.688 809.398 c 432.688 806.727 434.855 804.582
 437.504 804.582 c 440.176 804.582 442.316 806.727 442.316 809.398 c h
442.316 809.398 m S Q
  Q
Q
q
0 1002.761 691 -1003 re W n
[ 1 0 0 1 0 -0.238586 ] concat
  q
0.266667 g
2.407417 w
2 J
0 j
[] 0.0 d
10 M q 1 0 0 -1 0 1003 cm
351.484 744.109 m 351.484 746.758 349.32 748.922 346.672 748.922 c 344.023
 748.922 341.855 746.758 341.855 744.109 c 341.855 741.438 344.023 739.293
 346.672 739.293 c 349.32 739.293 351.484 741.438 351.484 744.109 c h
351.484 744.109 m S Q
  Q
Q
q
0 1002.761 691 -1003 re W n
[ 1 0 0 1 0 -0.238586 ] concat
  q
0.266667 g
2.407417 w
2 J
0 j
[] 0.0 d
10 M q 1 0 0 -1 0 1003 cm
388.391 860.484 m 388.391 863.156 386.223 865.297 383.578 865.297 c 380.902
 865.297 378.762 863.156 378.762 860.484 c 378.762 857.836 380.902 855.668
 383.578 855.668 c 386.223 855.668 388.391 857.836 388.391 860.484 c h
388.391 860.484 m S Q
  Q
Q
q
0 1002.761 691 -1003 re W n
[ 1 0 0 1 0 -0.238586 ] concat
  q
0.266667 g
2.407417 w
2 J
0 j
[] 0.0 d
10 M q 1 0 0 -1 0 1003 cm
524.652 658.934 m 524.652 661.605 522.484 663.75 519.836 663.75 c 517.164
 663.75 515.02 661.605 515.02 658.934 c 515.02 656.285 517.164 654.121 519.836
 654.121 c 522.484 654.121 524.652 656.285 524.652 658.934 c h
524.652 658.934 m S Q
  Q
Q
q
0 1002.761 691 -1003 re W n
[ 1 0 0 1 0 -0.238586 ] concat
  q
0.266667 g
2.407417 w
2 J
0 j
[] 0.0 d
10 M q 1 0 0 -1 0 1003 cm
507.605 749.789 m 507.605 752.438 505.465 754.605 502.793 754.605 c 500.145
 754.605 497.977 752.438 497.977 749.789 c 497.977 747.117 500.145 744.977
 502.793 744.977 c 505.465 744.977 507.605 747.117 507.605 749.789 c h
507.605 749.789 m S Q
  Q
Q
q
0 1002.761 691 -1003 re W n
[ 1 0 0 1 0 -0.238586 ] concat
  q
0.266667 g
2.407417 w
2 J
0 j
[] 0.0 d
10 M q 1 0 0 -1 0 1003 cm
442.316 613.531 m 442.316 616.18 440.176 618.344 437.504 618.344 c 434.855
 618.344 432.688 616.18 432.688 613.531 c 432.688 610.859 434.855 608.715
 437.504 608.715 c 440.176 608.715 442.316 610.859 442.316 613.531 c h
442.316 613.531 m S Q
  Q
Q
q
0 1002.761 691 -1003 re W n
[ 1 0 0 1 0 -0.238586 ] concat
  q
0.266667 g
2.407417 w
2 J
0 j
[] 0.0 d
10 M q 1 0 0 -1 0 1003 cm
345.805 576.625 m 345.805 579.273 343.66 581.438 340.988 581.438 c 338.34
 581.438 336.176 579.273 336.176 576.625 c 336.176 573.953 338.34 571.809
 340.988 571.809 c 343.66 571.809 345.805 573.953 345.805 576.625 c h
345.805 576.625 m S Q
  Q
Q
q
0 1002.761 691 -1003 re W n
[ 1 0 0 1 0 -0.238586 ] concat
  q
0.266667 g
2.407417 w
2 J
0 j
[] 0.0 d
10 M q 1 0 0 -1 0 1003 cm
291.879 607.848 m 291.879 610.496 289.711 612.664 287.063 612.664 c 284.391
 612.664 282.246 610.496 282.246 607.848 c 282.246 605.176 284.391 603.035
 287.063 603.035 c 289.711 603.035 291.879 605.176 291.879 607.848 c h
291.879 607.848 m S Q
  Q
Q
q
0 1002.761 691 -1003 re W n
[ 1 0 0 1 0 -0.238586 ] concat
  q
0.266667 g
2.407417 w
2 J
0 j
[] 0.0 d
10 M q 1 0 0 -1 0 1003 cm
487.746 497.133 m 487.746 499.781 485.578 501.945 482.93 501.945 c 480.281
 501.945 478.117 499.781 478.117 497.133 c 478.117 494.461 480.281 492.316
 482.93 492.316 c 485.578 492.316 487.746 494.461 487.746 497.133 c h
487.746 497.133 m S Q
  Q
Q
q
0 1002.761 691 -1003 re W n
[ 1 0 0 1 0 -0.238586 ] concat
  q
0.266667 g
2.407417 w
2 J
0 j
[] 0.0 d
10 M q 1 0 0 -1 0 1003 cm
416.773 548.219 m 416.773 550.891 414.633 553.031 411.961 553.031 c 409.313
 553.031 407.145 550.891 407.145 548.219 c 407.145 545.57 409.313 543.402
 411.961 543.402 c 414.633 543.402 416.773 545.57 416.773 548.219 c h
416.773 548.219 m S Q
  Q
Q
q
0 1002.761 691 -1003 re W n
[ 1 0 0 1 0 -0.238586 ] concat
  q
0.266667 g
2.407417 w
2 J
0 j
[] 0.0 d
10 M q 1 0 0 -1 0 1003 cm
538.855 531.195 m 538.855 533.844 536.688 536.012 534.039 536.012 c 531.367
 536.012 529.227 533.844 529.227 531.195 c 529.227 528.523 531.367 526.383
 534.039 526.383 c 536.688 526.383 538.855 528.523 538.855 531.195 c h
538.855 531.195 m S Q
  Q
Q
q
0 1002.761 691 -1003 re W n
[ 1 0 0 1 0 -0.238586 ] concat
  q
0.266667 g
2.407417 w
2 J
0 j
[] 0.0 d
10 M q 1 0 0 -1 0 1003 cm
663.75 599.328 m 663.75 601.977 661.586 604.141 658.938 604.141 c 656.266
 604.141 654.121 601.977 654.121 599.328 c 654.121 596.656 656.266 594.512
 658.938 594.512 c 661.586 594.512 663.75 596.656 663.75 599.328 c h
663.75 599.328 m S Q
  Q
Q
q
0 1002.761 691 -1003 re W n
[ 1 0 0 1 0 -0.238586 ] concat
  q
0.266667 g
2.407417 w
2 J
0 j
[] 0.0 d
10 M q 1 0 0 -1 0 1003 cm
524.652 593.645 m 524.652 596.316 522.484 598.461 519.836 598.461 c 517.164
 598.461 515.02 596.316 515.02 593.645 c 515.02 590.996 517.164 588.832 
519.836 588.832 c 522.484 588.832 524.652 590.996 524.652 593.645 c h
524.652 593.645 m S Q
  Q
Q
q
0 1002.761 691 -1003 re W n
[ 1 0 0 1 0 -0.238586 ] concat
  q
0.266667 g
2.407417 w
2 J
0 j
[] 0.0 d
10 M q 1 0 0 -1 0 1003 cm
604.145 599.328 m 604.145 601.977 601.977 604.141 599.328 604.141 c 596.656
 604.141 594.516 601.977 594.516 599.328 c 594.516 596.656 596.656 594.512
 599.328 594.512 c 601.977 594.512 604.145 596.656 604.145 599.328 c h
604.145 599.328 m S Q
  Q
Q
q
0 1002.761 691 -1003 re W n
[ 1 0 0 1 0 -0.238586 ] concat
  q
0.266667 g
2.407417 w
2 J
0 j
[] 0.0 d
10 M q 1 0 0 -1 0 1003 cm
595.621 511.313 m 595.621 513.984 593.453 516.125 590.809 516.125 c 588.133
 516.125 585.992 513.984 585.992 511.313 c 585.992 508.664 588.133 506.496
 590.809 506.496 c 593.453 506.496 595.621 508.664 595.621 511.313 c h
595.621 511.313 m S Q
  Q
Q
q
0 1002.761 691 -1003 re W n
[ 1 0 0 1 0 -0.238586 ] concat
  q
0.266667 g
2.407417 w
2 J
0 j
[] 0.0 d
10 M q 1 0 0 -1 0 1003 cm
663.75 457.387 m 663.75 460.059 661.586 462.199 658.938 462.199 c 656.266
 462.199 654.121 460.059 654.121 457.387 c 654.121 454.738 656.266 452.57
 658.938 452.57 c 661.586 452.57 663.75 454.738 663.75 457.387 c h
663.75 457.387 m S Q
  Q
Q
q
0 1002.761 691 -1003 re W n
[ 1 0 0 1 0 -0.238586 ] concat
  q
0.266667 g
2.407417 w
2 J
0 j
[] 0.0 d
10 M q 1 0 0 -1 0 1003 cm
669.434 673.137 m 669.434 675.785 667.266 677.953 664.617 677.953 c 661.945
 677.953 659.805 675.785 659.805 673.137 c 659.805 670.465 661.945 668.324
 664.617 668.324 c 667.266 668.324 669.434 670.465 669.434 673.137 c h
669.434 673.137 m S Q
  Q
Q
q
0 1002.761 691 -1003 re W n
[ 1 0 0 1 0 -0.238586 ] concat
  q
0.266667 g
2.407417 w
2 J
0 j
[] 0.0 d
10 M q 1 0 0 -1 0 1003 cm
604.145 729.906 m 604.145 732.578 601.977 734.719 599.328 734.719 c 596.656
 734.719 594.516 732.578 594.516 729.906 c 594.516 727.258 596.656 725.09
 599.328 725.09 c 601.977 725.09 604.145 727.258 604.145 729.906 c h
604.145 729.906 m S Q
  Q
Q
q
0 1002.761 691 -1003 re W n
[ 1 0 0 1 0 -0.238586 ] concat
  q
0.266667 g
2.407417 w
2 J
0 j
[] 0.0 d
10 M q 1 0 0 -1 0 1003 cm
689.293 531.195 m 689.293 533.844 687.152 536.012 684.48 536.012 c 681.832
 536.012 679.664 533.844 679.664 531.195 c 679.664 528.523 681.832 526.383
 684.48 526.383 c 687.152 526.383 689.293 528.523 689.293 531.195 c h
689.293 531.195 m S Q
  Q
Q
q
0 1002.761 691 -1003 re W n
[ 1 0 0 1 0 -0.238586 ] concat
  q
0.266667 g
2.407417 w
2 J
0 j
[] 0.0 d
10 M q 1 0 0 -1 0 1003 cm
578.578 446.023 m 578.578 448.695 576.434 450.836 573.762 450.836 c 571.113
 450.836 568.949 448.695 568.949 446.023 c 568.949 443.375 571.113 441.207
 573.762 441.207 c 576.434 441.207 578.578 443.375 578.578 446.023 c h
578.578 446.023 m S Q
  Q
Q
q
0 1002.761 691 -1003 re W n
[ 1 0 0 1 0 -0.238586 ] concat
  q
0.266667 g
2.407417 w
2 J
0 j
[] 0.0 d
10 M q 1 0 0 -1 0 1003 cm
220.906 658.934 m 220.906 661.605 218.742 663.75 216.094 663.75 c 213.422
 663.75 211.277 661.605 211.277 658.934 c 211.277 656.285 213.422 654.121
 216.094 654.121 c 218.742 654.121 220.906 656.285 220.906 658.934 c h
220.906 658.934 m S Q
  Q
Q
q
0 1002.761 691 -1003 re W n
[ 1 0 0 1 0 -0.238586 ] concat
  q
0.266667 g
2.407417 w
2 J
0 j
[] 0.0 d
10 M q 1 0 0 -1 0 1003 cm
220.906 587.965 m 220.906 590.637 218.742 592.777 216.094 592.777 c 213.422
 592.777 211.277 590.637 211.277 587.965 c 211.277 585.316 213.422 583.148
 216.094 583.148 c 218.742 583.148 220.906 585.316 220.906 587.965 c h
220.906 587.965 m S Q
  Q
Q
q
0 1002.761 691 -1003 re W n
[ 1 0 0 1 0 -0.238586 ] concat
  q
0.266667 g
2.407417 w
2 J
0 j
[] 0.0 d
10 M q 1 0 0 -1 0 1003 cm
118.711 542.559 m 118.711 545.207 116.547 547.375 113.898 547.375 c 111.227
 547.375 109.082 545.207 109.082 542.559 c 109.082 539.887 111.227 537.746
 113.898 537.746 c 116.547 537.746 118.711 539.887 118.711 542.559 c h
118.711 542.559 m S Q
  Q
Q
q
0 1002.761 691 -1003 re W n
[ 1 0 0 1 0 -0.238586 ] concat
  q
0.266667 g
2.407417 w
2 J
0 j
[] 0.0 d
10 M q 1 0 0 -1 0 1003 cm
436.637 431.844 m 436.637 434.492 434.492 436.656 431.82 436.656 c 429.172
 436.656 427.008 434.492 427.008 431.844 c 427.008 429.172 429.172 427.027
 431.82 427.027 c 434.492 427.027 436.637 429.172 436.637 431.844 c h
436.637 431.844 m S Q
  Q
Q
q
0 1002.761 691 -1003 re W n
[ 1 0 0 1 0 -0.238586 ] concat
  q
0.266667 g
2.407417 w
2 J
0 j
[] 0.0 d
10 M q 1 0 0 -1 0 1003 cm
448 335.328 m 448 337.977 445.855 340.145 443.184 340.145 c 440.535 340.145
 438.367 337.977 438.367 335.328 c 438.367 332.656 440.535 330.516 443.184
 330.516 c 445.855 330.516 448 332.656 448 335.328 c h
448 335.328 m S Q
  Q
Q
q
0 1002.761 691 -1003 re W n
[ 1 0 0 1 0 -0.238586 ] concat
  q
0.266667 g
2.407417 w
2 J
0 j
[] 0.0 d
10 M q 1 0 0 -1 0 1003 cm
507.605 386.414 m 507.605 389.086 505.465 391.23 502.793 391.23 c 500.145
 391.23 497.977 389.086 497.977 386.414 c 497.977 383.766 500.145 381.602
 502.793 381.602 c 505.465 381.602 507.605 383.766 507.605 386.414 c h
507.605 386.414 m S Q
  Q
Q
q
0 1002.761 691 -1003 re W n
[ 1 0 0 1 0 -0.238586 ] concat
  q
0.266667 g
2.407417 w
2 J
0 j
[] 0.0 d
10 M q 1 0 0 -1 0 1003 cm
538.855 340.988 m 538.855 343.66 536.688 345.801 534.039 345.801 c 531.367
 345.801 529.227 343.66 529.227 340.988 c 529.227 338.34 531.367 336.172
 534.039 336.172 c 536.688 336.172 538.855 338.34 538.855 340.988 c h
538.855 340.988 m S Q
  Q
Q
q
0 1002.761 691 -1003 re W n
[ 1 0 0 1 0 -0.238586 ] concat
  q
0.266667 g
2.407417 w
2 J
0 j
[] 0.0 d
10 M q 1 0 0 -1 0 1003 cm
609.801 340.988 m 609.801 343.66 607.66 345.801 604.988 345.801 c 602.34
 345.801 600.172 343.66 600.172 340.988 c 600.172 338.34 602.34 336.172 
604.988 336.172 c 607.66 336.172 609.801 338.34 609.801 340.988 c h
609.801 340.988 m S Q
  Q
Q
q
0 1002.761 691 -1003 re W n
[ 1 0 0 1 0 -0.238586 ] concat
  q
0.266667 g
2.407417 w
2 J
0 j
[] 0.0 d
10 M q 1 0 0 -1 0 1003 cm
538.855 193.387 m 538.855 196.035 536.688 198.203 534.039 198.203 c 531.367
 198.203 529.227 196.035 529.227 193.387 c 529.227 190.715 531.367 188.574
 534.039 188.574 c 536.688 188.574 538.855 190.715 538.855 193.387 c h
538.855 193.387 m S Q
  Q
Q
q
0 1002.761 691 -1003 re W n
[ 1 0 0 1 0 -0.238586 ] concat
  q
0.266667 g
2.407417 w
2 J
0 j
[] 0.0 d
10 M q 1 0 0 -1 0 1003 cm
473.543 258.676 m 473.543 261.324 471.398 263.492 468.727 263.492 c 466.078
 263.492 463.91 261.324 463.91 258.676 c 463.91 256.004 466.078 253.863 
468.727 253.863 c 471.398 253.863 473.543 256.004 473.543 258.676 c h
473.543 258.676 m S Q
  Q
Q
q
0 1002.761 691 -1003 re W n
[ 1 0 0 1 0 -0.238586 ] concat
  q
0.266667 g
2.407417 w
2 J
0 j
[] 0.0 d
10 M q 1 0 0 -1 0 1003 cm
558.715 244.473 m 558.715 247.145 556.551 249.289 553.902 249.289 c 551.23
 249.289 549.086 247.145 549.086 244.473 c 549.086 241.824 551.23 239.66
 553.902 239.66 c 556.551 239.66 558.715 241.824 558.715 244.473 c h
558.715 244.473 m S Q
  Q
Q
q
0 1002.761 691 -1003 re W n
[ 1 0 0 1 0 -0.238586 ] concat
  q
0.266667 g
2.407417 w
2 J
0 j
[] 0.0 d
10 M q 1 0 0 -1 0 1003 cm
416.773 173.504 m 416.773 176.176 414.633 178.316 411.961 178.316 c 409.313
 178.316 407.145 176.176 407.145 173.504 c 407.145 170.855 409.313 168.688
 411.961 168.688 c 414.633 168.688 416.773 170.855 416.773 173.504 c h
416.773 173.504 m S Q
  Q
Q
q
0 1002.761 691 -1003 re W n
[ 1 0 0 1 0 -0.238586 ] concat
  q
0.266667 g
2.407417 w
2 J
0 j
[] 0.0 d
10 M q 1 0 0 -1 0 1003 cm
402.57 278.539 m 402.57 281.211 400.43 283.352 397.758 283.352 c 395.109
 283.352 392.941 281.211 392.941 278.539 c 392.941 275.891 395.109 273.723
 397.758 273.723 c 400.43 273.723 402.57 275.891 402.57 278.539 c h
402.57 278.539 m S Q
  Q
Q
q
0 1002.761 691 -1003 re W n
[ 1 0 0 1 0 -0.238586 ] concat
  q
0.266667 g
2.407417 w
2 J
0 j
[] 0.0 d
10 M q 1 0 0 -1 0 1003 cm
342.965 340.988 m 342.965 343.66 340.82 345.801 338.148 345.801 c 335.5
 345.801 333.332 343.66 333.332 340.988 c 333.332 338.34 335.5 336.172 338.148
 336.172 c 340.82 336.172 342.965 338.34 342.965 340.988 c h
342.965 340.988 m S Q
  Q
Q
q
0 1002.761 691 -1003 re W n
[ 1 0 0 1 0 -0.238586 ] concat
  q
0.266667 g
2.407417 w
2 J
0 j
[] 0.0 d
10 M q 1 0 0 -1 0 1003 cm
479.223 179.184 m 479.223 181.855 477.082 184 474.406 184 c 471.762 184
 469.594 181.855 469.594 179.184 c 469.594 176.535 471.762 174.371 474.406
 174.371 c 477.082 174.371 479.223 176.535 479.223 179.184 c h
479.223 179.184 m S Q
  Q
Q
q
0 1002.761 691 -1003 re W n
[ 1 0 0 1 0 -0.238586 ] concat
  q
0.266667 g
2.407417 w
2 J
0 j
[] 0.0 d
10 M q 1 0 0 -1 0 1003 cm
320.262 204.727 m 320.262 207.398 318.094 209.543 315.445 209.543 c 312.773
 209.543 310.633 207.398 310.633 204.727 c 310.633 202.078 312.773 199.91
 315.445 199.91 c 318.094 199.91 320.262 202.078 320.262 204.727 c h
320.262 204.727 m S Q
  Q
Q
q
0 1002.761 691 -1003 re W n
[ 1 0 0 1 0 -0.238586 ] concat
  q
0.266667 g
2.407417 w
2 J
0 j
[] 0.0 d
10 M q 1 0 0 -1 0 1003 cm
317.422 255.836 m 317.422 258.484 315.254 260.652 312.605 260.652 c 309.957
 260.652 307.789 258.484 307.789 255.836 c 307.789 253.164 309.957 251.02
 312.605 251.02 c 315.254 251.02 317.422 253.164 317.422 255.836 c h
317.422 255.836 m S Q
  Q
Q
q
0 1002.761 691 -1003 re W n
[ 1 0 0 1 0 -0.238586 ] concat
  q
0.266667 g
2.407417 w
2 J
0 j
[] 0.0 d
10 M q 1 0 0 -1 0 1003 cm
428.137 71.309 m 428.137 73.98 425.973 76.121 423.324 76.121 c 420.652 
76.121 418.508 73.98 418.508 71.309 c 418.508 68.66 420.652 66.492 423.324
 66.492 c 425.973 66.492 428.137 68.66 428.137 71.309 c h
428.137 71.309 m S Q
  Q
Q
q
0 1002.761 691 -1003 re W n
[ 1 0 0 1 0 -0.238586 ] concat
  q
0.266667 g
2.407417 w
2 J
0 j
[] 0.0 d
10 M q 1 0 0 -1 0 1003 cm
345.805 128.098 m 345.805 130.746 343.66 132.914 340.988 132.914 c 338.34
 132.914 336.176 130.746 336.176 128.098 c 336.176 125.426 338.34 123.285
 340.988 123.285 c 343.66 123.285 345.805 125.426 345.805 128.098 c h
345.805 128.098 m S Q
  Q
Q
q
0 1002.761 691 -1003 re W n
[ 1 0 0 1 0 -0.238586 ] concat
  q
0.266667 g
2.407417 w
2 J
0 j
[] 0.0 d
10 M q 1 0 0 -1 0 1003 cm
482.063 122.418 m 482.063 125.066 479.922 127.23 477.25 127.23 c 474.602
 127.23 472.434 125.066 472.434 122.418 c 472.434 119.746 474.602 117.602
 477.25 117.602 c 479.922 117.602 482.063 119.746 482.063 122.418 c h
482.063 122.418 m S Q
  Q
Q
q
0 1002.761 691 -1003 re W n
[ 1 0 0 1 0 -0.238586 ] concat
  q
0.266667 g
2.407417 w
2 J
0 j
[] 0.0 d
10 M q 1 0 0 -1 0 1003 cm
550.195 128.098 m 550.195 130.746 548.051 132.914 545.379 132.914 c 542.73
 132.914 540.563 130.746 540.563 128.098 c 540.563 125.426 542.73 123.285
 545.379 123.285 c 548.051 123.285 550.195 125.426 550.195 128.098 c h
550.195 128.098 m S Q
  Q
Q
q
0 1002.761 691 -1003 re W n
[ 1 0 0 1 0 -0.238586 ] concat
  q
0.266667 g
2.407417 w
2 J
0 j
[] 0.0 d
10 M q 1 0 0 -1 0 1003 cm
371.348 392.098 m 371.348 394.746 369.203 396.91 366.531 396.91 c 363.883
 396.91 361.719 394.746 361.719 392.098 c 361.719 389.449 363.883 387.281
 366.531 387.281 c 369.203 387.281 371.348 389.449 371.348 392.098 c h
371.348 392.098 m S Q
  Q
Q
q
0 1002.761 691 -1003 re W n
[ 1 0 0 1 0 -0.238586 ] concat
  q
0.266667 g
2.407417 w
2 J
0 j
[] 0.0 d
10 M q 1 0 0 -1 0 1003 cm
550.195 51.445 m 550.195 54.094 548.051 56.262 545.379 56.262 c 542.73 
56.262 540.563 54.094 540.563 51.445 c 540.563 48.773 542.73 46.633 545.379
 46.633 c 548.051 46.633 550.195 48.773 550.195 51.445 c h
550.195 51.445 m S Q
  Q
Q
q
0 1002.761 691 -1003 re W n
[ 1 0 0 1 0 -0.238586 ] concat
  q
0.266667 g
2.407417 w
2 J
0 j
[] 0.0 d
10 M q 1 0 0 -1 0 1003 cm
487.746 6.02 m 487.746 8.691 485.578 10.832 482.93 10.832 c 480.281 10.832
 478.117 8.691 478.117 6.02 c 478.117 3.371 480.281 1.203 482.93 1.203 c
 485.578 1.203 487.746 3.371 487.746 6.02 c h
487.746 6.02 m S Q
  Q
Q
q
0 1002.761 691 -1003 re W n
[ 1 0 0 1 0 -0.238586 ] concat
  q
0.266667 g
2.407417 w
2 J
0 j
[] 0.0 d
10 M q 1 0 0 -1 0 1003 cm
641.051 400.617 m 641.051 403.266 638.883 405.434 636.234 405.434 c 633.563
 405.434 631.418 403.266 631.418 400.617 c 631.418 397.945 633.563 395.805
 636.234 395.805 c 638.883 395.805 641.051 397.945 641.051 400.617 c h
641.051 400.617 m S Q
  Q
Q
q
0 1002.761 691 -1003 re W n
[ 1 0 0 1 0 -0.238586 ] concat
  q
0.266667 g
2.407417 w
2 J
0 j
[] 0.0 d
10 M q 1 0 0 -1 0 1003 cm
36.379 423.32 m 36.379 425.992 34.227 428.137 31.566 428.137 c 28.91 428.137
 26.75 425.992 26.75 423.32 c 26.75 420.672 28.91 418.504 31.566 418.504
 c 34.227 418.504 36.379 420.672 36.379 423.32 c h
36.379 423.32 m S Q
  Q
Q
q
0 1002.761 691 -1003 re W n
[ 1 0 0 1 0 -0.238586 ] concat
  q
0.266667 g
2.407417 w
2 J
0 j
[] 0.0 d
10 M q 1 0 0 -1 0 1003 cm
84.648 494.289 m 84.648 496.938 82.48 499.105 79.832 499.105 c 77.16 499.105
 75.016 496.938 75.016 494.289 c 75.016 491.645 77.16 489.477 79.832 489.477
 c 82.48 489.477 84.648 491.645 84.648 494.289 c h
84.648 494.289 m S Q
  Q
Q
q
0 1002.761 691 -1003 re W n
[ 1 0 0 1 0 -0.238586 ] concat
  q
0.266667 g
2.407417 w
2 J
0 j
[] 0.0 d
10 M q 1 0 0 -1 0 1003 cm
118.711 542.559 m 118.711 545.207 116.547 547.375 113.898 547.375 c 111.227
 547.375 109.082 545.207 109.082 542.559 c 109.082 539.887 111.227 537.746
 113.898 537.746 c 116.547 537.746 118.711 539.887 118.711 542.559 c h
118.711 542.559 m S Q
  Q
Q
q
0 1002.761 691 -1003 re W n
[ 1 0 0 1 0 -0.238586 ] concat
  q
0.266667 g
2.407417 w
2 J
0 j
[] 0.0 d
10 M q 1 0 0 -1 0 1003 cm
220.906 587.965 m 220.906 590.637 218.742 592.777 216.094 592.777 c 213.422
 592.777 211.277 590.637 211.277 587.965 c 211.277 585.316 213.422 583.148
 216.094 583.148 c 218.742 583.148 220.906 585.316 220.906 587.965 c h
220.906 587.965 m S Q
  Q
Q
q
0 1002.761 691 -1003 re W n
[ 1 0 0 1 0 -0.238586 ] concat
  q
0.266667 g
2.407417 w
2 J
0 j
[] 0.0 d
10 M q 1 0 0 -1 0 1003 cm
291.879 607.848 m 291.879 610.496 289.711 612.664 287.063 612.664 c 284.391
 612.664 282.246 610.496 282.246 607.848 c 282.246 605.176 284.391 603.035
 287.063 603.035 c 289.711 603.035 291.879 605.176 291.879 607.848 c h
291.879 607.848 m S Q
  Q
Q
q
0 1002.761 691 -1003 re W n
[ 1 0 0 1 0 -0.238586 ] concat
  q
0.266667 g
2.407417 w
2 J
0 j
[] 0.0 d
10 M q 1 0 0 -1 0 1003 cm
345.805 576.625 m 345.805 579.273 343.66 581.438 340.988 581.438 c 338.34
 581.438 336.176 579.273 336.176 576.625 c 336.176 573.953 338.34 571.809
 340.988 571.809 c 343.66 571.809 345.805 573.953 345.805 576.625 c h
345.805 576.625 m S Q
  Q
Q
q
0 1002.761 691 -1003 re W n
[ 1 0 0 1 0 -0.238586 ] concat
  q
0.266667 g
2.407417 w
2 J
0 j
[] 0.0 d
10 M q 1 0 0 -1 0 1003 cm
416.773 548.219 m 416.773 550.891 414.633 553.031 411.961 553.031 c 409.313
 553.031 407.145 550.891 407.145 548.219 c 407.145 545.57 409.313 543.402
 411.961 543.402 c 414.633 543.402 416.773 545.57 416.773 548.219 c h
416.773 548.219 m S Q
  Q
Q
q
0 1002.761 691 -1003 re W n
[ 1 0 0 1 0 -0.238586 ] concat
  q
0.266667 g
2.407417 w
2 J
0 j
[] 0.0 d
10 M q 1 0 0 -1 0 1003 cm
487.746 497.133 m 487.746 499.781 485.578 501.945 482.93 501.945 c 480.281
 501.945 478.117 499.781 478.117 497.133 c 478.117 494.461 480.281 492.316
 482.93 492.316 c 485.578 492.316 487.746 494.461 487.746 497.133 c h
487.746 497.133 m S Q
  Q
Q
q
0 1002.761 691 -1003 re W n
[ 1 0 0 1 0 -0.238586 ] concat
  q
0.266667 g
2.407417 w
2 J
0 j
[] 0.0 d
10 M q 1 0 0 -1 0 1003 cm
436.637 431.844 m 436.637 434.492 434.492 436.656 431.82 436.656 c 429.172
 436.656 427.008 434.492 427.008 431.844 c 427.008 429.172 429.172 427.027
 431.82 427.027 c 434.492 427.027 436.637 429.172 436.637 431.844 c h
436.637 431.844 m S Q
  Q
Q
q
0 1002.761 691 -1003 re W n
[ 1 0 0 1 0 -0.238586 ] concat
  q
0.266667 g
2.407417 w
2 J
0 j
[] 0.0 d
10 M q 1 0 0 -1 0 1003 cm
371.348 392.098 m 371.348 394.746 369.203 396.91 366.531 396.91 c 363.883
 396.91 361.719 394.746 361.719 392.098 c 361.719 389.449 363.883 387.281
 366.531 387.281 c 369.203 387.281 371.348 389.449 371.348 392.098 c h
371.348 392.098 m S Q
  Q
Q
q
0 1002.761 691 -1003 re W n
[ 1 0 0 1 0 -0.238586 ] concat
  q
0.266667 g
2.407417 w
2 J
0 j
[] 0.0 d
10 M q 1 0 0 -1 0 1003 cm
342.965 340.988 m 342.965 343.66 340.82 345.801 338.148 345.801 c 335.5
 345.801 333.332 343.66 333.332 340.988 c 333.332 338.34 335.5 336.172 338.148
 336.172 c 340.82 336.172 342.965 338.34 342.965 340.988 c h
342.965 340.988 m S Q
  Q
Q
q
0 1002.761 691 -1003 re W n
[ 1 0 0 1 0 -0.238586 ] concat
  q
0.266667 g
2.407417 w
2 J
0 j
[] 0.0 d
10 M q 1 0 0 -1 0 1003 cm
317.422 255.836 m 317.422 258.484 315.254 260.652 312.605 260.652 c 309.957
 260.652 307.789 258.484 307.789 255.836 c 307.789 253.164 309.957 251.02
 312.605 251.02 c 315.254 251.02 317.422 253.164 317.422 255.836 c h
317.422 255.836 m S Q
  Q
Q
q
0 1002.761 691 -1003 re W n
[ 1 0 0 1 0 -0.238586 ] concat
  q
0.266667 g
2.407417 w
2 J
0 j
[] 0.0 d
10 M q 1 0 0 -1 0 1003 cm
320.262 204.727 m 320.262 207.398 318.094 209.543 315.445 209.543 c 312.773
 209.543 310.633 207.398 310.633 204.727 c 310.633 202.078 312.773 199.91
 315.445 199.91 c 318.094 199.91 320.262 202.078 320.262 204.727 c h
320.262 204.727 m S Q
  Q
Q
q
0 1002.761 691 -1003 re W n
[ 1 0 0 1 0 -0.238586 ] concat
  q
0.266667 g
2.407417 w
2 J
0 j
[] 0.0 d
10 M q 1 0 0 -1 0 1003 cm
345.805 128.098 m 345.805 130.746 343.66 132.914 340.988 132.914 c 338.34
 132.914 336.176 130.746 336.176 128.098 c 336.176 125.426 338.34 123.285
 340.988 123.285 c 343.66 123.285 345.805 125.426 345.805 128.098 c h
345.805 128.098 m S Q
  Q
Q
q
0 1002.761 691 -1003 re W n
[ 1 0 0 1 0 -0.238586 ] concat
  q
0.266667 g
2.407417 w
2 J
0 j
[] 0.0 d
10 M q 1 0 0 -1 0 1003 cm
428.137 71.309 m 428.137 73.98 425.973 76.121 423.324 76.121 c 420.652 
76.121 418.508 73.98 418.508 71.309 c 418.508 68.66 420.652 66.492 423.324
 66.492 c 425.973 66.492 428.137 68.66 428.137 71.309 c h
428.137 71.309 m S Q
  Q
Q
q
0 1002.761 691 -1003 re W n
[ 1 0 0 1 0 -0.238586 ] concat
  q
0.266667 g
2.407417 w
2 J
0 j
[] 0.0 d
10 M q 1 0 0 -1 0 1003 cm
487.746 6.02 m 487.746 8.691 485.578 10.832 482.93 10.832 c 480.281 10.832
 478.117 8.691 478.117 6.02 c 478.117 3.371 480.281 1.203 482.93 1.203 c
 485.578 1.203 487.746 3.371 487.746 6.02 c h
487.746 6.02 m S Q
  Q
Q
q
0 1002.761 691 -1003 re W n
[ 1 0 0 1 0 -0.238586 ] concat
  q
0.266667 g
2.407417 w
2 J
0 j
[] 0.0 d
10 M q 1 0 0 -1 0 1003 cm
550.195 51.445 m 550.195 54.094 548.051 56.262 545.379 56.262 c 542.73 
56.262 540.563 54.094 540.563 51.445 c 540.563 48.773 542.73 46.633 545.379
 46.633 c 548.051 46.633 550.195 48.773 550.195 51.445 c h
550.195 51.445 m S Q
  Q
Q
q
0 1002.761 691 -1003 re W n
[ 1 0 0 1 0 -0.238586 ] concat
  q
0.266667 g
2.407417 w
2 J
0 j
[] 0.0 d
10 M q 1 0 0 -1 0 1003 cm
550.195 128.098 m 550.195 130.746 548.051 132.914 545.379 132.914 c 542.73
 132.914 540.563 130.746 540.563 128.098 c 540.563 125.426 542.73 123.285
 545.379 123.285 c 548.051 123.285 550.195 125.426 550.195 128.098 c h
550.195 128.098 m S Q
  Q
Q
q
0 1002.761 691 -1003 re W n
[ 1 0 0 1 0 -0.238586 ] concat
  q
0.266667 g
2.407417 w
2 J
0 j
[] 0.0 d
10 M q 1 0 0 -1 0 1003 cm
538.855 193.387 m 538.855 196.035 536.688 198.203 534.039 198.203 c 531.367
 198.203 529.227 196.035 529.227 193.387 c 529.227 190.715 531.367 188.574
 534.039 188.574 c 536.688 188.574 538.855 190.715 538.855 193.387 c h
538.855 193.387 m S Q
  Q
Q
q
0 1002.761 691 -1003 re W n
[ 1 0 0 1 0 -0.238586 ] concat
  q
0.266667 g
2.407417 w
2 J
0 j
[] 0.0 d
10 M q 1 0 0 -1 0 1003 cm
558.715 244.473 m 558.715 247.145 556.551 249.289 553.902 249.289 c 551.23
 249.289 549.086 247.145 549.086 244.473 c 549.086 241.824 551.23 239.66
 553.902 239.66 c 556.551 239.66 558.715 241.824 558.715 244.473 c h
558.715 244.473 m S Q
  Q
Q
q
0 1002.761 691 -1003 re W n
[ 1 0 0 1 0 -0.238586 ] concat
  q
0.266667 g
2.407417 w
2 J
0 j
[] 0.0 d
10 M q 1 0 0 -1 0 1003 cm
609.801 340.988 m 609.801 343.66 607.66 345.801 604.988 345.801 c 602.34
 345.801 600.172 343.66 600.172 340.988 c 600.172 338.34 602.34 336.172 
604.988 336.172 c 607.66 336.172 609.801 338.34 609.801 340.988 c h
609.801 340.988 m S Q
  Q
Q
q
0 1002.761 691 -1003 re W n
[ 1 0 0 1 0 -0.238586 ] concat
  q
0.266667 g
2.407417 w
2 J
0 j
[] 0.0 d
10 M q 1 0 0 -1 0 1003 cm
641.051 400.617 m 641.051 403.266 638.883 405.434 636.234 405.434 c 633.563
 405.434 631.418 403.266 631.418 400.617 c 631.418 397.945 633.563 395.805
 636.234 395.805 c 638.883 395.805 641.051 397.945 641.051 400.617 c h
641.051 400.617 m S Q
  Q
Q
q
0 1002.761 691 -1003 re W n
[ 1 0 0 1 0 -0.238586 ] concat
  q
0.266667 g
2.407417 w
2 J
0 j
[] 0.0 d
10 M q 1 0 0 -1 0 1003 cm
663.75 457.387 m 663.75 460.059 661.586 462.199 658.938 462.199 c 656.266
 462.199 654.121 460.059 654.121 457.387 c 654.121 454.738 656.266 452.57
 658.938 452.57 c 661.586 452.57 663.75 454.738 663.75 457.387 c h
663.75 457.387 m S Q
  Q
Q
q
0 1002.761 691 -1003 re W n
[ 1 0 0 1 0 -0.238586 ] concat
  q
0.266667 g
2.407417 w
2 J
0 j
[] 0.0 d
10 M q 1 0 0 -1 0 1003 cm
689.293 531.195 m 689.293 533.844 687.152 536.012 684.48 536.012 c 681.832
 536.012 679.664 533.844 679.664 531.195 c 679.664 528.523 681.832 526.383
 684.48 526.383 c 687.152 526.383 689.293 528.523 689.293 531.195 c h
689.293 531.195 m S Q
  Q
Q
q
0 1002.761 691 -1003 re W n
[ 1 0 0 1 0 -0.238586 ] concat
  q
0.266667 g
2.407417 w
2 J
0 j
[] 0.0 d
10 M q 1 0 0 -1 0 1003 cm
663.75 599.328 m 663.75 601.977 661.586 604.141 658.938 604.141 c 656.266
 604.141 654.121 601.977 654.121 599.328 c 654.121 596.656 656.266 594.512
 658.938 594.512 c 661.586 594.512 663.75 596.656 663.75 599.328 c h
663.75 599.328 m S Q
  Q
Q
q
0 1002.761 691 -1003 re W n
[ 1 0 0 1 0 -0.238586 ] concat
  q
0.266667 g
2.407417 w
2 J
0 j
[] 0.0 d
10 M q 1 0 0 -1 0 1003 cm
669.434 673.137 m 669.434 675.785 667.266 677.953 664.617 677.953 c 661.945
 677.953 659.805 675.785 659.805 673.137 c 659.805 670.465 661.945 668.324
 664.617 668.324 c 667.266 668.324 669.434 670.465 669.434 673.137 c h
669.434 673.137 m S Q
  Q
Q
q
0 1002.761 691 -1003 re W n
[ 1 0 0 1 0 -0.238586 ] concat
  q
0.266667 g
2.407417 w
2 J
0 j
[] 0.0 d
10 M q 1 0 0 -1 0 1003 cm
604.145 729.906 m 604.145 732.578 601.977 734.719 599.328 734.719 c 596.656
 734.719 594.516 732.578 594.516 729.906 c 594.516 727.258 596.656 725.09
 599.328 725.09 c 601.977 725.09 604.145 727.258 604.145 729.906 c h
604.145 729.906 m S Q
  Q
Q
q
0 1002.761 691 -1003 re W n
[ 1 0 0 1 0 -0.238586 ] concat
  q
0.266667 g
2.407417 w
2 J
0 j
[] 0.0 d
10 M q 1 0 0 -1 0 1003 cm
507.605 749.789 m 507.605 752.438 505.465 754.605 502.793 754.605 c 500.145
 754.605 497.977 752.438 497.977 749.789 c 497.977 747.117 500.145 744.977
 502.793 744.977 c 505.465 744.977 507.605 747.117 507.605 749.789 c h
507.605 749.789 m S Q
  Q
Q
q
0 1002.761 691 -1003 re W n
[ 1 0 0 1 0 -0.238586 ] concat
  q
0.266667 g
2.407417 w
2 J
0 j
[] 0.0 d
10 M q 1 0 0 -1 0 1003 cm
442.316 809.398 m 442.316 812.047 440.176 814.211 437.504 814.211 c 434.855
 814.211 432.688 812.047 432.688 809.398 c 432.688 806.727 434.855 804.582
 437.504 804.582 c 440.176 804.582 442.316 806.727 442.316 809.398 c h
442.316 809.398 m S Q
  Q
Q
q
0 1002.761 691 -1003 re W n
[ 1 0 0 1 0 -0.238586 ] concat
  q
0.266667 g
2.407417 w
2 J
0 j
[] 0.0 d
10 M q 1 0 0 -1 0 1003 cm
388.391 860.484 m 388.391 863.156 386.223 865.297 383.578 865.297 c 380.902
 865.297 378.762 863.156 378.762 860.484 c 378.762 857.836 380.902 855.668
 383.578 855.668 c 386.223 855.668 388.391 857.836 388.391 860.484 c h
388.391 860.484 m S Q
  Q
Q
q
0 1002.761 691 -1003 re W n
[ 1 0 0 1 0 -0.238586 ] concat
  q
0.266667 g
2.407417 w
2 J
0 j
[] 0.0 d
10 M q 1 0 0 -1 0 1003 cm
391.23 948.5 m 391.23 951.148 389.066 953.313 386.418 953.313 c 383.746
 953.313 381.602 951.148 381.602 948.5 c 381.602 945.824 383.746 943.684
 386.418 943.684 c 389.066 943.684 391.23 945.824 391.23 948.5 c h
391.23 948.5 m S Q
  Q
Q
q
0 1002.761 691 -1003 re W n
[ 1 0 0 1 0 -0.238586 ] concat
  q
1 0 0 rg
330.082 263.152 m 330.082 257.832 325.773 253.523 320.453 253.523 c 315.133
 253.523 310.824 257.832 310.824 263.152 c 310.824 268.473 315.133 272.781
 320.453 272.781 c 325.773 272.781 330.082 268.473 330.082 263.152 c h
330.082 263.152 m f
  Q
Q
q
0 1002.761 691 -1003 re W n
[ 1 0 0 1 0 -0.238586 ] concat
  q
0 g
2.407417 w
1 J
1 j
[] 0.0 d
10 M q 1 0 0 -1 0 1003 cm
330.082 739.848 m 330.082 745.168 325.773 749.477 320.453 749.477 c 315.133
 749.477 310.824 745.168 310.824 739.848 c 310.824 734.527 315.133 730.219
 320.453 730.219 c 325.773 730.219 330.082 734.527 330.082 739.848 c h
330.082 739.848 m S Q
  Q
Q
q
0 1002.761 691 -1003 re W n
[ 1 0 0 1 0 -0.238586 ] concat
  q
0 0.392157 0 rg
2.407417 w
2 J
0 j
[] 0.0 d
10 M q 1 0 0 -1 0 1003 cm
84.648 993.902 m 84.648 996.574 82.48 998.719 79.832 998.719 c 77.16 998.719
 75.016 996.574 75.016 993.902 c 75.016 991.254 77.16 989.086 79.832 989.086
 c 82.48 989.086 84.648 991.254 84.648 993.902 c h
84.648 993.902 m S Q
  Q
Q
q
0 1002.761 691 -1003 re W n
[ 1 0 0 1 0 -0.238586 ] concat
  q
0 0.392157 0 rg
2.407417 w
2 J
0 j
[] 0.0 d
10 M q 1 0 0 -1 0 1003 cm
161.273 937.137 m 161.273 939.809 159.133 941.949 156.461 941.949 c 153.813
 941.949 151.645 939.809 151.645 937.137 c 151.645 934.488 153.813 932.32
 156.461 932.32 c 159.133 932.32 161.273 934.488 161.273 937.137 c h
161.273 937.137 m S Q
  Q
Q
q
0 1002.761 691 -1003 re W n
[ 1 0 0 1 0 -0.238586 ] concat
  q
0 0.392157 0 rg
2.407417 w
2 J
0 j
[] 0.0 d
10 M q 1 0 0 -1 0 1003 cm
223.746 849.145 m 223.746 851.793 221.582 853.961 218.934 853.961 c 216.262
 853.961 214.117 851.793 214.117 849.145 c 214.117 846.473 216.262 844.328
 218.934 844.328 c 221.582 844.328 223.746 846.473 223.746 849.145 c h
223.746 849.145 m S Q
  Q
Q
q
0 1002.761 691 -1003 re W n
[ 1 0 0 1 0 -0.238586 ] concat
  q
0 0.392157 0 rg
2.407417 w
2 J
0 j
[] 0.0 d
10 M q 1 0 0 -1 0 1003 cm
235.086 775.332 m 235.086 777.98 232.945 780.148 230.273 780.148 c 227.625
 780.148 225.457 777.98 225.457 775.332 c 225.457 772.66 227.625 770.52 
230.273 770.52 c 232.945 770.52 235.086 772.66 235.086 775.332 c h
235.086 775.332 m S Q
  Q
Q
q
0 1002.761 691 -1003 re W n
[ 1 0 0 1 0 -0.238586 ] concat
  q
0 0.6 0 rg
307.598 312.84 m 307.598 306.195 302.23 300.805 295.563 300.805 c 288.918
 300.805 283.523 306.195 283.523 312.84 c 283.523 319.484 288.918 324.879
 295.563 324.879 c 302.23 324.879 307.598 319.484 307.598 312.84 c h
307.598 312.84 m f
  Q
Q
q
0 1002.761 691 -1003 re W n
[ 1 0 0 1 0 -0.238586 ] concat
  q
0 g
2.407417 w
1 J
1 j
[] 0.0 d
10 M q 1 0 0 -1 0 1003 cm
307.598 690.16 m 307.598 696.805 302.23 702.195 295.563 702.195 c 288.918
 702.195 283.523 696.805 283.523 690.16 c 283.523 683.516 288.918 678.121
 295.563 678.121 c 302.23 678.121 307.598 683.516 307.598 690.16 c h
307.598 690.16 m S Q
  Q
Q
q
0 1002.761 691 -1003 re W n
[ 1 0 0 1 0 -0.238586 ] concat
  q
0 g
2.407417 w
2 J
0 j
[] 0.0 d
10 M q 1 0 0 -1 0 1003 cm
402.57 658.934 m 402.57 661.605 400.43 663.75 397.758 663.75 c 395.109 
663.75 392.941 661.605 392.941 658.934 c 392.941 656.285 395.109 654.121
 397.758 654.121 c 400.43 654.121 402.57 656.285 402.57 658.934 c h
402.57 658.934 m S Q
  Q
Q
q
0 1002.761 691 -1003 re W n
[ 1 0 0 1 0 -0.238586 ] concat
  q
0 g
2.407417 w
2 J
0 j
[] 0.0 d
10 M q 1 0 0 -1 0 1003 cm
442.316 613.531 m 442.316 616.18 440.176 618.344 437.504 618.344 c 434.855
 618.344 432.688 616.18 432.688 613.531 c 432.688 610.859 434.855 608.715
 437.504 608.715 c 440.176 608.715 442.316 610.859 442.316 613.531 c h
442.316 613.531 m S Q
  Q
Q
q
0 1002.761 691 -1003 re W n
[ 1 0 0 1 0 -0.238586 ] concat
  q
0 g
2.407417 w
2 J
0 j
[] 0.0 d
10 M q 1 0 0 -1 0 1003 cm
524.652 593.645 m 524.652 596.316 522.484 598.461 519.836 598.461 c 517.164
 598.461 515.02 596.316 515.02 593.645 c 515.02 590.996 517.164 588.832 
519.836 588.832 c 522.484 588.832 524.652 590.996 524.652 593.645 c h
524.652 593.645 m S Q
  Q
Q
q
0 1002.761 691 -1003 re W n
[ 1 0 0 1 0 -0.238586 ] concat
  q
0 g
2.407417 w
2 J
0 j
[] 0.0 d
10 M q 1 0 0 -1 0 1003 cm
595.621 511.313 m 595.621 513.984 593.453 516.125 590.809 516.125 c 588.133
 516.125 585.992 513.984 585.992 511.313 c 585.992 508.664 588.133 506.496
 590.809 506.496 c 593.453 506.496 595.621 508.664 595.621 511.313 c h
595.621 511.313 m S Q
  Q
Q
q
0 1002.761 691 -1003 re W n
[ 1 0 0 1 0 -0.238586 ] concat
  q
0 g
2.407417 w
2 J
0 j
[] 0.0 d
10 M q 1 0 0 -1 0 1003 cm
507.605 386.414 m 507.605 389.086 505.465 391.23 502.793 391.23 c 500.145
 391.23 497.977 389.086 497.977 386.414 c 497.977 383.766 500.145 381.602
 502.793 381.602 c 505.465 381.602 507.605 383.766 507.605 386.414 c h
507.605 386.414 m S Q
  Q
Q
q
0 1002.761 691 -1003 re W n
[ 1 0 0 1 0 -0.238586 ] concat
  q
0 g
2.407417 w
2 J
0 j
[] 0.0 d
10 M q 1 0 0 -1 0 1003 cm
518.969 301.266 m 518.969 303.914 516.828 306.078 514.156 306.078 c 511.508
 306.078 509.34 303.914 509.34 301.266 c 509.34 298.594 511.508 296.449 
514.156 296.449 c 516.828 296.449 518.969 298.594 518.969 301.266 c h
518.969 301.266 m S Q
  Q
Q
q
0 1002.761 691 -1003 re W n
[ 1 0 0 1 0 -0.238586 ] concat
  q
0 g
2.407417 w
2 J
0 j
[] 0.0 d
10 M q 1 0 0 -1 0 1003 cm
473.543 258.676 m 473.543 261.324 471.398 263.492 468.727 263.492 c 466.078
 263.492 463.91 261.324 463.91 258.676 c 463.91 256.004 466.078 253.863 
468.727 253.863 c 471.398 253.863 473.543 256.004 473.543 258.676 c h
473.543 258.676 m S Q
  Q
Q
q
0 1002.761 691 -1003 re W n
[ 1 0 0 1 0 -0.238586 ] concat
  q
0 g
2.407417 w
2 J
0 j
[] 0.0 d
10 M q 1 0 0 -1 0 1003 cm
479.223 179.184 m 479.223 181.855 477.082 184 474.406 184 c 471.762 184
 469.594 181.855 469.594 179.184 c 469.594 176.535 471.762 174.371 474.406
 174.371 c 477.082 174.371 479.223 176.535 479.223 179.184 c h
479.223 179.184 m S Q
  Q
Q
q
0 1002.761 691 -1003 re W n
[ 1 0 0 1 0 -0.238586 ] concat
  q
0 g
2.407417 w
2 J
0 j
[] 0.0 d
10 M q 1 0 0 -1 0 1003 cm
482.063 122.418 m 482.063 125.066 479.922 127.23 477.25 127.23 c 474.602
 127.23 472.434 125.066 472.434 122.418 c 472.434 119.746 474.602 117.602
 477.25 117.602 c 479.922 117.602 482.063 119.746 482.063 122.418 c h
482.063 122.418 m S Q
  Q
Q
q
0 1002.761 691 -1003 re W n
[ 1 0 0 1 0 -0.238586 ] concat
  q
0 0 0.8 rg
268.043 240.379 m 268.043 236.383 264.816 233.156 260.82 233.156 c 256.824
 233.156 253.602 236.383 253.602 240.379 c 253.602 244.375 256.824 247.602
 260.82 247.602 c 264.816 247.602 268.043 244.375 268.043 240.379 c h
268.043 240.379 m f
  Q
Q
q
0 1002.761 691 -1003 re W n
[ 1 0 0 1 0 -0.238586 ] concat
  q
0 g
2.407417 w
1 J
1 j
[] 0.0 d
10 M q 1 0 0 -1 0 1003 cm
268.043 762.621 m 268.043 766.617 264.816 769.844 260.82 769.844 c 256.824
 769.844 253.602 766.617 253.602 762.621 c 253.602 758.625 256.824 755.398
 260.82 755.398 c 264.816 755.398 268.043 758.625 268.043 762.621 c h
268.043 762.621 m S Q
  Q
Q
q
0 1002.761 691 -1003 re W n
[ 1 0 0 1 0 -0.238586 ] concat
  q
1 0.498039 0 rg
242.309 227.668 m 242.309 221.023 236.918 215.629 230.273 215.629 c 223.629
 215.629 218.234 221.023 218.234 227.668 c 218.234 234.313 223.629 239.703
 230.273 239.703 c 236.918 239.703 242.309 234.313 242.309 227.668 c h
242.309 227.668 m f
  Q
Q
q
0 1002.761 691 -1003 re W n
[ 1 0 0 1 0 -0.238586 ] concat
  q
0 g
2.407417 w
1 J
1 j
[] 0.0 d
10 M q 1 0 0 -1 0 1003 cm
242.309 775.332 m 242.309 781.977 236.918 787.371 230.273 787.371 c 223.629
 787.371 218.234 781.977 218.234 775.332 c 218.234 768.688 223.629 763.297
 230.273 763.297 c 236.918 763.297 242.309 768.688 242.309 775.332 c h
242.309 775.332 m S Q
  Q
Q
Q Q
showpage
%%Trailer
end restore
%%EOF
