%!PS-Adobe-3.0 EPSF-3.0
%%Creator: cairo 1.14.1 (http://cairographics.org)
%%CreationDate: Thu May 26 02:02:45 2016
%%Pages: 1
%%DocumentData: Clean7Bit
%%LanguageLevel: 2
%%BoundingBox: 0 -1 1105 1080
%%EndComments
%%BeginProlog
save
50 dict begin
/q { gsave } bind def
/Q { grestore } bind def
/cm { 6 array astore concat } bind def
/w { setlinewidth } bind def
/J { setlinecap } bind def
/j { setlinejoin } bind def
/M { setmiterlimit } bind def
/d { setdash } bind def
/m { moveto } bind def
/l { lineto } bind def
/c { curveto } bind def
/h { closepath } bind def
/re { exch dup neg 3 1 roll 5 3 roll moveto 0 rlineto
      0 exch rlineto 0 rlineto closepath } bind def
/S { stroke } bind def
/f { fill } bind def
/f* { eofill } bind def
/n { newpath } bind def
/W { clip } bind def
/W* { eoclip } bind def
/BT { } bind def
/ET { } bind def
/pdfmark where { pop globaldict /?pdfmark /exec load put }
    { globaldict begin /?pdfmark /pop load def /pdfmark
    /cleartomark load def end } ifelse
/BDC { mark 3 1 roll /BDC pdfmark } bind def
/EMC { mark /EMC pdfmark } bind def
/cairo_store_point { /cairo_point_y exch def /cairo_point_x exch def } def
/Tj { show currentpoint cairo_store_point } bind def
/TJ {
  {
    dup
    type /stringtype eq
    { show } { -0.001 mul 0 cairo_font_matrix dtransform rmoveto } ifelse
  } forall
  currentpoint cairo_store_point
} bind def
/cairo_selectfont { cairo_font_matrix aload pop pop pop 0 0 6 array astore
    cairo_font exch selectfont cairo_point_x cairo_point_y moveto } bind def
/Tf { pop /cairo_font exch def /cairo_font_matrix where
      { pop cairo_selectfont } if } bind def
/Td { matrix translate cairo_font_matrix matrix concatmatrix dup
      /cairo_font_matrix exch def dup 4 get exch 5 get cairo_store_point
      /cairo_font where { pop cairo_selectfont } if } bind def
/Tm { 2 copy 8 2 roll 6 array astore /cairo_font_matrix exch def
      cairo_store_point /cairo_font where { pop cairo_selectfont } if } bind def
/g { setgray } bind def
/rg { setrgbcolor } bind def
/d1 { setcachedevice } bind def
%%EndProlog
%%BeginSetup
%%EndSetup
%%Page: 1 1
%%BeginPageSetup
%%PageBoundingBox: 0 -1 1105 1080
%%EndPageSetup
q 0 -1 1105 1081 rectclip q
q
0 1079.43 1105 -1080 re W n
[ 1 0 0 1 0 -0.56958 ] concat
  q
1 0 0 rg
3.618768 w
1 J
1 j
[] 0.0 d
10 M q 1 0 0 -1 0 1080 cm
315.461 1062.035 m 363.711 999.602 l S Q
  Q
Q
q
0 1079.43 1105 -1080 re W n
[ 1 0 0 1 0 -0.56958 ] concat
  q
1 0 0 rg
3.618768 w
1 J
1 j
[] 0.0 d
10 M q 1 0 0 -1 0 1080 cm
363.711 999.602 m 440.355 991.086 l S Q
  Q
Q
q
0 1079.43 1105 -1080 re W n
[ 1 0 0 1 0 -0.56958 ] concat
  q
1 0 0 rg
3.618768 w
1 J
1 j
[] 0.0 d
10 M q 1 0 0 -1 0 1080 cm
440.355 991.086 m 522.695 917.262 l S Q
  Q
Q
q
0 1079.43 1105 -1080 re W n
[ 1 0 0 1 0 -0.56958 ] concat
  q
1 0 0 rg
3.618768 w
1 J
1 j
[] 0.0 d
10 M q 1 0 0 -1 0 1080 cm
522.695 917.262 m 517 860.496 l S Q
  Q
Q
q
0 1079.43 1105 -1080 re W n
[ 1 0 0 1 0 -0.56958 ] concat
  q
1 0 0 rg
3.618768 w
1 J
1 j
[] 0.0 d
10 M q 1 0 0 -1 0 1080 cm
517 860.496 m 426.172 823.582 l S Q
  Q
Q
q
0 1079.43 1105 -1080 re W n
[ 1 0 0 1 0 -0.56958 ] concat
  q
1 0 0 rg
3.618768 w
1 J
1 j
[] 0.0 d
10 M q 1 0 0 -1 0 1080 cm
426.172 823.582 m 335.316 789.52 l S Q
  Q
Q
q
0 1079.43 1105 -1080 re W n
[ 1 0 0 1 0 -0.56958 ] concat
  q
1 0 0 rg
3.618768 w
1 J
1 j
[] 0.0 d
10 M q 1 0 0 -1 0 1080 cm
335.316 789.52 m 253 744.09 l S Q
  Q
Q
q
0 1079.43 1105 -1080 re W n
[ 1 0 0 1 0 -0.56958 ] concat
  q
1 0 0 rg
3.618768 w
1 J
1 j
[] 0.0 d
10 M q 1 0 0 -1 0 1080 cm
253 744.09 m 156.477 712.875 l S Q
  Q
Q
q
0 1079.43 1105 -1080 re W n
[ 1 0 0 1 0 -0.56958 ] concat
  q
1 0 0 rg
3.618768 w
1 J
1 j
[] 0.0 d
10 M q 1 0 0 -1 0 1080 cm
156.477 712.875 m 128.105 656.106 l S Q
  Q
Q
q
0 1079.43 1105 -1080 re W n
[ 1 0 0 1 0 -0.56958 ] concat
  q
1 0 0 rg
3.618768 w
1 J
1 j
[] 0.0 d
10 M q 1 0 0 -1 0 1080 cm
128.105 656.106 m 147.961 587.977 l S Q
  Q
Q
q
0 1079.43 1105 -1080 re W n
[ 1 0 0 1 0 -0.56958 ] concat
  q
1 0 0 rg
3.618768 w
1 J
1 j
[] 0.0 d
10 M q 1 0 0 -1 0 1080 cm
147.961 587.977 m 111.07 531.188 l S Q
  Q
Q
q
0 1079.43 1105 -1080 re W n
[ 1 0 0 1 0 -0.56958 ] concat
  q
1 0 0 rg
3.618768 w
1 J
1 j
[] 0.0 d
10 M q 1 0 0 -1 0 1080 cm
111.07 531.188 m 88.348 428.992 l S Q
  Q
Q
q
0 1079.43 1105 -1080 re W n
[ 1 0 0 1 0 -0.56958 ] concat
  q
1 0 0 rg
3.618768 w
1 J
1 j
[] 0.0 d
10 M q 1 0 0 -1 0 1080 cm
88.348 428.992 m 111.07 369.379 l S Q
  Q
Q
q
0 1079.43 1105 -1080 re W n
[ 1 0 0 1 0 -0.56958 ] concat
  q
1 0 0 rg
3.618768 w
1 J
1 j
[] 0.0 d
10 M q 1 0 0 -1 0 1080 cm
111.07 369.379 m 179.203 289.887 l S Q
  Q
Q
q
0 1079.43 1105 -1080 re W n
[ 1 0 0 1 0 -0.56958 ] concat
  q
1 0 0 rg
3.618768 w
1 J
1 j
[] 0.0 d
10 M q 1 0 0 -1 0 1080 cm
179.203 289.887 m 108.227 233.121 l S Q
  Q
Q
q
0 1079.43 1105 -1080 re W n
[ 1 0 0 1 0 -0.56958 ] concat
  q
1 0 0 rg
3.618768 w
1 J
1 j
[] 0.0 d
10 M q 1 0 0 -1 0 1080 cm
108.227 233.121 m 31.578 173.508 l S Q
  Q
Q
q
0 1079.43 1105 -1080 re W n
[ 1 0 0 1 0 -0.56958 ] concat
  q
1 0 0 rg
3.618768 w
1 J
1 j
[] 0.0 d
10 M q 1 0 0 -1 0 1080 cm
31.578 173.508 m 6.031 128.082 l S Q
  Q
Q
q
0 1079.43 1105 -1080 re W n
[ 1 0 0 1 0 -0.56958 ] concat
  q
1 0 0 rg
3.618768 w
1 J
1 j
[] 0.0 d
10 M q 1 0 0 -1 0 1080 cm
6.031 128.082 m 62.797 57.129 l S Q
  Q
Q
q
0 1079.43 1105 -1080 re W n
[ 1 0 0 1 0 -0.56958 ] concat
  q
1 0 0 rg
3.618768 w
1 J
1 j
[] 0.0 d
10 M q 1 0 0 -1 0 1080 cm
62.797 57.129 m 108.227 11.699 l S Q
  Q
Q
q
0 1079.43 1105 -1080 re W n
[ 1 0 0 1 0 -0.56958 ] concat
  q
1 0 0 rg
3.618768 w
1 J
1 j
[] 0.0 d
10 M q 1 0 0 -1 0 1080 cm
108.227 11.699 m 201.902 11.699 l S Q
  Q
Q
q
0 1079.43 1105 -1080 re W n
[ 1 0 0 1 0 -0.56958 ] concat
  q
1 0 0 rg
3.618768 w
1 J
1 j
[] 0.0 d
10 M q 1 0 0 -1 0 1080 cm
201.902 11.699 m 233.121 111.047 l S Q
  Q
Q
q
0 1079.43 1105 -1080 re W n
[ 1 0 0 1 0 -0.56958 ] concat
  q
1 0 0 rg
3.618768 w
1 J
1 j
[] 0.0 d
10 M q 1 0 0 -1 0 1080 cm
233.121 111.047 m 278.547 150.805 l S Q
  Q
Q
q
0 1079.43 1105 -1080 re W n
[ 1 0 0 1 0 -0.56958 ] concat
  q
1 0 0 rg
3.618768 w
1 J
1 j
[] 0.0 d
10 M q 1 0 0 -1 0 1080 cm
278.547 150.805 m 341.008 196.211 l S Q
  Q
Q
q
0 1079.43 1105 -1080 re W n
[ 1 0 0 1 0 -0.56958 ] concat
  q
1 0 0 rg
3.618768 w
1 J
1 j
[] 0.0 d
10 M q 1 0 0 -1 0 1080 cm
341.008 196.211 m 434.688 142.289 l S Q
  Q
Q
q
0 1079.43 1105 -1080 re W n
[ 1 0 0 1 0 -0.56958 ] concat
  q
1 0 0 rg
3.618768 w
1 J
1 j
[] 0.0 d
10 M q 1 0 0 -1 0 1080 cm
434.688 142.289 m 446.051 65.645 l S Q
  Q
Q
q
0 1079.43 1105 -1080 re W n
[ 1 0 0 1 0 -0.56958 ] concat
  q
1 0 0 rg
3.618768 w
1 J
1 j
[] 0.0 d
10 M q 1 0 0 -1 0 1080 cm
446.051 65.645 m 497.145 6.031 l S Q
  Q
Q
q
0 1079.43 1105 -1080 re W n
[ 1 0 0 1 0 -0.56958 ] concat
  q
1 0 0 rg
3.618768 w
1 J
1 j
[] 0.0 d
10 M q 1 0 0 -1 0 1080 cm
497.145 6.031 m 556.758 45.766 l S Q
  Q
Q
q
0 1079.43 1105 -1080 re W n
[ 1 0 0 1 0 -0.56958 ] concat
  q
1 0 0 rg
3.618768 w
1 J
1 j
[] 0.0 d
10 M q 1 0 0 -1 0 1080 cm
556.758 45.766 m 613.527 6.031 l S Q
  Q
Q
q
0 1079.43 1105 -1080 re W n
[ 1 0 0 1 0 -0.56958 ] concat
  q
1 0 0 rg
3.618768 w
1 J
1 j
[] 0.0 d
10 M q 1 0 0 -1 0 1080 cm
613.527 6.031 m 678.809 65.645 l S Q
  Q
Q
q
0 1079.43 1105 -1080 re W n
[ 1 0 0 1 0 -0.56958 ] concat
  q
1 0 0 rg
3.618768 w
1 J
1 j
[] 0.0 d
10 M q 1 0 0 -1 0 1080 cm
678.809 65.645 m 667.469 147.961 l S Q
  Q
Q
q
0 1079.43 1105 -1080 re W n
[ 1 0 0 1 0 -0.56958 ] concat
  q
1 0 0 rg
3.618768 w
1 J
1 j
[] 0.0 d
10 M q 1 0 0 -1 0 1080 cm
667.469 147.961 m 639.074 213.242 l S Q
  Q
Q
q
0 1079.43 1105 -1080 re W n
[ 1 0 0 1 0 -0.56958 ] concat
  q
1 0 0 rg
3.618768 w
1 J
1 j
[] 0.0 d
10 M q 1 0 0 -1 0 1080 cm
639.074 213.242 m 593.648 304.098 l S Q
  Q
Q
q
0 1079.43 1105 -1080 re W n
[ 1 0 0 1 0 -0.56958 ] concat
  q
1 0 0 rg
3.618768 w
1 J
1 j
[] 0.0 d
10 M q 1 0 0 -1 0 1080 cm
593.648 304.098 m 661.777 349.5 l S Q
  Q
Q
q
0 1079.43 1105 -1080 re W n
[ 1 0 0 1 0 -0.56958 ] concat
  q
1 0 0 rg
3.618768 w
1 J
1 j
[] 0.0 d
10 M q 1 0 0 -1 0 1080 cm
661.777 349.5 m 758.301 343.832 l S Q
  Q
Q
q
0 1079.43 1105 -1080 re W n
[ 1 0 0 1 0 -0.56958 ] concat
  q
1 0 0 rg
3.618768 w
1 J
1 j
[] 0.0 d
10 M q 1 0 0 -1 0 1080 cm
758.301 343.832 m 778.18 267.188 l S Q
  Q
Q
q
0 1079.43 1105 -1080 re W n
[ 1 0 0 1 0 -0.56958 ] concat
  q
1 0 0 rg
3.618768 w
1 J
1 j
[] 0.0 d
10 M q 1 0 0 -1 0 1080 cm
778.18 267.188 m 829.277 193.387 l S Q
  Q
Q
q
0 1079.43 1105 -1080 re W n
[ 1 0 0 1 0 -0.56958 ] concat
  q
1 0 0 rg
3.618768 w
1 J
1 j
[] 0.0 d
10 M q 1 0 0 -1 0 1080 cm
829.277 193.387 m 900.23 213.242 l S Q
  Q
Q
q
0 1079.43 1105 -1080 re W n
[ 1 0 0 1 0 -0.56958 ] concat
  q
1 0 0 rg
3.618768 w
1 J
1 j
[] 0.0 d
10 M q 1 0 0 -1 0 1080 cm
900.23 213.242 m 925.801 267.188 l S Q
  Q
Q
q
0 1079.43 1105 -1080 re W n
[ 1 0 0 1 0 -0.56958 ] concat
  q
1 0 0 rg
3.618768 w
1 J
1 j
[] 0.0 d
10 M q 1 0 0 -1 0 1080 cm
925.801 267.188 m 914.438 338.16 l S Q
  Q
Q
q
0 1079.43 1105 -1080 re W n
[ 1 0 0 1 0 -0.56958 ] concat
  q
1 0 0 rg
3.618768 w
1 J
1 j
[] 0.0 d
10 M q 1 0 0 -1 0 1080 cm
914.438 338.16 m 900.23 400.598 l S Q
  Q
Q
q
0 1079.43 1105 -1080 re W n
[ 1 0 0 1 0 -0.56958 ] concat
  q
1 0 0 rg
3.618768 w
1 J
1 j
[] 0.0 d
10 M q 1 0 0 -1 0 1080 cm
900.23 400.598 m 854.824 440.355 l S Q
  Q
Q
q
0 1079.43 1105 -1080 re W n
[ 1 0 0 1 0 -0.56958 ] concat
  q
1 0 0 rg
3.618768 w
1 J
1 j
[] 0.0 d
10 M q 1 0 0 -1 0 1080 cm
854.824 440.355 m 800.883 536.879 l S Q
  Q
Q
q
0 1079.43 1105 -1080 re W n
[ 1 0 0 1 0 -0.56958 ] concat
  q
1 0 0 rg
3.618768 w
1 J
1 j
[] 0.0 d
10 M q 1 0 0 -1 0 1080 cm
800.883 536.879 m 789.52 627.711 l S Q
  Q
Q
q
0 1079.43 1105 -1080 re W n
[ 1 0 0 1 0 -0.56958 ] concat
  q
1 0 0 rg
3.618768 w
1 J
1 j
[] 0.0 d
10 M q 1 0 0 -1 0 1080 cm
789.52 627.711 m 803.727 704.356 l S Q
  Q
Q
q
0 1079.43 1105 -1080 re W n
[ 1 0 0 1 0 -0.56958 ] concat
  q
1 0 0 rg
3.618768 w
1 J
1 j
[] 0.0 d
10 M q 1 0 0 -1 0 1080 cm
803.727 704.356 m 874.68 718.543 l S Q
  Q
Q
q
0 1079.43 1105 -1080 re W n
[ 1 0 0 1 0 -0.56958 ] concat
  q
1 0 0 rg
3.618768 w
1 J
1 j
[] 0.0 d
10 M q 1 0 0 -1 0 1080 cm
874.68 718.543 m 942.832 701.512 l S Q
  Q
Q
q
0 1079.43 1105 -1080 re W n
[ 1 0 0 1 0 -0.56958 ] concat
  q
1 0 0 rg
3.618768 w
1 J
1 j
[] 0.0 d
10 M q 1 0 0 -1 0 1080 cm
942.832 701.512 m 1002.445 647.59 l S Q
  Q
Q
q
0 1079.43 1105 -1080 re W n
[ 1 0 0 1 0 -0.56958 ] concat
  q
1 0 0 rg
3.618768 w
1 J
1 j
[] 0.0 d
10 M q 1 0 0 -1 0 1080 cm
1002.445 647.59 m 1093.277 641.898 l S Q
  Q
Q
q
0 1079.43 1105 -1080 re W n
[ 1 0 0 1 0 -0.56958 ] concat
  q
0 0.2 0.8 rg
3.618768 w
1 J
1 j
[] 0.0 d
10 M q 1 0 0 -1 0 1080 cm
315.461 1062.035 m 1093.277 641.898 l S Q
  Q
Q
q
0 1079.43 1105 -1080 re W n
[ 1 0 0 1 0 -0.56958 ] concat
  q
0 g
2.412512 w
0 J
1 j
[ 21.71261 19.300098] 0 d
10 M q 1 0 0 -1 0 1080 cm
70.688 121.613 m 122.605 135.559 l S Q
  Q
Q
q
0 1079.43 1105 -1080 re W n
[ 1 0 0 1 0 -0.56958 ] concat
  q
0 g
2.412512 w
0 J
1 j
[ 21.71261 19.300098] 0 d
10 M q 1 0 0 -1 0 1080 cm
122.605 135.559 m 70.688 121.613 l S Q
  Q
Q
q
0 1079.43 1105 -1080 re W n
[ 1 0 0 1 0 -0.56958 ] concat
  q
0 g
2.412512 w
0 J
1 j
[ 21.71261 19.300098] 0 d
10 M q 1 0 0 -1 0 1080 cm
122.605 135.559 m 132.473 133 l S Q
  Q
Q
q
0 1079.43 1105 -1080 re W n
[ 1 0 0 1 0 -0.56958 ] concat
  q
0 g
2.412512 w
0 J
1 j
[ 21.71261 19.300098] 0 d
10 M q 1 0 0 -1 0 1080 cm
132.473 133 m 144.895 93.797 l S Q
  Q
Q
q
0 1079.43 1105 -1080 re W n
[ 1 0 0 1 0 -0.56958 ] concat
  q
0 g
2.412512 w
0 J
1 j
[ 21.71261 19.300098] 0 d
10 M q 1 0 0 -1 0 1080 cm
132.473 133 m 122.605 135.559 l S Q
  Q
Q
q
0 1079.43 1105 -1080 re W n
[ 1 0 0 1 0 -0.56958 ] concat
  q
0 g
2.412512 w
0 J
1 j
[ 21.71261 19.300098] 0 d
10 M q 1 0 0 -1 0 1080 cm
132.473 133 m 195.195 197.176 l S Q
  Q
Q
q
0 1079.43 1105 -1080 re W n
[ 1 0 0 1 0 -0.56958 ] concat
  q
0 g
2.412512 w
0 J
1 j
[ 21.71261 19.300098] 0 d
10 M q 1 0 0 -1 0 1080 cm
144.895 93.797 m 155.078 81.012 l S Q
  Q
Q
q
0 1079.43 1105 -1080 re W n
[ 1 0 0 1 0 -0.56958 ] concat
  q
0 g
2.412512 w
0 J
1 j
[ 21.71261 19.300098] 0 d
10 M q 1 0 0 -1 0 1080 cm
144.895 93.797 m 132.473 133 l S Q
  Q
Q
q
0 1079.43 1105 -1080 re W n
[ 1 0 0 1 0 -0.56958 ] concat
  q
0 g
2.412512 w
0 J
1 j
[ 21.71261 19.300098] 0 d
10 M q 1 0 0 -1 0 1080 cm
155.078 81.012 m 144.895 93.797 l S Q
  Q
Q
q
0 1079.43 1105 -1080 re W n
[ 1 0 0 1 0 -0.56958 ] concat
  q
0 g
2.412512 w
0 J
1 j
[ 21.71261 19.300098] 0 d
10 M q 1 0 0 -1 0 1080 cm
195.195 197.176 m 132.473 133 l S Q
  Q
Q
q
0 1079.43 1105 -1080 re W n
[ 1 0 0 1 0 -0.56958 ] concat
  q
0 g
2.412512 w
0 J
1 j
[ 21.71261 19.300098] 0 d
10 M q 1 0 0 -1 0 1080 cm
195.195 197.176 m 197.32 197.801 l S Q
  Q
Q
q
0 1079.43 1105 -1080 re W n
[ 1 0 0 1 0 -0.56958 ] concat
  q
0 g
2.412512 w
0 J
1 j
[ 21.71261 19.300098] 0 d
10 M q 1 0 0 -1 0 1080 cm
197.32 197.801 m 195.195 197.176 l S Q
  Q
Q
q
0 1079.43 1105 -1080 re W n
[ 1 0 0 1 0 -0.56958 ] concat
  q
0 g
2.412512 w
0 J
1 j
[ 21.71261 19.300098] 0 d
10 M q 1 0 0 -1 0 1080 cm
197.32 197.801 m 259.707 242.359 l S Q
  Q
Q
q
0 1079.43 1105 -1080 re W n
[ 1 0 0 1 0 -0.56958 ] concat
  q
0 g
2.412512 w
0 J
1 j
[ 21.71261 19.300098] 0 d
10 M q 1 0 0 -1 0 1080 cm
219.609 645.828 m 231.746 645.008 l S Q
  Q
Q
q
0 1079.43 1105 -1080 re W n
[ 1 0 0 1 0 -0.56958 ] concat
  q
0 g
2.412512 w
0 J
1 j
[ 21.71261 19.300098] 0 d
10 M q 1 0 0 -1 0 1080 cm
231.746 645.008 m 219.609 645.828 l S Q
  Q
Q
q
0 1079.43 1105 -1080 re W n
[ 1 0 0 1 0 -0.56958 ] concat
  q
0 g
2.412512 w
0 J
1 j
[ 21.71261 19.300098] 0 d
10 M q 1 0 0 -1 0 1080 cm
231.746 645.008 m 417.824 519.824 l S Q
  Q
Q
q
0 1079.43 1105 -1080 re W n
[ 1 0 0 1 0 -0.56958 ] concat
  q
0 g
2.412512 w
0 J
1 j
[ 21.71261 19.300098] 0 d
10 M q 1 0 0 -1 0 1080 cm
233.844 450.297 m 285.883 450.297 l S Q
  Q
Q
q
0 1079.43 1105 -1080 re W n
[ 1 0 0 1 0 -0.56958 ] concat
  q
0 g
2.412512 w
0 J
1 j
[ 21.71261 19.300098] 0 d
10 M q 1 0 0 -1 0 1080 cm
259.707 242.359 m 197.32 197.801 l S Q
  Q
Q
q
0 1079.43 1105 -1080 re W n
[ 1 0 0 1 0 -0.56958 ] concat
  q
0 g
2.412512 w
0 J
1 j
[ 21.71261 19.300098] 0 d
10 M q 1 0 0 -1 0 1080 cm
259.707 242.359 m 381.105 452.082 l S Q
  Q
Q
q
0 1079.43 1105 -1080 re W n
[ 1 0 0 1 0 -0.56958 ] concat
  q
0 g
2.412512 w
0 J
1 j
[ 21.71261 19.300098] 0 d
10 M q 1 0 0 -1 0 1080 cm
285.883 450.297 m 233.844 450.297 l S Q
  Q
Q
q
0 1079.43 1105 -1080 re W n
[ 1 0 0 1 0 -0.56958 ] concat
  q
0 g
2.412512 w
0 J
1 j
[ 21.71261 19.300098] 0 d
10 M q 1 0 0 -1 0 1080 cm
285.883 450.297 m 294.086 452.613 l S Q
  Q
Q
q
0 1079.43 1105 -1080 re W n
[ 1 0 0 1 0 -0.56958 ] concat
  q
0 g
2.412512 w
0 J
1 j
[ 21.71261 19.300098] 0 d
10 M q 1 0 0 -1 0 1080 cm
294.086 452.613 m 285.883 450.297 l S Q
  Q
Q
q
0 1079.43 1105 -1080 re W n
[ 1 0 0 1 0 -0.56958 ] concat
  q
0 g
2.412512 w
0 J
1 j
[ 21.71261 19.300098] 0 d
10 M q 1 0 0 -1 0 1080 cm
294.086 452.613 m 380.789 461.684 l S Q
  Q
Q
q
0 1079.43 1105 -1080 re W n
[ 1 0 0 1 0 -0.56958 ] concat
  q
0 g
2.412512 w
0 J
1 j
[ 21.71261 19.300098] 0 d
10 M q 1 0 0 -1 0 1080 cm
380.789 461.684 m 294.086 452.613 l S Q
  Q
Q
q
0 1079.43 1105 -1080 re W n
[ 1 0 0 1 0 -0.56958 ] concat
  q
0 g
2.412512 w
0 J
1 j
[ 21.71261 19.300098] 0 d
10 M q 1 0 0 -1 0 1080 cm
380.789 461.684 m 381.105 452.082 l S Q
  Q
Q
q
0 1079.43 1105 -1080 re W n
[ 1 0 0 1 0 -0.56958 ] concat
  q
0 g
2.412512 w
0 J
1 j
[ 21.71261 19.300098] 0 d
10 M q 1 0 0 -1 0 1080 cm
380.789 461.684 m 417.824 519.824 l S Q
  Q
Q
q
0 1079.43 1105 -1080 re W n
[ 1 0 0 1 0 -0.56958 ] concat
  q
0 g
2.412512 w
0 J
1 j
[ 21.71261 19.300098] 0 d
10 M q 1 0 0 -1 0 1080 cm
381.105 452.082 m 259.707 242.359 l S Q
  Q
Q
q
0 1079.43 1105 -1080 re W n
[ 1 0 0 1 0 -0.56958 ] concat
  q
0 g
2.412512 w
0 J
1 j
[ 21.71261 19.300098] 0 d
10 M q 1 0 0 -1 0 1080 cm
381.105 452.082 m 453.313 282.965 l S Q
  Q
Q
q
0 1079.43 1105 -1080 re W n
[ 1 0 0 1 0 -0.56958 ] concat
  q
0 g
2.412512 w
0 J
1 j
[ 21.71261 19.300098] 0 d
10 M q 1 0 0 -1 0 1080 cm
381.105 452.082 m 380.789 461.684 l S Q
  Q
Q
q
0 1079.43 1105 -1080 re W n
[ 1 0 0 1 0 -0.56958 ] concat
  q
0 g
2.412512 w
0 J
1 j
[ 21.71261 19.300098] 0 d
10 M q 1 0 0 -1 0 1080 cm
417.824 519.824 m 380.789 461.684 l S Q
  Q
Q
q
0 1079.43 1105 -1080 re W n
[ 1 0 0 1 0 -0.56958 ] concat
  q
0 g
2.412512 w
0 J
1 j
[ 21.71261 19.300098] 0 d
10 M q 1 0 0 -1 0 1080 cm
417.824 519.824 m 231.746 645.008 l S Q
  Q
Q
q
0 1079.43 1105 -1080 re W n
[ 1 0 0 1 0 -0.56958 ] concat
  q
0 g
2.412512 w
0 J
1 j
[ 21.71261 19.300098] 0 d
10 M q 1 0 0 -1 0 1080 cm
417.824 519.824 m 426.652 526.676 l S Q
  Q
Q
q
0 1079.43 1105 -1080 re W n
[ 1 0 0 1 0 -0.56958 ] concat
  q
0 g
2.412512 w
0 J
1 j
[ 21.71261 19.300098] 0 d
10 M q 1 0 0 -1 0 1080 cm
426.652 526.676 m 417.824 519.824 l S Q
  Q
Q
q
0 1079.43 1105 -1080 re W n
[ 1 0 0 1 0 -0.56958 ] concat
  q
0 g
2.412512 w
0 J
1 j
[ 21.71261 19.300098] 0 d
10 M q 1 0 0 -1 0 1080 cm
426.652 526.676 m 475.867 552.875 l S Q
  Q
Q
q
0 1079.43 1105 -1080 re W n
[ 1 0 0 1 0 -0.56958 ] concat
  q
0 g
2.412512 w
0 J
1 j
[ 21.71261 19.300098] 0 d
10 M q 1 0 0 -1 0 1080 cm
453.313 282.965 m 524.699 212.832 l S Q
  Q
Q
q
0 1079.43 1105 -1080 re W n
[ 1 0 0 1 0 -0.56958 ] concat
  q
0 g
2.412512 w
0 J
1 j
[ 21.71261 19.300098] 0 d
10 M q 1 0 0 -1 0 1080 cm
453.313 282.965 m 381.105 452.082 l S Q
  Q
Q
q
0 1079.43 1105 -1080 re W n
[ 1 0 0 1 0 -0.56958 ] concat
  q
0 g
2.412512 w
0 J
1 j
[ 21.71261 19.300098] 0 d
10 M q 1 0 0 -1 0 1080 cm
475.867 552.875 m 426.652 526.676 l S Q
  Q
Q
q
0 1079.43 1105 -1080 re W n
[ 1 0 0 1 0 -0.56958 ] concat
  q
0 g
2.412512 w
0 J
1 j
[ 21.71261 19.300098] 0 d
10 M q 1 0 0 -1 0 1080 cm
475.867 552.875 m 476.809 553.164 l S Q
  Q
Q
q
0 1079.43 1105 -1080 re W n
[ 1 0 0 1 0 -0.56958 ] concat
  q
0 g
2.412512 w
0 J
1 j
[ 21.71261 19.300098] 0 d
10 M q 1 0 0 -1 0 1080 cm
476.809 553.164 m 475.867 552.875 l S Q
  Q
Q
q
0 1079.43 1105 -1080 re W n
[ 1 0 0 1 0 -0.56958 ] concat
  q
0 g
2.412512 w
0 J
1 j
[ 21.71261 19.300098] 0 d
10 M q 1 0 0 -1 0 1080 cm
476.809 553.164 m 528.797 579.004 l S Q
  Q
Q
q
0 1079.43 1105 -1080 re W n
[ 1 0 0 1 0 -0.56958 ] concat
  q
0 g
2.412512 w
0 J
1 j
[ 21.71261 19.300098] 0 d
10 M q 1 0 0 -1 0 1080 cm
502.598 62.41 m 511.961 114.57 l S Q
  Q
Q
q
0 1079.43 1105 -1080 re W n
[ 1 0 0 1 0 -0.56958 ] concat
  q
0 g
2.412512 w
0 J
1 j
[ 21.71261 19.300098] 0 d
10 M q 1 0 0 -1 0 1080 cm
511.961 114.57 m 502.598 62.41 l S Q
  Q
Q
q
0 1079.43 1105 -1080 re W n
[ 1 0 0 1 0 -0.56958 ] concat
  q
0 g
2.412512 w
0 J
1 j
[ 21.71261 19.300098] 0 d
10 M q 1 0 0 -1 0 1080 cm
511.961 114.57 m 544.527 155.75 l S Q
  Q
Q
q
0 1079.43 1105 -1080 re W n
[ 1 0 0 1 0 -0.56958 ] concat
  q
0 g
2.412512 w
0 J
1 j
[ 21.71261 19.300098] 0 d
10 M q 1 0 0 -1 0 1080 cm
524.699 212.832 m 544.527 155.75 l S Q
  Q
Q
q
0 1079.43 1105 -1080 re W n
[ 1 0 0 1 0 -0.56958 ] concat
  q
0 g
2.412512 w
0 J
1 j
[ 21.71261 19.300098] 0 d
10 M q 1 0 0 -1 0 1080 cm
524.699 212.832 m 453.313 282.965 l S Q
  Q
Q
q
0 1079.43 1105 -1080 re W n
[ 1 0 0 1 0 -0.56958 ] concat
  q
0 g
2.412512 w
0 J
1 j
[ 21.71261 19.300098] 0 d
10 M q 1 0 0 -1 0 1080 cm
528.797 579.004 m 580.184 555.41 l S Q
  Q
Q
q
0 1079.43 1105 -1080 re W n
[ 1 0 0 1 0 -0.56958 ] concat
  q
0 g
2.412512 w
0 J
1 j
[ 21.71261 19.300098] 0 d
10 M q 1 0 0 -1 0 1080 cm
528.797 579.004 m 476.809 553.164 l S Q
  Q
Q
q
0 1079.43 1105 -1080 re W n
[ 1 0 0 1 0 -0.56958 ] concat
  q
0 g
2.412512 w
0 J
1 j
[ 21.71261 19.300098] 0 d
10 M q 1 0 0 -1 0 1080 cm
528.797 579.004 m 557.098 631.523 l S Q
  Q
Q
q
0 1079.43 1105 -1080 re W n
[ 1 0 0 1 0 -0.56958 ] concat
  q
0 g
2.412512 w
0 J
1 j
[ 21.71261 19.300098] 0 d
10 M q 1 0 0 -1 0 1080 cm
544.527 155.75 m 511.961 114.57 l S Q
  Q
Q
q
0 1079.43 1105 -1080 re W n
[ 1 0 0 1 0 -0.56958 ] concat
  q
0 g
2.412512 w
0 J
1 j
[ 21.71261 19.300098] 0 d
10 M q 1 0 0 -1 0 1080 cm
544.527 155.75 m 568.727 143.859 l S Q
  Q
Q
q
0 1079.43 1105 -1080 re W n
[ 1 0 0 1 0 -0.56958 ] concat
  q
0 g
2.412512 w
0 J
1 j
[ 21.71261 19.300098] 0 d
10 M q 1 0 0 -1 0 1080 cm
544.527 155.75 m 524.699 212.832 l S Q
  Q
Q
q
0 1079.43 1105 -1080 re W n
[ 1 0 0 1 0 -0.56958 ] concat
  q
0 g
2.412512 w
0 J
1 j
[ 21.71261 19.300098] 0 d
10 M q 1 0 0 -1 0 1080 cm
557.098 631.523 m 528.797 579.004 l S Q
  Q
Q
q
0 1079.43 1105 -1080 re W n
[ 1 0 0 1 0 -0.56958 ] concat
  q
0 g
2.412512 w
0 J
1 j
[ 21.71261 19.300098] 0 d
10 M q 1 0 0 -1 0 1080 cm
557.098 631.523 m 615.262 699.629 l S Q
  Q
Q
q
0 1079.43 1105 -1080 re W n
[ 1 0 0 1 0 -0.56958 ] concat
  q
0 g
2.412512 w
0 J
1 j
[ 21.71261 19.300098] 0 d
10 M q 1 0 0 -1 0 1080 cm
568.727 143.859 m 610.871 98.215 l S Q
  Q
Q
q
0 1079.43 1105 -1080 re W n
[ 1 0 0 1 0 -0.56958 ] concat
  q
0 g
2.412512 w
0 J
1 j
[ 21.71261 19.300098] 0 d
10 M q 1 0 0 -1 0 1080 cm
568.727 143.859 m 544.527 155.75 l S Q
  Q
Q
q
0 1079.43 1105 -1080 re W n
[ 1 0 0 1 0 -0.56958 ] concat
  q
0 g
2.412512 w
0 J
1 j
[ 21.71261 19.300098] 0 d
10 M q 1 0 0 -1 0 1080 cm
580.184 555.41 m 716.371 454.301 l S Q
  Q
Q
q
0 1079.43 1105 -1080 re W n
[ 1 0 0 1 0 -0.56958 ] concat
  q
0 g
2.412512 w
0 J
1 j
[ 21.71261 19.300098] 0 d
10 M q 1 0 0 -1 0 1080 cm
580.184 555.41 m 528.797 579.004 l S Q
  Q
Q
q
0 1079.43 1105 -1080 re W n
[ 1 0 0 1 0 -0.56958 ] concat
  q
0 g
2.412512 w
0 J
1 j
[ 21.71261 19.300098] 0 d
10 M q 1 0 0 -1 0 1080 cm
610.871 98.215 m 615.551 69.359 l S Q
  Q
Q
q
0 1079.43 1105 -1080 re W n
[ 1 0 0 1 0 -0.56958 ] concat
  q
0 g
2.412512 w
0 J
1 j
[ 21.71261 19.300098] 0 d
10 M q 1 0 0 -1 0 1080 cm
610.871 98.215 m 568.727 143.859 l S Q
  Q
Q
q
0 1079.43 1105 -1080 re W n
[ 1 0 0 1 0 -0.56958 ] concat
  q
0 g
2.412512 w
0 J
1 j
[ 21.71261 19.300098] 0 d
10 M q 1 0 0 -1 0 1080 cm
615.262 699.629 m 557.098 631.523 l S Q
  Q
Q
q
0 1079.43 1105 -1080 re W n
[ 1 0 0 1 0 -0.56958 ] concat
  q
0 g
2.412512 w
0 J
1 j
[ 21.71261 19.300098] 0 d
10 M q 1 0 0 -1 0 1080 cm
615.262 699.629 m 699.629 854.535 l S Q
  Q
Q
q
0 1079.43 1105 -1080 re W n
[ 1 0 0 1 0 -0.56958 ] concat
  q
0 g
2.412512 w
0 J
1 j
[ 21.71261 19.300098] 0 d
10 M q 1 0 0 -1 0 1080 cm
615.551 69.359 m 610.871 98.215 l S Q
  Q
Q
q
0 1079.43 1105 -1080 re W n
[ 1 0 0 1 0 -0.56958 ] concat
  q
0 g
2.412512 w
0 J
1 j
[ 21.71261 19.300098] 0 d
10 M q 1 0 0 -1 0 1080 cm
699.629 854.535 m 615.262 699.629 l S Q
  Q
Q
q
0 1079.43 1105 -1080 re W n
[ 1 0 0 1 0 -0.56958 ] concat
  q
0 g
2.412512 w
0 J
1 j
[ 21.71261 19.300098] 0 d
10 M q 1 0 0 -1 0 1080 cm
716.371 454.301 m 752.27 446.387 l S Q
  Q
Q
q
0 1079.43 1105 -1080 re W n
[ 1 0 0 1 0 -0.56958 ] concat
  q
0 g
2.412512 w
0 J
1 j
[ 21.71261 19.300098] 0 d
10 M q 1 0 0 -1 0 1080 cm
716.371 454.301 m 580.184 555.41 l S Q
  Q
Q
q
0 1079.43 1105 -1080 re W n
[ 1 0 0 1 0 -0.56958 ] concat
  q
0 g
2.412512 w
0 J
1 j
[ 21.71261 19.300098] 0 d
10 M q 1 0 0 -1 0 1080 cm
752.27 446.387 m 831.16 367.5 l S Q
  Q
Q
q
0 1079.43 1105 -1080 re W n
[ 1 0 0 1 0 -0.56958 ] concat
  q
0 g
2.412512 w
0 J
1 j
[ 21.71261 19.300098] 0 d
10 M q 1 0 0 -1 0 1080 cm
752.27 446.387 m 716.371 454.301 l S Q
  Q
Q
q
0 1079.43 1105 -1080 re W n
[ 1 0 0 1 0 -0.56958 ] concat
  q
0 g
2.412512 w
0 J
1 j
[ 21.71261 19.300098] 0 d
10 M q 1 0 0 -1 0 1080 cm
831.16 367.5 m 836.828 353.359 l S Q
  Q
Q
q
0 1079.43 1105 -1080 re W n
[ 1 0 0 1 0 -0.56958 ] concat
  q
0 g
2.412512 w
0 J
1 j
[ 21.71261 19.300098] 0 d
10 M q 1 0 0 -1 0 1080 cm
831.16 367.5 m 752.27 446.387 l S Q
  Q
Q
q
0 1079.43 1105 -1080 re W n
[ 1 0 0 1 0 -0.56958 ] concat
  q
0 g
2.412512 w
0 J
1 j
[ 21.71261 19.300098] 0 d
10 M q 1 0 0 -1 0 1080 cm
835.719 323.012 m 851.98 291.77 l S Q
  Q
Q
q
0 1079.43 1105 -1080 re W n
[ 1 0 0 1 0 -0.56958 ] concat
  q
0 g
2.412512 w
0 J
1 j
[ 21.71261 19.300098] 0 d
10 M q 1 0 0 -1 0 1080 cm
835.719 323.012 m 836.828 353.359 l S Q
  Q
Q
q
0 1079.43 1105 -1080 re W n
[ 1 0 0 1 0 -0.56958 ] concat
  q
0 g
2.412512 w
0 J
1 j
[ 21.71261 19.300098] 0 d
10 M q 1 0 0 -1 0 1080 cm
836.828 353.359 m 835.719 323.012 l S Q
  Q
Q
q
0 1079.43 1105 -1080 re W n
[ 1 0 0 1 0 -0.56958 ] concat
  q
0 g
2.412512 w
0 J
1 j
[ 21.71261 19.300098] 0 d
10 M q 1 0 0 -1 0 1080 cm
836.828 353.359 m 831.16 367.5 l S Q
  Q
Q
q
0 1079.43 1105 -1080 re W n
[ 1 0 0 1 0 -0.56958 ] concat
  q
0 g
2.412512 w
0 J
1 j
[ 21.71261 19.300098] 0 d
10 M q 1 0 0 -1 0 1080 cm
848.527 261.301 m 851.98 269.141 l S Q
  Q
Q
q
0 1079.43 1105 -1080 re W n
[ 1 0 0 1 0 -0.56958 ] concat
  q
0 g
2.412512 w
0 J
1 j
[ 21.71261 19.300098] 0 d
10 M q 1 0 0 -1 0 1080 cm
851.98 291.77 m 851.98 269.141 l S Q
  Q
Q
q
0 1079.43 1105 -1080 re W n
[ 1 0 0 1 0 -0.56958 ] concat
  q
0 g
2.412512 w
0 J
1 j
[ 21.71261 19.300098] 0 d
10 M q 1 0 0 -1 0 1080 cm
851.98 291.77 m 835.719 323.012 l S Q
  Q
Q
q
0 1079.43 1105 -1080 re W n
[ 1 0 0 1 0 -0.56958 ] concat
  q
0 g
2.412512 w
0 J
1 j
[ 21.71261 19.300098] 0 d
10 M q 1 0 0 -1 0 1080 cm
851.98 269.141 m 848.527 261.301 l S Q
  Q
Q
q
0 1079.43 1105 -1080 re W n
[ 1 0 0 1 0 -0.56958 ] concat
  q
0 g
2.412512 w
0 J
1 j
[ 21.71261 19.300098] 0 d
10 M q 1 0 0 -1 0 1080 cm
851.98 269.141 m 851.98 291.77 l S Q
  Q
Q
q
0 1079.43 1105 -1080 re W n
[ 1 0 0 1 0 -0.56958 ] concat
  q
0 0.6 0 rg
6.031281 w
1 J
1 j
[] 0.0 d
10 M q 1 0 0 -1 0 1080 cm
587.977 162.145 m 505.664 196.211 l S Q
  Q
Q
q
0 1079.43 1105 -1080 re W n
[ 1 0 0 1 0 -0.56958 ] concat
  q
0 0.6 0 rg
6.031281 w
1 J
1 j
[] 0.0 d
10 M q 1 0 0 -1 0 1080 cm
505.664 196.211 m 511.332 272.855 l S Q
  Q
Q
q
0 1079.43 1105 -1080 re W n
[ 1 0 0 1 0 -0.56958 ] concat
  q
0 0.6 0 rg
6.031281 w
1 J
1 j
[] 0.0 d
10 M q 1 0 0 -1 0 1080 cm
511.332 272.855 m 587.977 343.832 l S Q
  Q
Q
q
0 1079.43 1105 -1080 re W n
[ 1 0 0 1 0 -0.56958 ] concat
  q
0 0.6 0 rg
6.031281 w
1 J
1 j
[] 0.0 d
10 M q 1 0 0 -1 0 1080 cm
587.977 343.832 m 616.371 428.992 l S Q
  Q
Q
q
0 1079.43 1105 -1080 re W n
[ 1 0 0 1 0 -0.56958 ] concat
  q
0 0.6 0 rg
6.031281 w
1 J
1 j
[] 0.0 d
10 M q 1 0 0 -1 0 1080 cm
616.371 428.992 m 639.074 528.363 l S Q
  Q
Q
q
0 1079.43 1105 -1080 re W n
[ 1 0 0 1 0 -0.56958 ] concat
  q
0 0.6 0 rg
6.031281 w
1 J
1 j
[] 0.0 d
10 M q 1 0 0 -1 0 1080 cm
639.074 528.363 m 647.59 590.801 l S Q
  Q
Q
q
0 1079.43 1105 -1080 re W n
[ 1 0 0 1 0 -0.56958 ] concat
  q
0 0.6 0 rg
6.031281 w
1 J
1 j
[] 0.0 d
10 M q 1 0 0 -1 0 1080 cm
647.59 590.801 m 732.754 647.59 l S Q
  Q
Q
q
0 1079.43 1105 -1080 re W n
[ 1 0 0 1 0 -0.56958 ] concat
  q
0 0.6 0 rg
6.031281 w
1 J
1 j
[] 0.0 d
10 M q 1 0 0 -1 0 1080 cm
732.754 647.59 m 803.727 704.356 l S Q
  Q
Q
q
0 1079.43 1105 -1080 re W n
[ 1 0 0 1 0 -0.56958 ] concat
  q
0 0.6 0 rg
6.031281 w
1 J
1 j
[] 0.0 d
10 M q 1 0 0 -1 0 1080 cm
803.727 704.356 m 800.883 775.332 l S Q
  Q
Q
q
0 1079.43 1105 -1080 re W n
[ 1 0 0 1 0 -0.56958 ] concat
  q
0 g
2.412512 w
1 J
1 j
[] 0.0 d
10 M q 1 0 0 -1 0 1080 cm
800.883 775.332 m 746.938 840.617 l S Q
  Q
Q
q
0 1079.43 1105 -1080 re W n
[ 1 0 0 1 0 -0.56958 ] concat
  q
0 g
2.412512 w
1 J
1 j
[] 0.0 d
10 M q 1 0 0 -1 0 1080 cm
746.938 840.617 m 675.984 908.746 l S Q
  Q
Q
q
0 1079.43 1105 -1080 re W n
[ 1 0 0 1 0 -0.56958 ] concat
  q
0 g
2.412512 w
1 J
1 j
[] 0.0 d
10 M q 1 0 0 -1 0 1080 cm
675.984 908.746 m 576.613 914.414 l S Q
  Q
Q
q
0 1079.43 1105 -1080 re W n
[ 1 0 0 1 0 -0.56958 ] concat
  q
0 g
2.412512 w
1 J
1 j
[] 0.0 d
10 M q 1 0 0 -1 0 1080 cm
576.613 914.414 m 531.211 974.027 l S Q
  Q
Q
q
0 1079.43 1105 -1080 re W n
[ 1 0 0 1 0 -0.56958 ] concat
  q
0 g
2.412512 w
1 J
1 j
[] 0.0 d
10 M q 1 0 0 -1 0 1080 cm
531.211 974.027 m 457.387 1050.699 l S Q
  Q
Q
q
0 1079.43 1105 -1080 re W n
[ 1 0 0 1 0 -0.56958 ] concat
  q
0 g
2.412512 w
1 J
1 j
[] 0.0 d
10 M q 1 0 0 -1 0 1080 cm
457.387 1050.699 m 366.559 1059.215 l S Q
  Q
Q
q
0 1079.43 1105 -1080 re W n
[ 1 0 0 1 0 -0.56958 ] concat
  q
0.266667 g
2.412512 w
2 J
0 j
[] 0.0 d
10 M q 1 0 0 -1 0 1080 cm
320.285 1062.035 m 320.285 1064.715 318.113 1066.859 315.461 1066.859 c
 312.781 1066.859 310.637 1064.715 310.637 1062.035 c 310.637 1059.383 312.781
 1057.211 315.461 1057.211 c 318.113 1057.211 320.285 1059.383 320.285 1062.035
 c h
320.285 1062.035 m S Q
  Q
Q
q
0 1079.43 1105 -1080 re W n
[ 1 0 0 1 0 -0.56958 ] concat
  q
0.266667 g
2.412512 w
2 J
0 j
[] 0.0 d
10 M q 1 0 0 -1 0 1080 cm
371.383 1059.215 m 371.383 1061.867 369.211 1064.039 366.559 1064.039 c
 363.879 1064.039 361.73 1061.867 361.73 1059.215 c 361.73 1056.535 363.879
 1054.387 366.559 1054.387 c 369.211 1054.387 371.383 1056.535 371.383 1059.215
 c h
371.383 1059.215 m S Q
  Q
Q
q
0 1079.43 1105 -1080 re W n
[ 1 0 0 1 0 -0.56958 ] concat
  q
0.266667 g
2.412512 w
2 J
0 j
[] 0.0 d
10 M q 1 0 0 -1 0 1080 cm
462.215 1050.699 m 462.215 1053.352 460.066 1055.524 457.387 1055.524 c
 454.734 1055.524 452.563 1053.352 452.563 1050.699 c 452.563 1048.02 454.734
 1045.871 457.387 1045.871 c 460.066 1045.871 462.215 1048.02 462.215 1050.699
 c h
462.215 1050.699 m S Q
  Q
Q
q
0 1079.43 1105 -1080 re W n
[ 1 0 0 1 0 -0.56958 ] concat
  q
0.266667 g
2.412512 w
2 J
0 j
[] 0.0 d
10 M q 1 0 0 -1 0 1080 cm
527.52 1050.699 m 527.52 1053.352 525.348 1055.524 522.695 1055.524 c 520.016
 1055.524 517.871 1053.352 517.871 1050.699 c 517.871 1048.02 520.016 1045.871
 522.695 1045.871 c 525.348 1045.871 527.52 1048.02 527.52 1050.699 c h
527.52 1050.699 m S Q
  Q
Q
q
0 1079.43 1105 -1080 re W n
[ 1 0 0 1 0 -0.56958 ] concat
  q
0.266667 g
2.412512 w
2 J
0 j
[] 0.0 d
10 M q 1 0 0 -1 0 1080 cm
606.988 1064.883 m 606.988 1067.535 604.84 1069.707 602.164 1069.707 c 
599.508 1069.707 597.34 1067.535 597.34 1064.883 c 597.34 1062.203 599.508
 1060.059 602.164 1060.059 c 604.84 1060.059 606.988 1062.203 606.988 1064.883
 c h
606.988 1064.883 m S Q
  Q
Q
q
0 1079.43 1105 -1080 re W n
[ 1 0 0 1 0 -0.56958 ] concat
  q
0.266667 g
2.412512 w
2 J
0 j
[] 0.0 d
10 M q 1 0 0 -1 0 1080 cm
677.965 1070.551 m 677.965 1073.231 675.793 1075.379 673.141 1075.379 c
 670.484 1075.379 668.313 1073.231 668.313 1070.551 c 668.313 1067.899 670.484
 1065.727 673.141 1065.727 c 675.793 1065.727 677.965 1067.899 677.965 1070.551
 c h
677.965 1070.551 m S Q
  Q
Q
q
0 1079.43 1105 -1080 re W n
[ 1 0 0 1 0 -0.56958 ] concat
  q
0.266667 g
2.412512 w
2 J
0 j
[] 0.0 d
10 M q 1 0 0 -1 0 1080 cm
723.391 1073.399 m 723.391 1076.055 721.219 1078.223 718.566 1078.223 c
 715.891 1078.223 713.742 1076.055 713.742 1073.399 c 713.742 1070.723 715.891
 1068.574 718.566 1068.574 c 721.219 1068.574 723.391 1070.723 723.391 1073.399
 c h
723.391 1073.399 m S Q
  Q
Q
q
0 1079.43 1105 -1080 re W n
[ 1 0 0 1 0 -0.56958 ] concat
  q
0.266667 g
2.412512 w
2 J
0 j
[] 0.0 d
10 M q 1 0 0 -1 0 1080 cm
819.891 1064.883 m 819.891 1067.535 817.746 1069.707 815.066 1069.707 c
 812.414 1069.707 810.242 1067.535 810.242 1064.883 c 810.242 1062.203 812.414
 1060.059 815.066 1060.059 c 817.746 1060.059 819.891 1062.203 819.891 1064.883
 c h
819.891 1064.883 m S Q
  Q
Q
q
0 1079.43 1105 -1080 re W n
[ 1 0 0 1 0 -0.56958 ] concat
  q
0.266667 g
2.412512 w
2 J
0 j
[] 0.0 d
10 M q 1 0 0 -1 0 1080 cm
888.023 1050.699 m 888.023 1053.352 885.875 1055.524 883.195 1055.524 c
 880.543 1055.524 878.371 1053.352 878.371 1050.699 c 878.371 1048.02 880.543
 1045.871 883.195 1045.871 c 885.875 1045.871 888.023 1048.02 888.023 1050.699
 c h
888.023 1050.699 m S Q
  Q
Q
q
0 1079.43 1105 -1080 re W n
[ 1 0 0 1 0 -0.56958 ] concat
  q
0.266667 g
2.412512 w
2 J
0 j
[] 0.0 d
10 M q 1 0 0 -1 0 1080 cm
956.176 1056.367 m 956.176 1059.02 954.004 1061.191 951.352 1061.191 c 
948.672 1061.191 946.523 1059.02 946.523 1056.367 c 946.523 1053.688 948.672
 1051.543 951.352 1051.543 c 954.004 1051.543 956.176 1053.688 956.176 1056.367
 c h
956.176 1056.367 m S Q
  Q
Q
q
0 1079.43 1105 -1080 re W n
[ 1 0 0 1 0 -0.56958 ] concat
  q
0.266667 g
2.412512 w
2 J
0 j
[] 0.0 d
10 M q 1 0 0 -1 0 1080 cm
1029.973 1073.399 m 1029.973 1076.055 1027.801 1078.223 1025.148 1078.223
 c 1022.473 1078.223 1020.324 1076.055 1020.324 1073.399 c 1020.324 1070.723
 1022.473 1068.574 1025.148 1068.574 c 1027.801 1068.574 1029.973 1070.723
 1029.973 1073.399 c h
1029.973 1073.399 m S Q
  Q
Q
q
0 1079.43 1105 -1080 re W n
[ 1 0 0 1 0 -0.56958 ] concat
  q
0.266667 g
2.412512 w
2 J
0 j
[] 0.0 d
10 M q 1 0 0 -1 0 1080 cm
1078.223 1053.52 m 1078.223 1056.199 1076.078 1058.344 1073.398 1058.344
 c 1070.746 1058.344 1068.574 1056.199 1068.574 1053.52 c 1068.574 1050.867
 1070.746 1048.695 1073.398 1048.695 c 1076.078 1048.695 1078.223 1050.867
 1078.223 1053.52 c h
1078.223 1053.52 m S Q
  Q
Q
q
0 1079.43 1105 -1080 re W n
[ 1 0 0 1 0 -0.56958 ] concat
  q
0.266667 g
2.412512 w
2 J
0 j
[] 0.0 d
10 M q 1 0 0 -1 0 1080 cm
368.535 999.602 m 368.535 1002.254 366.387 1004.426 363.711 1004.426 c 
361.055 1004.426 358.887 1002.254 358.887 999.602 c 358.887 996.922 361.055
 994.773 363.711 994.773 c 366.387 994.773 368.535 996.922 368.535 999.602
 c h
368.535 999.602 m S Q
  Q
Q
q
0 1079.43 1105 -1080 re W n
[ 1 0 0 1 0 -0.56958 ] concat
  q
0.266667 g
2.412512 w
2 J
0 j
[] 0.0 d
10 M q 1 0 0 -1 0 1080 cm
445.18 991.086 m 445.18 993.738 443.035 995.91 440.355 995.91 c 437.703
 995.91 435.531 993.738 435.531 991.086 c 435.531 988.406 437.703 986.258
 440.355 986.258 c 443.035 986.258 445.18 988.406 445.18 991.086 c h
445.18 991.086 m S Q
  Q
Q
q
0 1079.43 1105 -1080 re W n
[ 1 0 0 1 0 -0.56958 ] concat
  q
0.266667 g
2.412512 w
2 J
0 j
[] 0.0 d
10 M q 1 0 0 -1 0 1080 cm
536.035 974.027 m 536.035 976.707 533.863 978.852 531.211 978.852 c 528.531
 978.852 526.387 976.707 526.387 974.027 c 526.387 971.375 528.531 969.203
 531.211 969.203 c 533.863 969.203 536.035 971.375 536.035 974.027 c h
536.035 974.027 m S Q
  Q
Q
q
0 1079.43 1105 -1080 re W n
[ 1 0 0 1 0 -0.56958 ] concat
  q
0.266667 g
2.412512 w
2 J
0 j
[] 0.0 d
10 M q 1 0 0 -1 0 1080 cm
592.801 1005.27 m 592.801 1007.922 590.633 1010.094 587.977 1010.094 c 
585.324 1010.094 583.152 1007.922 583.152 1005.27 c 583.152 1002.594 585.324
 1000.445 587.977 1000.445 c 590.633 1000.445 592.801 1002.594 592.801 1005.27
 c h
592.801 1005.27 m S Q
  Q
Q
q
0 1079.43 1105 -1080 re W n
[ 1 0 0 1 0 -0.56958 ] concat
  q
0.266667 g
2.412512 w
2 J
0 j
[] 0.0 d
10 M q 1 0 0 -1 0 1080 cm
680.813 1002.422 m 680.813 1005.102 678.641 1007.246 675.984 1007.246 c
 673.309 1007.246 671.16 1005.102 671.16 1002.422 c 671.16 999.77 673.309
 997.598 675.984 997.598 c 678.641 997.598 680.813 999.77 680.813 1002.422
 c h
680.813 1002.422 m S Q
  Q
Q
q
0 1079.43 1105 -1080 re W n
[ 1 0 0 1 0 -0.56958 ] concat
  q
0.266667 g
2.412512 w
2 J
0 j
[] 0.0 d
10 M q 1 0 0 -1 0 1080 cm
737.578 996.754 m 737.578 999.406 735.43 1001.578 732.754 1001.578 c 730.098
 1001.578 727.926 999.406 727.926 996.754 c 727.926 994.074 730.098 991.93
 732.754 991.93 c 735.43 991.93 737.578 994.074 737.578 996.754 c h
737.578 996.754 m S Q
  Q
Q
q
0 1079.43 1105 -1080 re W n
[ 1 0 0 1 0 -0.56958 ] concat
  q
0.266667 g
2.412512 w
2 J
0 j
[] 0.0 d
10 M q 1 0 0 -1 0 1080 cm
811.375 999.602 m 811.375 1002.254 809.23 1004.426 806.551 1004.426 c 803.898
 1004.426 801.727 1002.254 801.727 999.602 c 801.727 996.922 803.898 994.773
 806.551 994.773 c 809.23 994.773 811.375 996.922 811.375 999.602 c h
811.375 999.602 m S Q
  Q
Q
q
0 1079.43 1105 -1080 re W n
[ 1 0 0 1 0 -0.56958 ] concat
  q
0.266667 g
2.412512 w
2 J
0 j
[] 0.0 d
10 M q 1 0 0 -1 0 1080 cm
873.836 1002.422 m 873.836 1005.102 871.688 1007.246 869.012 1007.246 c
 866.355 1007.246 864.188 1005.102 864.188 1002.422 c 864.188 999.77 866.355
 997.598 869.012 997.598 c 871.688 997.598 873.836 999.77 873.836 1002.422
 c h
873.836 1002.422 m S Q
  Q
Q
q
0 1079.43 1105 -1080 re W n
[ 1 0 0 1 0 -0.56958 ] concat
  q
0.266667 g
2.412512 w
2 J
0 j
[] 0.0 d
10 M q 1 0 0 -1 0 1080 cm
936.297 991.086 m 936.297 993.738 934.125 995.91 931.473 995.91 c 928.793
 995.91 926.645 993.738 926.645 991.086 c 926.645 988.406 928.793 986.258
 931.473 986.258 c 934.125 986.258 936.297 988.406 936.297 991.086 c h
936.297 991.086 m S Q
  Q
Q
q
0 1079.43 1105 -1080 re W n
[ 1 0 0 1 0 -0.56958 ] concat
  q
0.266667 g
2.412512 w
2 J
0 j
[] 0.0 d
10 M q 1 0 0 -1 0 1080 cm
1018.609 1005.27 m 1018.609 1007.922 1016.465 1010.094 1013.785 1010.094
 c 1011.133 1010.094 1008.961 1007.922 1008.961 1005.27 c 1008.961 1002.594
 1011.133 1000.445 1013.785 1000.445 c 1016.465 1000.445 1018.609 1002.594
 1018.609 1005.27 c h
1018.609 1005.27 m S Q
  Q
Q
q
0 1079.43 1105 -1080 re W n
[ 1 0 0 1 0 -0.56958 ] concat
  q
0.266667 g
2.412512 w
2 J
0 j
[] 0.0 d
10 M q 1 0 0 -1 0 1080 cm
1075.402 979.723 m 1075.402 982.375 1073.23 984.547 1070.578 984.547 c 
1067.898 984.547 1065.75 982.375 1065.75 979.723 c 1065.75 977.043 1067.898
 974.895 1070.578 974.895 c 1073.23 974.895 1075.402 977.043 1075.402 979.723
 c h
1075.402 979.723 m S Q
  Q
Q
q
0 1079.43 1105 -1080 re W n
[ 1 0 0 1 0 -0.56958 ] concat
  q
0.266667 g
2.412512 w
2 J
0 j
[] 0.0 d
10 M q 1 0 0 -1 0 1080 cm
527.52 917.262 m 527.52 919.938 525.348 922.086 522.695 922.086 c 520.016
 922.086 517.871 919.938 517.871 917.262 c 517.871 914.609 520.016 912.438
 522.695 912.438 c 525.348 912.438 527.52 914.609 527.52 917.262 c h
527.52 917.262 m S Q
  Q
Q
q
0 1079.43 1105 -1080 re W n
[ 1 0 0 1 0 -0.56958 ] concat
  q
0.266667 g
2.412512 w
2 J
0 j
[] 0.0 d
10 M q 1 0 0 -1 0 1080 cm
581.441 914.414 m 581.441 917.094 579.293 919.238 576.613 919.238 c 573.961
 919.238 571.789 917.094 571.789 914.414 c 571.789 911.762 573.961 909.59
 576.613 909.59 c 579.293 909.59 581.441 911.762 581.441 914.414 c h
581.441 914.414 m S Q
  Q
Q
q
0 1079.43 1105 -1080 re W n
[ 1 0 0 1 0 -0.56958 ] concat
  q
0.266667 g
2.412512 w
2 J
0 j
[] 0.0 d
10 M q 1 0 0 -1 0 1080 cm
680.813 908.746 m 680.813 911.422 678.641 913.57 675.984 913.57 c 673.309
 913.57 671.16 911.422 671.16 908.746 c 671.16 906.09 673.309 903.922 675.984
 903.922 c 678.641 903.922 680.813 906.09 680.813 908.746 c h
680.813 908.746 m S Q
  Q
Q
q
0 1079.43 1105 -1080 re W n
[ 1 0 0 1 0 -0.56958 ] concat
  q
0.266667 g
2.412512 w
2 J
0 j
[] 0.0 d
10 M q 1 0 0 -1 0 1080 cm
743.246 917.262 m 743.246 919.938 741.102 922.086 738.422 922.086 c 735.77
 922.086 733.598 919.938 733.598 917.262 c 733.598 914.609 735.77 912.438
 738.422 912.438 c 741.102 912.438 743.246 914.609 743.246 917.262 c h
743.246 917.262 m S Q
  Q
Q
q
0 1079.43 1105 -1080 re W n
[ 1 0 0 1 0 -0.56958 ] concat
  q
0.266667 g
2.412512 w
2 J
0 j
[] 0.0 d
10 M q 1 0 0 -1 0 1080 cm
819.891 914.414 m 819.891 917.094 817.746 919.238 815.066 919.238 c 812.414
 919.238 810.242 917.094 810.242 914.414 c 810.242 911.762 812.414 909.59
 815.066 909.59 c 817.746 909.59 819.891 911.762 819.891 914.414 c h
819.891 914.414 m S Q
  Q
Q
q
0 1079.43 1105 -1080 re W n
[ 1 0 0 1 0 -0.56958 ] concat
  q
0.266667 g
2.412512 w
2 J
0 j
[] 0.0 d
10 M q 1 0 0 -1 0 1080 cm
868.168 925.777 m 868.168 928.457 865.996 930.602 863.34 930.602 c 860.664
 930.602 858.516 928.457 858.516 925.777 c 858.516 923.125 860.664 920.953
 863.34 920.953 c 865.996 920.953 868.168 923.125 868.168 925.777 c h
868.168 925.777 m S Q
  Q
Q
q
0 1079.43 1105 -1080 re W n
[ 1 0 0 1 0 -0.56958 ] concat
  q
0.266667 g
2.412512 w
2 J
0 j
[] 0.0 d
10 M q 1 0 0 -1 0 1080 cm
944.813 925.777 m 944.813 928.457 942.641 930.602 939.988 930.602 c 937.309
 930.602 935.164 928.457 935.164 925.777 c 935.164 923.125 937.309 920.953
 939.988 920.953 c 942.641 920.953 944.813 923.125 944.813 925.777 c h
944.813 925.777 m S Q
  Q
Q
q
0 1079.43 1105 -1080 re W n
[ 1 0 0 1 0 -0.56958 ] concat
  q
0.266667 g
2.412512 w
2 J
0 j
[] 0.0 d
10 M q 1 0 0 -1 0 1080 cm
1004.426 920.109 m 1004.426 922.762 1002.254 924.934 999.602 924.934 c 
996.922 924.934 994.773 922.762 994.773 920.109 c 994.773 917.43 996.922
 915.281 999.602 915.281 c 1002.254 915.281 1004.426 917.43 1004.426 920.109
 c h
1004.426 920.109 m S Q
  Q
Q
q
0 1079.43 1105 -1080 re W n
[ 1 0 0 1 0 -0.56958 ] concat
  q
0.266667 g
2.412512 w
2 J
0 j
[] 0.0 d
10 M q 1 0 0 -1 0 1080 cm
1103.773 920.109 m 1103.773 922.762 1101.625 924.934 1098.949 924.934 c
 1096.293 924.934 1094.121 922.762 1094.121 920.109 c 1094.121 917.43 1096.293
 915.281 1098.949 915.281 c 1101.625 915.281 1103.773 917.43 1103.773 920.109
 c h
1103.773 920.109 m S Q
  Q
Q
q
0 1079.43 1105 -1080 re W n
[ 1 0 0 1 0 -0.56958 ] concat
  q
0.266667 g
2.412512 w
2 J
0 j
[] 0.0 d
10 M q 1 0 0 -1 0 1080 cm
609.836 851.981 m 609.836 854.633 607.664 856.805 605.012 856.805 c 602.355
 856.805 600.184 854.633 600.184 851.981 c 600.184 849.301 602.355 847.152
 605.012 847.152 c 607.664 847.152 609.836 849.301 609.836 851.981 c h
609.836 851.981 m S Q
  Q
Q
q
0 1079.43 1105 -1080 re W n
[ 1 0 0 1 0 -0.56958 ] concat
  q
0.266667 g
2.412512 w
2 J
0 j
[] 0.0 d
10 M q 1 0 0 -1 0 1080 cm
680.813 849.133 m 680.813 851.809 678.641 853.957 675.984 853.957 c 673.309
 853.957 671.16 851.809 671.16 849.133 c 671.16 846.477 673.309 844.309 
675.984 844.309 c 678.641 844.309 680.813 846.477 680.813 849.133 c h
680.813 849.133 m S Q
  Q
Q
q
0 1079.43 1105 -1080 re W n
[ 1 0 0 1 0 -0.56958 ] concat
  q
0.266667 g
2.412512 w
2 J
0 j
[] 0.0 d
10 M q 1 0 0 -1 0 1080 cm
751.762 840.617 m 751.762 843.293 749.617 845.441 746.938 845.441 c 744.285
 845.441 742.113 843.293 742.113 840.617 c 742.113 837.961 744.285 835.789
 746.938 835.789 c 749.617 835.789 751.762 837.961 751.762 840.617 c h
751.762 840.617 m S Q
  Q
Q
q
0 1079.43 1105 -1080 re W n
[ 1 0 0 1 0 -0.56958 ] concat
  q
0.266667 g
2.412512 w
2 J
0 j
[] 0.0 d
10 M q 1 0 0 -1 0 1080 cm
797.191 860.496 m 797.191 863.148 795.043 865.32 792.367 865.32 c 789.711
 865.32 787.539 863.148 787.539 860.496 c 787.539 857.816 789.711 855.668
 792.367 855.668 c 795.043 855.668 797.191 857.816 797.191 860.496 c h
797.191 860.496 m S Q
  Q
Q
q
0 1079.43 1105 -1080 re W n
[ 1 0 0 1 0 -0.56958 ] concat
  q
0.266667 g
2.412512 w
2 J
0 j
[] 0.0 d
10 M q 1 0 0 -1 0 1080 cm
870.988 851.981 m 870.988 854.633 868.844 856.805 866.164 856.805 c 863.512
 856.805 861.34 854.633 861.34 851.981 c 861.34 849.301 863.512 847.152 
866.164 847.152 c 868.844 847.152 870.988 849.301 870.988 851.981 c h
870.988 851.981 m S Q
  Q
Q
q
0 1079.43 1105 -1080 re W n
[ 1 0 0 1 0 -0.56958 ] concat
  q
0.266667 g
2.412512 w
2 J
0 j
[] 0.0 d
10 M q 1 0 0 -1 0 1080 cm
944.813 834.945 m 944.813 837.602 942.641 839.77 939.988 839.77 c 937.309
 839.77 935.164 837.602 935.164 834.945 c 935.164 832.27 937.309 830.121
 939.988 830.121 c 942.641 830.121 944.813 832.27 944.813 834.945 c h
944.813 834.945 m S Q
  Q
Q
q
0 1079.43 1105 -1080 re W n
[ 1 0 0 1 0 -0.56958 ] concat
  q
0.266667 g
2.412512 w
2 J
0 j
[] 0.0 d
10 M q 1 0 0 -1 0 1080 cm
1015.789 846.285 m 1015.789 848.965 1013.617 851.109 1010.965 851.109 c
 1008.285 851.109 1006.137 848.965 1006.137 846.285 c 1006.137 843.633 1008.285
 841.461 1010.965 841.461 c 1013.617 841.461 1015.789 843.633 1015.789 846.285
 c h
1015.789 846.285 m S Q
  Q
Q
q
0 1079.43 1105 -1080 re W n
[ 1 0 0 1 0 -0.56958 ] concat
  q
0.266667 g
2.412512 w
2 J
0 j
[] 0.0 d
10 M q 1 0 0 -1 0 1080 cm
1095.258 846.285 m 1095.258 848.965 1093.109 851.109 1090.43 851.109 c 
1087.777 851.109 1085.605 848.965 1085.605 846.285 c 1085.605 843.633 1087.777
 841.461 1090.43 841.461 c 1093.109 841.461 1095.258 843.633 1095.258 846.285
 c h
1095.258 846.285 m S Q
  Q
Q
q
0 1079.43 1105 -1080 re W n
[ 1 0 0 1 0 -0.56958 ] concat
  q
0.266667 g
2.412512 w
2 J
0 j
[] 0.0 d
10 M q 1 0 0 -1 0 1080 cm
731.906 783.848 m 731.906 786.504 729.738 788.676 727.082 788.676 c 724.406
 788.676 722.258 786.504 722.258 783.848 c 722.258 781.172 724.406 779.023
 727.082 779.023 c 729.738 779.023 731.906 781.172 731.906 783.848 c h
731.906 783.848 m S Q
  Q
Q
q
0 1079.43 1105 -1080 re W n
[ 1 0 0 1 0 -0.56958 ] concat
  q
0.266667 g
2.412512 w
2 J
0 j
[] 0.0 d
10 M q 1 0 0 -1 0 1080 cm
805.707 775.332 m 805.707 777.988 803.559 780.16 800.883 780.16 c 798.227
 780.16 796.059 777.988 796.059 775.332 c 796.059 772.656 798.227 770.508
 800.883 770.508 c 803.559 770.508 805.707 772.656 805.707 775.332 c h
805.707 775.332 m S Q
  Q
Q
q
0 1079.43 1105 -1080 re W n
[ 1 0 0 1 0 -0.56958 ] concat
  q
0.266667 g
2.412512 w
2 J
0 j
[] 0.0 d
10 M q 1 0 0 -1 0 1080 cm
870.988 769.641 m 870.988 772.316 868.844 774.465 866.164 774.465 c 863.512
 774.465 861.34 772.316 861.34 769.641 c 861.34 766.984 863.512 764.816 
866.164 764.816 c 868.844 764.816 870.988 766.984 870.988 769.641 c h
870.988 769.641 m S Q
  Q
Q
q
0 1079.43 1105 -1080 re W n
[ 1 0 0 1 0 -0.56958 ] concat
  q
0.266667 g
2.412512 w
2 J
0 j
[] 0.0 d
10 M q 1 0 0 -1 0 1080 cm
950.48 763.969 m 950.48 766.625 948.336 768.797 945.656 768.797 c 943.004
 768.797 940.832 766.625 940.832 763.969 c 940.832 761.316 943.004 759.145
 945.656 759.145 c 948.336 759.145 950.48 761.316 950.48 763.969 c h
950.48 763.969 m S Q
  Q
Q
q
0 1079.43 1105 -1080 re W n
[ 1 0 0 1 0 -0.56958 ] concat
  q
0.266667 g
2.412512 w
2 J
0 j
[] 0.0 d
10 M q 1 0 0 -1 0 1080 cm
1004.426 775.332 m 1004.426 777.988 1002.254 780.16 999.602 780.16 c 996.922
 780.16 994.773 777.988 994.773 775.332 c 994.773 772.656 996.922 770.508
 999.602 770.508 c 1002.254 770.508 1004.426 772.656 1004.426 775.332 c 
h
1004.426 775.332 m S Q
  Q
Q
q
0 1079.43 1105 -1080 re W n
[ 1 0 0 1 0 -0.56958 ] concat
  q
0.266667 g
2.412512 w
2 J
0 j
[] 0.0 d
10 M q 1 0 0 -1 0 1080 cm
1092.434 763.969 m 1092.434 766.625 1090.262 768.797 1087.609 768.797 c
 1084.93 768.797 1082.785 766.625 1082.785 763.969 c 1082.785 761.316 1084.93
 759.145 1087.609 759.145 c 1090.262 759.145 1092.434 761.316 1092.434 763.969
 c h
1092.434 763.969 m S Q
  Q
Q
q
0 1079.43 1105 -1080 re W n
[ 1 0 0 1 0 -0.56958 ] concat
  q
0.266667 g
2.412512 w
2 J
0 j
[] 0.0 d
10 M q 1 0 0 -1 0 1080 cm
808.555 704.356 m 808.555 707.012 806.383 709.184 803.727 709.184 c 801.051
 709.184 798.902 707.012 798.902 704.356 c 798.902 701.703 801.051 699.531
 803.727 699.531 c 806.383 699.531 808.555 701.703 808.555 704.356 c h
808.555 704.356 m S Q
  Q
Q
q
0 1079.43 1105 -1080 re W n
[ 1 0 0 1 0 -0.56958 ] concat
  q
0.266667 g
2.412512 w
2 J
0 j
[] 0.0 d
10 M q 1 0 0 -1 0 1080 cm
879.504 718.543 m 879.504 721.219 877.359 723.367 874.68 723.367 c 872.027
 723.367 869.855 721.219 869.855 718.543 c 869.855 715.891 872.027 713.719
 874.68 713.719 c 877.359 713.719 879.504 715.891 879.504 718.543 c h
879.504 718.543 m S Q
  Q
Q
q
0 1079.43 1105 -1080 re W n
[ 1 0 0 1 0 -0.56958 ] concat
  q
0.266667 g
2.412512 w
2 J
0 j
[] 0.0 d
10 M q 1 0 0 -1 0 1080 cm
947.66 701.512 m 947.66 704.188 945.488 706.336 942.832 706.336 c 940.156
 706.336 938.008 704.188 938.008 701.512 c 938.008 698.856 940.156 696.684
 942.832 696.684 c 945.488 696.684 947.66 698.856 947.66 701.512 c h
947.66 701.512 m S Q
  Q
Q
q
0 1079.43 1105 -1080 re W n
[ 1 0 0 1 0 -0.56958 ] concat
  q
0.266667 g
2.412512 w
2 J
0 j
[] 0.0 d
10 M q 1 0 0 -1 0 1080 cm
1001.578 715.719 m 1001.578 718.375 999.43 720.547 996.754 720.547 c 994.102
 720.547 991.93 718.375 991.93 715.719 c 991.93 713.043 994.102 710.895 
996.754 710.895 c 999.43 710.895 1001.578 713.043 1001.578 715.719 c h
1001.578 715.719 m S Q
  Q
Q
q
0 1079.43 1105 -1080 re W n
[ 1 0 0 1 0 -0.56958 ] concat
  q
0.266667 g
2.412512 w
2 J
0 j
[] 0.0 d
10 M q 1 0 0 -1 0 1080 cm
1083.918 712.875 m 1083.918 715.527 1081.746 717.699 1079.094 717.699 c
 1076.414 717.699 1074.27 715.527 1074.27 712.875 c 1074.27 710.219 1076.414
 708.047 1079.094 708.047 c 1081.746 708.047 1083.918 710.219 1083.918 712.875
 c h
1083.918 712.875 m S Q
  Q
Q
q
0 1079.43 1105 -1080 re W n
[ 1 0 0 1 0 -0.56958 ] concat
  q
0.266667 g
2.412512 w
2 J
0 j
[] 0.0 d
10 M q 1 0 0 -1 0 1080 cm
1007.273 647.59 m 1007.273 650.246 1005.102 652.414 1002.445 652.414 c 
999.77 652.414 997.621 650.246 997.621 647.59 c 997.621 644.914 999.77 642.766
 1002.445 642.766 c 1005.102 642.766 1007.273 644.914 1007.273 647.59 c 
h
1007.273 647.59 m S Q
  Q
Q
q
0 1079.43 1105 -1080 re W n
[ 1 0 0 1 0 -0.56958 ] concat
  q
0.266667 g
2.412512 w
2 J
0 j
[] 0.0 d
10 M q 1 0 0 -1 0 1080 cm
1098.102 641.898 m 1098.102 644.574 1095.934 646.723 1093.277 646.723 c
 1090.602 646.723 1088.453 644.574 1088.453 641.898 c 1088.453 639.242 1090.602
 637.07 1093.277 637.07 c 1095.934 637.07 1098.102 639.242 1098.102 641.898
 c h
1098.102 641.898 m S Q
  Q
Q
q
0 1079.43 1105 -1080 re W n
[ 1 0 0 1 0 -0.56958 ] concat
  q
0.266667 g
2.412512 w
2 J
0 j
[] 0.0 d
10 M q 1 0 0 -1 0 1080 cm
601.32 712.875 m 601.32 715.527 599.148 717.699 596.492 717.699 c 593.84
 717.699 591.668 715.527 591.668 712.875 c 591.668 710.219 593.84 708.047
 596.492 708.047 c 599.148 708.047 601.32 710.219 601.32 712.875 c h
601.32 712.875 m S Q
  Q
Q
q
0 1079.43 1105 -1080 re W n
[ 1 0 0 1 0 -0.56958 ] concat
  q
0.266667 g
2.412512 w
2 J
0 j
[] 0.0 d
10 M q 1 0 0 -1 0 1080 cm
638.23 789.52 m 638.23 792.195 636.059 794.344 633.406 794.344 c 630.727
 794.344 628.578 792.195 628.578 789.52 c 628.578 786.863 630.727 784.695
 633.406 784.695 c 636.059 784.695 638.23 786.863 638.23 789.52 c h
638.23 789.52 m S Q
  Q
Q
q
0 1079.43 1105 -1080 re W n
[ 1 0 0 1 0 -0.56958 ] concat
  q
0.266667 g
2.412512 w
2 J
0 j
[] 0.0 d
10 M q 1 0 0 -1 0 1080 cm
527.52 772.488 m 527.52 775.141 525.348 777.313 522.695 777.313 c 520.016
 777.313 517.871 775.141 517.871 772.488 c 517.871 769.832 520.016 767.66
 522.695 767.66 c 525.348 767.66 527.52 769.832 527.52 772.488 c h
527.52 772.488 m S Q
  Q
Q
q
0 1079.43 1105 -1080 re W n
[ 1 0 0 1 0 -0.56958 ] concat
  q
0.266667 g
2.412512 w
2 J
0 j
[] 0.0 d
10 M q 1 0 0 -1 0 1080 cm
521.828 860.496 m 521.828 863.148 519.68 865.32 517 865.32 c 514.348 865.32
 512.176 863.148 512.176 860.496 c 512.176 857.816 514.348 855.668 517 855.668
 c 519.68 855.668 521.828 857.816 521.828 860.496 c h
521.828 860.496 m S Q
  Q
Q
q
0 1079.43 1105 -1080 re W n
[ 1 0 0 1 0 -0.56958 ] concat
  q
0.266667 g
2.412512 w
2 J
0 j
[] 0.0 d
10 M q 1 0 0 -1 0 1080 cm
459.391 744.09 m 459.391 746.77 457.219 748.918 454.566 748.918 c 451.887
 748.918 449.742 746.77 449.742 744.09 c 449.742 741.438 451.887 739.266
 454.566 739.266 c 457.219 739.266 459.391 741.438 459.391 744.09 c h
459.391 744.09 m S Q
  Q
Q
q
0 1079.43 1105 -1080 re W n
[ 1 0 0 1 0 -0.56958 ] concat
  q
0.266667 g
2.412512 w
2 J
0 j
[] 0.0 d
10 M q 1 0 0 -1 0 1080 cm
430.996 823.582 m 430.996 826.262 428.824 828.41 426.172 828.41 c 423.492
 828.41 421.344 826.262 421.344 823.582 c 421.344 820.93 423.492 818.758
 426.172 818.758 c 428.824 818.758 430.996 820.93 430.996 823.582 c h
430.996 823.582 m S Q
  Q
Q
q
0 1079.43 1105 -1080 re W n
[ 1 0 0 1 0 -0.56958 ] concat
  q
0.266667 g
2.412512 w
2 J
0 j
[] 0.0 d
10 M q 1 0 0 -1 0 1080 cm
476.422 673.141 m 476.422 675.793 474.25 677.965 471.598 677.965 c 468.922
 677.965 466.773 675.793 466.773 673.141 c 466.773 670.461 468.922 668.313
 471.598 668.313 c 474.25 668.313 476.422 670.461 476.422 673.141 c h
476.422 673.141 m S Q
  Q
Q
q
0 1079.43 1105 -1080 re W n
[ 1 0 0 1 0 -0.56958 ] concat
  q
0.266667 g
2.412512 w
2 J
0 j
[] 0.0 d
10 M q 1 0 0 -1 0 1080 cm
567.254 681.656 m 567.254 684.309 565.082 686.481 562.43 686.481 c 559.75
 686.481 557.605 684.309 557.605 681.656 c 557.605 678.977 559.75 676.832
 562.43 676.832 c 565.082 676.832 567.254 678.977 567.254 681.656 c h
567.254 681.656 m S Q
  Q
Q
q
0 1079.43 1105 -1080 re W n
[ 1 0 0 1 0 -0.56958 ] concat
  q
0.266667 g
2.412512 w
2 J
0 j
[] 0.0 d
10 M q 1 0 0 -1 0 1080 cm
658.086 661.777 m 658.086 664.43 655.938 666.602 653.262 666.602 c 650.605
 666.602 648.434 664.43 648.434 661.777 c 648.434 659.121 650.605 656.953
 653.262 656.953 c 655.938 656.953 658.086 659.121 658.086 661.777 c h
658.086 661.777 m S Q
  Q
Q
q
0 1079.43 1105 -1080 re W n
[ 1 0 0 1 0 -0.56958 ] concat
  q
0.266667 g
2.412512 w
2 J
0 j
[] 0.0 d
10 M q 1 0 0 -1 0 1080 cm
723.391 707.203 m 723.391 709.859 721.219 712.027 718.566 712.027 c 715.891
 712.027 713.742 709.859 713.742 707.203 c 713.742 704.527 715.891 702.379
 718.566 702.379 c 721.219 702.379 723.391 704.527 723.391 707.203 c h
723.391 707.203 m S Q
  Q
Q
q
0 1079.43 1105 -1080 re W n
[ 1 0 0 1 0 -0.56958 ] concat
  q
0.266667 g
2.412512 w
2 J
0 j
[] 0.0 d
10 M q 1 0 0 -1 0 1080 cm
572.922 616.348 m 572.922 619.027 570.777 621.172 568.098 621.172 c 565.445
 621.172 563.273 619.027 563.273 616.348 c 563.273 613.695 565.445 611.523
 568.098 611.523 c 570.777 611.523 572.922 613.695 572.922 616.348 c h
572.922 616.348 m S Q
  Q
Q
q
0 1079.43 1105 -1080 re W n
[ 1 0 0 1 0 -0.56958 ] concat
  q
0.266667 g
2.412512 w
2 J
0 j
[] 0.0 d
10 M q 1 0 0 -1 0 1080 cm
677.965 727.059 m 677.965 729.738 675.793 731.883 673.141 731.883 c 670.484
 731.883 668.313 729.738 668.313 727.059 c 668.313 724.406 670.484 722.234
 673.141 722.234 c 675.793 722.234 677.965 724.406 677.965 727.059 c h
677.965 727.059 m S Q
  Q
Q
q
0 1079.43 1105 -1080 re W n
[ 1 0 0 1 0 -0.56958 ] concat
  q
0.266667 g
2.412512 w
2 J
0 j
[] 0.0 d
10 M q 1 0 0 -1 0 1080 cm
504.793 602.164 m 504.793 604.816 502.648 606.988 499.969 606.988 c 497.316
 606.988 495.145 604.816 495.145 602.164 c 495.145 599.484 497.316 597.34
 499.969 597.34 c 502.648 597.34 504.793 599.484 504.793 602.164 c h
504.793 602.164 m S Q
  Q
Q
q
0 1079.43 1105 -1080 re W n
[ 1 0 0 1 0 -0.56958 ] concat
  q
0.266667 g
2.412512 w
2 J
0 j
[] 0.0 d
10 M q 1 0 0 -1 0 1080 cm
430.996 576.613 m 430.996 579.27 428.824 581.441 426.172 581.441 c 423.492
 581.441 421.344 579.27 421.344 576.613 c 421.344 573.938 423.492 571.789
 426.172 571.789 c 428.824 571.789 430.996 573.938 430.996 576.613 c h
430.996 576.613 m S Q
  Q
Q
q
0 1079.43 1105 -1080 re W n
[ 1 0 0 1 0 -0.56958 ] concat
  q
0.266667 g
2.412512 w
2 J
0 j
[] 0.0 d
10 M q 1 0 0 -1 0 1080 cm
365.688 653.262 m 365.688 655.914 363.543 658.086 360.863 658.086 c 358.211
 658.086 356.039 655.914 356.039 653.262 c 356.039 650.606 358.211 648.434
 360.863 648.434 c 363.543 648.434 365.688 650.606 365.688 653.262 c h
365.688 653.262 m S Q
  Q
Q
q
0 1079.43 1105 -1080 re W n
[ 1 0 0 1 0 -0.56958 ] concat
  q
0.266667 g
2.412512 w
2 J
0 j
[] 0.0 d
10 M q 1 0 0 -1 0 1080 cm
394.082 758.301 m 394.082 760.953 391.938 763.125 389.258 763.125 c 386.605
 763.125 384.434 760.953 384.434 758.301 c 384.434 755.621 386.605 753.477
 389.258 753.477 c 391.938 753.477 394.082 755.621 394.082 758.301 c h
394.082 758.301 m S Q
  Q
Q
q
0 1079.43 1105 -1080 re W n
[ 1 0 0 1 0 -0.56958 ] concat
  q
0.266667 g
2.412512 w
2 J
0 j
[] 0.0 d
10 M q 1 0 0 -1 0 1080 cm
257.824 744.09 m 257.824 746.77 255.68 748.918 253 748.918 c 250.348 748.918
 248.176 746.77 248.176 744.09 c 248.176 741.438 250.348 739.266 253 739.266
 c 255.68 739.266 257.824 741.438 257.824 744.09 c h
257.824 744.09 m S Q
  Q
Q
q
0 1079.43 1105 -1080 re W n
[ 1 0 0 1 0 -0.56958 ] concat
  q
0.266667 g
2.412512 w
2 J
0 j
[] 0.0 d
10 M q 1 0 0 -1 0 1080 cm
328.801 712.875 m 328.801 715.527 326.629 717.699 323.977 717.699 c 321.297
 717.699 319.152 715.527 319.152 712.875 c 319.152 710.219 321.297 708.047
 323.977 708.047 c 326.629 708.047 328.801 710.219 328.801 712.875 c h
328.801 712.875 m S Q
  Q
Q
q
0 1079.43 1105 -1080 re W n
[ 1 0 0 1 0 -0.56958 ] concat
  q
0.266667 g
2.412512 w
2 J
0 j
[] 0.0 d
10 M q 1 0 0 -1 0 1080 cm
340.141 789.52 m 340.141 792.195 337.992 794.344 335.316 794.344 c 332.66
 794.344 330.488 792.195 330.488 789.52 c 330.488 786.863 332.66 784.695
 335.316 784.695 c 337.992 784.695 340.141 786.863 340.141 789.52 c h
340.141 789.52 m S Q
  Q
Q
q
0 1079.43 1105 -1080 re W n
[ 1 0 0 1 0 -0.56958 ] concat
  q
0.266667 g
2.412512 w
2 J
0 j
[] 0.0 d
10 M q 1 0 0 -1 0 1080 cm
252.156 656.106 m 252.156 658.762 249.984 660.934 247.332 660.934 c 244.652
 660.934 242.504 658.762 242.504 656.106 c 242.504 653.43 244.652 651.281
 247.332 651.281 c 249.984 651.281 252.156 653.43 252.156 656.106 c h
252.156 656.106 m S Q
  Q
Q
q
0 1079.43 1105 -1080 re W n
[ 1 0 0 1 0 -0.56958 ] concat
  q
0.266667 g
2.412512 w
2 J
0 j
[] 0.0 d
10 M q 1 0 0 -1 0 1080 cm
314.59 590.801 m 314.59 593.477 312.445 595.625 309.766 595.625 c 307.113
 595.625 304.941 593.477 304.941 590.801 c 304.941 588.145 307.113 585.977
 309.766 585.977 c 312.445 585.977 314.59 588.145 314.59 590.801 c h
314.59 590.801 m S Q
  Q
Q
q
0 1079.43 1105 -1080 re W n
[ 1 0 0 1 0 -0.56958 ] concat
  q
0.266667 g
2.412512 w
2 J
0 j
[] 0.0 d
10 M q 1 0 0 -1 0 1080 cm
365.688 545.398 m 365.688 548.051 363.543 550.223 360.863 550.223 c 358.211
 550.223 356.039 548.051 356.039 545.398 c 356.039 542.719 358.211 540.57
 360.863 540.57 c 363.543 540.57 365.688 542.719 365.688 545.398 c h
365.688 545.398 m S Q
  Q
Q
q
0 1079.43 1105 -1080 re W n
[ 1 0 0 1 0 -0.56958 ] concat
  q
0.266667 g
2.412512 w
2 J
0 j
[] 0.0 d
10 M q 1 0 0 -1 0 1080 cm
436.664 536.879 m 436.664 539.535 434.52 541.707 431.84 541.707 c 429.188
 541.707 427.016 539.535 427.016 536.879 c 427.016 534.203 429.188 532.055
 431.84 532.055 c 434.52 532.055 436.664 534.203 436.664 536.879 c h
436.664 536.879 m S Q
  Q
Q
q
0 1079.43 1105 -1080 re W n
[ 1 0 0 1 0 -0.56958 ] concat
  q
0.266667 g
2.412512 w
2 J
0 j
[] 0.0 d
10 M q 1 0 0 -1 0 1080 cm
510.488 499.969 m 510.488 502.621 508.316 504.793 505.664 504.793 c 502.984
 504.793 500.836 502.621 500.836 499.969 c 500.836 497.293 502.984 495.145
 505.664 495.145 c 508.316 495.145 510.488 497.293 510.488 499.969 c h
510.488 499.969 m S Q
  Q
Q
q
0 1079.43 1105 -1080 re W n
[ 1 0 0 1 0 -0.56958 ] concat
  q
0.266667 g
2.412512 w
2 J
0 j
[] 0.0 d
10 M q 1 0 0 -1 0 1080 cm
592.801 511.332 m 592.801 513.984 590.633 516.156 587.977 516.156 c 585.324
 516.156 583.152 513.984 583.152 511.332 c 583.152 508.652 585.324 506.508
 587.977 506.508 c 590.633 506.508 592.801 508.652 592.801 511.332 c h
592.801 511.332 m S Q
  Q
Q
q
0 1079.43 1105 -1080 re W n
[ 1 0 0 1 0 -0.56958 ] concat
  q
0.266667 g
2.412512 w
2 J
0 j
[] 0.0 d
10 M q 1 0 0 -1 0 1080 cm
712.027 519.848 m 712.027 522.504 709.859 524.672 707.203 524.672 c 704.551
 524.672 702.379 522.504 702.379 519.848 c 702.379 517.172 704.551 515.023
 707.203 515.023 c 709.859 515.023 712.027 517.172 712.027 519.848 c h
712.027 519.848 m S Q
  Q
Q
q
0 1079.43 1105 -1080 re W n
[ 1 0 0 1 0 -0.56958 ] concat
  q
0.266667 g
2.412512 w
2 J
0 j
[] 0.0 d
10 M q 1 0 0 -1 0 1080 cm
652.414 590.801 m 652.414 593.477 650.246 595.625 647.59 595.625 c 644.938
 595.625 642.766 593.477 642.766 590.801 c 642.766 588.145 644.938 585.977
 647.59 585.977 c 650.246 585.977 652.414 588.145 652.414 590.801 c h
652.414 590.801 m S Q
  Q
Q
q
0 1079.43 1105 -1080 re W n
[ 1 0 0 1 0 -0.56958 ] concat
  q
0.266667 g
2.412512 w
2 J
0 j
[] 0.0 d
10 M q 1 0 0 -1 0 1080 cm
621.199 428.992 m 621.199 431.672 619.027 433.816 616.371 433.816 c 613.695
 433.816 611.547 431.672 611.547 428.992 c 611.547 426.34 613.695 424.168
 616.371 424.168 c 619.027 424.168 621.199 426.34 621.199 428.992 c h
621.199 428.992 m S Q
  Q
Q
q
0 1079.43 1105 -1080 re W n
[ 1 0 0 1 0 -0.56958 ] concat
  q
0.266667 g
2.412512 w
2 J
0 j
[] 0.0 d
10 M q 1 0 0 -1 0 1080 cm
683.633 471.574 m 683.633 474.25 681.488 476.398 678.809 476.398 c 676.156
 476.398 673.984 474.25 673.984 471.574 c 673.984 468.922 676.156 466.75
 678.809 466.75 c 681.488 466.75 683.633 468.922 683.633 471.574 c h
683.633 471.574 m S Q
  Q
Q
q
0 1079.43 1105 -1080 re W n
[ 1 0 0 1 0 -0.56958 ] concat
  q
0.266667 g
2.412512 w
2 J
0 j
[] 0.0 d
10 M q 1 0 0 -1 0 1080 cm
737.578 596.492 m 737.578 599.148 735.43 601.32 732.754 601.32 c 730.098
 601.32 727.926 599.148 727.926 596.492 c 727.926 593.816 730.098 591.668
 732.754 591.668 c 735.43 591.668 737.578 593.816 737.578 596.492 c h
737.578 596.492 m S Q
  Q
Q
q
0 1079.43 1105 -1080 re W n
[ 1 0 0 1 0 -0.56958 ] concat
  q
0.266667 g
2.412512 w
2 J
0 j
[] 0.0 d
10 M q 1 0 0 -1 0 1080 cm
504.793 426.145 m 504.793 428.824 502.648 430.973 499.969 430.973 c 497.316
 430.973 495.145 428.824 495.145 426.145 c 495.145 423.492 497.316 421.32
 499.969 421.32 c 502.648 421.32 504.793 423.492 504.793 426.145 c h
504.793 426.145 m S Q
  Q
Q
q
0 1079.43 1105 -1080 re W n
[ 1 0 0 1 0 -0.56958 ] concat
  q
0.266667 g
2.412512 w
2 J
0 j
[] 0.0 d
10 M q 1 0 0 -1 0 1080 cm
547.375 414.809 m 547.375 417.461 545.227 419.633 542.551 419.633 c 539.895
 419.633 537.727 417.461 537.727 414.809 c 537.727 412.129 539.895 409.98
 542.551 409.98 c 545.227 409.98 547.375 412.129 547.375 414.809 c h
547.375 414.809 m S Q
  Q
Q
q
0 1079.43 1105 -1080 re W n
[ 1 0 0 1 0 -0.56958 ] concat
  q
0.266667 g
2.412512 w
2 J
0 j
[] 0.0 d
10 M q 1 0 0 -1 0 1080 cm
425.324 369.379 m 425.324 372.059 423.156 374.203 420.5 374.203 c 417.824
 374.203 415.676 372.059 415.676 369.379 c 415.676 366.727 417.824 364.555
 420.5 364.555 c 423.156 364.555 425.324 366.727 425.324 369.379 c h
425.324 369.379 m S Q
  Q
Q
q
0 1079.43 1105 -1080 re W n
[ 1 0 0 1 0 -0.56958 ] concat
  q
0.266667 g
2.412512 w
2 J
0 j
[] 0.0 d
10 M q 1 0 0 -1 0 1080 cm
385.566 454.543 m 385.566 457.219 383.422 459.367 380.742 459.367 c 378.09
 459.367 375.918 457.219 375.918 454.543 c 375.918 451.887 378.09 449.715
 380.742 449.715 c 383.422 449.715 385.566 451.887 385.566 454.543 c h
385.566 454.543 m S Q
  Q
Q
q
0 1079.43 1105 -1080 re W n
[ 1 0 0 1 0 -0.56958 ] concat
  q
0.266667 g
2.412512 w
2 J
0 j
[] 0.0 d
10 M q 1 0 0 -1 0 1080 cm
456.543 434.664 m 456.543 437.34 454.371 439.488 451.719 439.488 c 449.039
 439.488 446.895 437.34 446.895 434.664 c 446.895 432.008 449.039 429.836
 451.719 429.836 c 454.371 429.836 456.543 432.008 456.543 434.664 c h
456.543 434.664 m S Q
  Q
Q
q
0 1079.43 1105 -1080 re W n
[ 1 0 0 1 0 -0.56958 ] concat
  q
0.266667 g
2.412512 w
2 J
0 j
[] 0.0 d
10 M q 1 0 0 -1 0 1080 cm
482.094 338.16 m 482.094 340.816 479.922 342.988 477.266 342.988 c 474.59
 342.988 472.441 340.816 472.441 338.16 c 472.441 335.484 474.59 333.336
 477.266 333.336 c 479.922 333.336 482.094 335.484 482.094 338.16 c h
482.094 338.16 m S Q
  Q
Q
q
0 1079.43 1105 -1080 re W n
[ 1 0 0 1 0 -0.56958 ] concat
  q
0.266667 g
2.412512 w
2 J
0 j
[] 0.0 d
10 M q 1 0 0 -1 0 1080 cm
277.703 403.445 m 277.703 406.121 275.531 408.27 272.879 408.27 c 270.203
 408.27 268.055 406.121 268.055 403.445 c 268.055 400.789 270.203 398.621
 272.879 398.621 c 275.531 398.621 277.703 400.789 277.703 403.445 c h
277.703 403.445 m S Q
  Q
Q
q
0 1079.43 1105 -1080 re W n
[ 1 0 0 1 0 -0.56958 ] concat
  q
0.266667 g
2.412512 w
2 J
0 j
[] 0.0 d
10 M q 1 0 0 -1 0 1080 cm
274.859 494.301 m 274.859 496.953 272.711 499.125 270.031 499.125 c 267.379
 499.125 265.207 496.953 265.207 494.301 c 265.207 491.621 267.379 489.477
 270.031 489.477 c 272.711 489.477 274.859 491.621 274.859 494.301 c h
274.859 494.301 m S Q
  Q
Q
q
0 1079.43 1105 -1080 re W n
[ 1 0 0 1 0 -0.56958 ] concat
  q
0.266667 g
2.412512 w
2 J
0 j
[] 0.0 d
10 M q 1 0 0 -1 0 1080 cm
340.141 440.355 m 340.141 443.008 337.992 445.18 335.316 445.18 c 332.66
 445.18 330.488 443.008 330.488 440.355 c 330.488 437.68 332.66 435.531 
335.316 435.531 c 337.992 435.531 340.141 437.68 340.141 440.355 c h
340.141 440.355 m S Q
  Q
Q
q
0 1079.43 1105 -1080 re W n
[ 1 0 0 1 0 -0.56958 ] concat
  q
0.266667 g
2.412512 w
2 J
0 j
[] 0.0 d
10 M q 1 0 0 -1 0 1080 cm
354.352 383.566 m 354.352 386.242 352.18 388.391 349.523 388.391 c 346.848
 388.391 344.699 386.242 344.699 383.566 c 344.699 380.91 346.848 378.742
 349.523 378.742 c 352.18 378.742 354.352 380.91 354.352 383.566 c h
354.352 383.566 m S Q
  Q
Q
q
0 1079.43 1105 -1080 re W n
[ 1 0 0 1 0 -0.56958 ] concat
  q
0.266667 g
2.412512 w
2 J
0 j
[] 0.0 d
10 M q 1 0 0 -1 0 1080 cm
232.277 551.066 m 232.277 553.719 230.129 555.891 227.453 555.891 c 224.797
 555.891 222.625 553.719 222.625 551.066 c 222.625 548.387 224.797 546.242
 227.453 546.242 c 230.129 546.242 232.277 548.387 232.277 551.066 c h
232.277 551.066 m S Q
  Q
Q
q
0 1079.43 1105 -1080 re W n
[ 1 0 0 1 0 -0.56958 ] concat
  q
0.266667 g
2.412512 w
2 J
0 j
[] 0.0 d
10 M q 1 0 0 -1 0 1080 cm
192.543 440.355 m 192.543 443.008 190.371 445.18 187.719 445.18 c 185.039
 445.18 182.891 443.008 182.891 440.355 c 182.891 437.68 185.039 435.531
 187.719 435.531 c 190.371 435.531 192.543 437.68 192.543 440.355 c h
192.543 440.355 m S Q
  Q
Q
q
0 1079.43 1105 -1080 re W n
[ 1 0 0 1 0 -0.56958 ] concat
  q
0.266667 g
2.412512 w
2 J
0 j
[] 0.0 d
10 M q 1 0 0 -1 0 1080 cm
223.762 349.5 m 223.762 352.18 221.613 354.324 218.934 354.324 c 216.281
 354.324 214.109 352.18 214.109 349.5 c 214.109 346.848 216.281 344.676 
218.934 344.676 c 221.613 344.676 223.762 346.848 223.762 349.5 c h
223.762 349.5 m S Q
  Q
Q
q
0 1079.43 1105 -1080 re W n
[ 1 0 0 1 0 -0.56958 ] concat
  q
0.266667 g
2.412512 w
2 J
0 j
[] 0.0 d
10 M q 1 0 0 -1 0 1080 cm
172.664 542.551 m 172.664 545.203 170.492 547.375 167.84 547.375 c 165.184
 547.375 163.012 545.203 163.012 542.551 c 163.012 539.871 165.184 537.727
 167.84 537.727 c 170.492 537.727 172.664 539.871 172.664 542.551 c h
172.664 542.551 m S Q
  Q
Q
q
0 1079.43 1105 -1080 re W n
[ 1 0 0 1 0 -0.56958 ] concat
  q
0.266667 g
2.412512 w
2 J
0 j
[] 0.0 d
10 M q 1 0 0 -1 0 1080 cm
132.93 656.106 m 132.93 658.762 130.758 660.934 128.105 660.934 c 125.426
 660.934 123.281 658.762 123.281 656.106 c 123.281 653.43 125.426 651.281
 128.105 651.281 c 130.758 651.281 132.93 653.43 132.93 656.106 c h
132.93 656.106 m S Q
  Q
Q
q
0 1079.43 1105 -1080 re W n
[ 1 0 0 1 0 -0.56958 ] concat
  q
0.266667 g
2.412512 w
2 J
0 j
[] 0.0 d
10 M q 1 0 0 -1 0 1080 cm
203.883 633.383 m 203.883 636.059 201.734 638.207 199.055 638.207 c 196.402
 638.207 194.23 636.059 194.23 633.383 c 194.23 630.727 196.402 628.555 
199.055 628.555 c 201.734 628.555 203.883 630.727 203.883 633.383 c h
203.883 633.383 m S Q
  Q
Q
q
0 1079.43 1105 -1080 re W n
[ 1 0 0 1 0 -0.56958 ] concat
  q
0.266667 g
2.412512 w
2 J
0 j
[] 0.0 d
10 M q 1 0 0 -1 0 1080 cm
161.301 712.875 m 161.301 715.527 159.152 717.699 156.477 717.699 c 153.82
 717.699 151.652 715.527 151.652 712.875 c 151.652 710.219 153.82 708.047
 156.477 708.047 c 159.152 708.047 161.301 710.219 161.301 712.875 c h
161.301 712.875 m S Q
  Q
Q
q
0 1079.43 1105 -1080 re W n
[ 1 0 0 1 0 -0.56958 ] concat
  q
0.266667 g
2.412512 w
2 J
0 j
[] 0.0 d
10 M q 1 0 0 -1 0 1080 cm
152.785 587.977 m 152.785 590.633 150.637 592.801 147.961 592.801 c 145.305
 592.801 143.133 590.633 143.133 587.977 c 143.133 585.301 145.305 583.152
 147.961 583.152 c 150.637 583.152 152.785 585.301 152.785 587.977 c h
152.785 587.977 m S Q
  Q
Q
q
0 1079.43 1105 -1080 re W n
[ 1 0 0 1 0 -0.56958 ] concat
  q
0.266667 g
2.412512 w
2 J
0 j
[] 0.0 d
10 M q 1 0 0 -1 0 1080 cm
348.656 312.613 m 348.656 315.266 346.508 317.438 343.832 317.438 c 341.176
 317.438 339.008 315.266 339.008 312.613 c 339.008 309.934 341.176 307.789
 343.832 307.789 c 346.508 307.789 348.656 309.934 348.656 312.613 c h
348.656 312.613 m S Q
  Q
Q
q
0 1079.43 1105 -1080 re W n
[ 1 0 0 1 0 -0.56958 ] concat
  q
0.266667 g
2.412512 w
2 J
0 j
[] 0.0 d
10 M q 1 0 0 -1 0 1080 cm
277.703 289.887 m 277.703 292.566 275.531 294.711 272.879 294.711 c 270.203
 294.711 268.055 292.566 268.055 289.887 c 268.055 287.234 270.203 285.063
 272.879 285.063 c 275.531 285.063 277.703 287.234 277.703 289.887 c h
277.703 289.887 m S Q
  Q
Q
q
0 1079.43 1105 -1080 re W n
[ 1 0 0 1 0 -0.56958 ] concat
  q
0.266667 g
2.412512 w
2 J
0 j
[] 0.0 d
10 M q 1 0 0 -1 0 1080 cm
405.445 264.34 m 405.445 267.016 403.277 269.164 400.621 269.164 c 397.945
 269.164 395.797 267.016 395.797 264.34 c 395.797 261.684 397.945 259.516
 400.621 259.516 c 403.277 259.516 405.445 261.684 405.445 264.34 c h
405.445 264.34 m S Q
  Q
Q
q
0 1079.43 1105 -1080 re W n
[ 1 0 0 1 0 -0.56958 ] concat
  q
0.266667 g
2.412512 w
2 J
0 j
[] 0.0 d
10 M q 1 0 0 -1 0 1080 cm
598.473 304.098 m 598.473 306.75 596.324 308.922 593.648 308.922 c 590.992
 308.922 588.82 306.75 588.82 304.098 c 588.82 301.418 590.992 299.273 593.648
 299.273 c 596.324 299.273 598.473 301.418 598.473 304.098 c h
598.473 304.098 m S Q
  Q
Q
q
0 1079.43 1105 -1080 re W n
[ 1 0 0 1 0 -0.56958 ] concat
  q
0.266667 g
2.412512 w
2 J
0 j
[] 0.0 d
10 M q 1 0 0 -1 0 1080 cm
516.156 272.855 m 516.156 275.531 513.984 277.68 511.332 277.68 c 508.652
 277.68 506.508 275.531 506.508 272.855 c 506.508 270.203 508.652 268.031
 511.332 268.031 c 513.984 268.031 516.156 270.203 516.156 272.855 c h
516.156 272.855 m S Q
  Q
Q
q
0 1079.43 1105 -1080 re W n
[ 1 0 0 1 0 -0.56958 ] concat
  q
0.266667 g
2.412512 w
2 J
0 j
[] 0.0 d
10 M q 1 0 0 -1 0 1080 cm
592.801 343.832 m 592.801 346.508 590.633 348.656 587.977 348.656 c 585.324
 348.656 583.152 346.508 583.152 343.832 c 583.152 341.176 585.324 339.008
 587.977 339.008 c 590.633 339.008 592.801 341.176 592.801 343.832 c h
592.801 343.832 m S Q
  Q
Q
q
0 1079.43 1105 -1080 re W n
[ 1 0 0 1 0 -0.56958 ] concat
  q
0.266667 g
2.412512 w
2 J
0 j
[] 0.0 d
10 M q 1 0 0 -1 0 1080 cm
666.602 349.5 m 666.602 352.18 664.453 354.324 661.777 354.324 c 659.121
 354.324 656.953 352.18 656.953 349.5 c 656.953 346.848 659.121 344.676 
661.777 344.676 c 664.453 344.676 666.602 346.848 666.602 349.5 c h
666.602 349.5 m S Q
  Q
Q
q
0 1079.43 1105 -1080 re W n
[ 1 0 0 1 0 -0.56958 ] concat
  q
0.266667 g
2.412512 w
2 J
0 j
[] 0.0 d
10 M q 1 0 0 -1 0 1080 cm
697.844 400.598 m 697.844 403.277 695.672 405.422 693.02 405.422 c 690.34
 405.422 688.191 403.277 688.191 400.598 c 688.191 397.945 690.34 395.773
 693.02 395.773 c 695.672 395.773 697.844 397.945 697.844 400.598 c h
697.844 400.598 m S Q
  Q
Q
q
0 1079.43 1105 -1080 re W n
[ 1 0 0 1 0 -0.56958 ] concat
  q
0.266667 g
2.412512 w
2 J
0 j
[] 0.0 d
10 M q 1 0 0 -1 0 1080 cm
113.051 233.121 m 113.051 235.773 110.879 237.945 108.227 237.945 c 105.57
 237.945 103.398 235.773 103.398 233.121 c 103.398 230.469 105.57 228.297
 108.227 228.297 c 110.879 228.297 113.051 230.469 113.051 233.121 c h
113.051 233.121 m S Q
  Q
Q
q
0 1079.43 1105 -1080 re W n
[ 1 0 0 1 0 -0.56958 ] concat
  q
0.266667 g
2.412512 w
2 J
0 j
[] 0.0 d
10 M q 1 0 0 -1 0 1080 cm
229.43 264.34 m 229.43 267.016 227.281 269.164 224.605 269.164 c 221.949
 269.164 219.781 267.016 219.781 264.34 c 219.781 261.684 221.949 259.516
 224.605 259.516 c 227.281 259.516 229.43 261.684 229.43 264.34 c h
229.43 264.34 m S Q
  Q
Q
q
0 1079.43 1105 -1080 re W n
[ 1 0 0 1 0 -0.56958 ] concat
  q
0.266667 g
2.412512 w
2 J
0 j
[] 0.0 d
10 M q 1 0 0 -1 0 1080 cm
184.027 289.887 m 184.027 292.566 181.855 294.711 179.203 294.711 c 176.523
 294.711 174.375 292.566 174.375 289.887 c 174.375 287.234 176.523 285.063
 179.203 285.063 c 181.855 285.063 184.027 287.234 184.027 289.887 c h
184.027 289.887 m S Q
  Q
Q
q
0 1079.43 1105 -1080 re W n
[ 1 0 0 1 0 -0.56958 ] concat
  q
0.266667 g
2.412512 w
2 J
0 j
[] 0.0 d
10 M q 1 0 0 -1 0 1080 cm
115.898 369.379 m 115.898 372.059 113.727 374.203 111.07 374.203 c 108.395
 374.203 106.246 372.059 106.246 369.379 c 106.246 366.727 108.395 364.555
 111.07 364.555 c 113.727 364.555 115.898 366.727 115.898 369.379 c h
115.898 369.379 m S Q
  Q
Q
q
0 1079.43 1105 -1080 re W n
[ 1 0 0 1 0 -0.56958 ] concat
  q
0.266667 g
2.412512 w
2 J
0 j
[] 0.0 d
10 M q 1 0 0 -1 0 1080 cm
192.543 213.242 m 192.543 215.922 190.371 218.066 187.719 218.066 c 185.039
 218.066 182.891 215.922 182.891 213.242 c 182.891 210.59 185.039 208.418
 187.719 208.418 c 190.371 208.418 192.543 210.59 192.543 213.242 c h
192.543 213.242 m S Q
  Q
Q
q
0 1079.43 1105 -1080 re W n
[ 1 0 0 1 0 -0.56958 ] concat
  q
0.266667 g
2.412512 w
2 J
0 j
[] 0.0 d
10 M q 1 0 0 -1 0 1080 cm
274.859 218.938 m 274.859 221.59 272.711 223.762 270.031 223.762 c 267.379
 223.762 265.207 221.59 265.207 218.938 c 265.207 216.258 267.379 214.109
 270.031 214.109 c 272.711 214.109 274.859 216.258 274.859 218.938 c h
274.859 218.938 m S Q
  Q
Q
q
0 1079.43 1105 -1080 re W n
[ 1 0 0 1 0 -0.56958 ] concat
  q
0.266667 g
2.412512 w
2 J
0 j
[] 0.0 d
10 M q 1 0 0 -1 0 1080 cm
345.832 196.211 m 345.832 198.887 343.664 201.035 341.008 201.035 c 338.332
 201.035 336.184 198.887 336.184 196.211 c 336.184 193.555 338.332 191.383
 341.008 191.383 c 343.664 191.383 345.832 193.555 345.832 196.211 c h
345.832 196.211 m S Q
  Q
Q
q
0 1079.43 1105 -1080 re W n
[ 1 0 0 1 0 -0.56958 ] concat
  q
0.266667 g
2.412512 w
2 J
0 j
[] 0.0 d
10 M q 1 0 0 -1 0 1080 cm
237.945 111.047 m 237.945 113.727 235.801 115.875 233.121 115.875 c 230.469
 115.875 228.297 113.727 228.297 111.047 c 228.297 108.395 230.469 106.223
 233.121 106.223 c 235.801 106.223 237.945 108.395 237.945 111.047 c h
237.945 111.047 m S Q
  Q
Q
q
0 1079.43 1105 -1080 re W n
[ 1 0 0 1 0 -0.56958 ] concat
  q
0.266667 g
2.412512 w
2 J
0 j
[] 0.0 d
10 M q 1 0 0 -1 0 1080 cm
308.922 253 m 308.922 255.652 306.773 257.824 304.098 257.824 c 301.445
 257.824 299.273 255.652 299.273 253 c 299.273 250.324 301.445 248.176 304.098
 248.176 c 306.773 248.176 308.922 250.324 308.922 253 c h
308.922 253 m S Q
  Q
Q
q
0 1079.43 1105 -1080 re W n
[ 1 0 0 1 0 -0.56958 ] concat
  q
0.266667 g
2.412512 w
2 J
0 j
[] 0.0 d
10 M q 1 0 0 -1 0 1080 cm
283.375 150.805 m 283.375 153.461 281.227 155.633 278.547 155.633 c 275.895
 155.633 273.723 153.461 273.723 150.805 c 273.723 148.129 275.895 145.98
 278.547 145.98 c 281.227 145.98 283.375 148.129 283.375 150.805 c h
283.375 150.805 m S Q
  Q
Q
q
0 1079.43 1105 -1080 re W n
[ 1 0 0 1 0 -0.56958 ] concat
  q
0.266667 g
2.412512 w
2 J
0 j
[] 0.0 d
10 M q 1 0 0 -1 0 1080 cm
101.688 136.598 m 101.688 139.273 99.539 141.422 96.863 141.422 c 94.207
 141.422 92.039 139.273 92.039 136.598 c 92.039 133.941 94.207 131.773 96.863
 131.773 c 99.539 131.773 101.688 133.941 101.688 136.598 c h
101.688 136.598 m S Q
  Q
Q
q
0 1079.43 1105 -1080 re W n
[ 1 0 0 1 0 -0.56958 ] concat
  q
0.266667 g
2.412512 w
2 J
0 j
[] 0.0 d
10 M q 1 0 0 -1 0 1080 cm
161.301 91.191 m 161.301 93.848 159.152 96.02 156.477 96.02 c 153.82 96.02
 151.652 93.848 151.652 91.191 c 151.652 88.516 153.82 86.367 156.477 86.367
 c 159.152 86.367 161.301 88.516 161.301 91.191 c h
161.301 91.191 m S Q
  Q
Q
q
0 1079.43 1105 -1080 re W n
[ 1 0 0 1 0 -0.56958 ] concat
  q
0.266667 g
2.412512 w
2 J
0 j
[] 0.0 d
10 M q 1 0 0 -1 0 1080 cm
158.477 167.84 m 158.477 170.492 156.309 172.664 153.652 172.664 c 150.977
 172.664 148.828 170.492 148.828 167.84 c 148.828 165.16 150.977 163.012
 153.652 163.012 c 156.309 163.012 158.477 165.16 158.477 167.84 c h
158.477 167.84 m S Q
  Q
Q
q
0 1079.43 1105 -1080 re W n
[ 1 0 0 1 0 -0.56958 ] concat
  q
0.266667 g
2.412512 w
2 J
0 j
[] 0.0 d
10 M q 1 0 0 -1 0 1080 cm
93.172 428.992 m 93.172 431.672 91.023 433.816 88.348 433.816 c 85.691 
433.816 83.52 431.672 83.52 428.992 c 83.52 426.34 85.691 424.168 88.348
 424.168 c 91.023 424.168 93.172 426.34 93.172 428.992 c h
93.172 428.992 m S Q
  Q
Q
q
0 1079.43 1105 -1080 re W n
[ 1 0 0 1 0 -0.56958 ] concat
  q
0.266667 g
2.412512 w
2 J
0 j
[] 0.0 d
10 M q 1 0 0 -1 0 1080 cm
115.898 531.188 m 115.898 533.863 113.727 536.012 111.07 536.012 c 108.395
 536.012 106.246 533.863 106.246 531.188 c 106.246 528.535 108.395 526.363
 111.07 526.363 c 113.727 526.363 115.898 528.535 115.898 531.188 c h
115.898 531.188 m S Q
  Q
Q
q
0 1079.43 1105 -1080 re W n
[ 1 0 0 1 0 -0.56958 ] concat
  q
0.266667 g
2.412512 w
2 J
0 j
[] 0.0 d
10 M q 1 0 0 -1 0 1080 cm
439.512 142.289 m 439.512 144.945 437.34 147.113 434.688 147.113 c 432.008
 147.113 429.863 144.945 429.863 142.289 c 429.863 139.613 432.008 137.465
 434.688 137.465 c 437.34 137.465 439.512 139.613 439.512 142.289 c h
439.512 142.289 m S Q
  Q
Q
q
0 1079.43 1105 -1080 re W n
[ 1 0 0 1 0 -0.56958 ] concat
  q
0.266667 g
2.412512 w
2 J
0 j
[] 0.0 d
10 M q 1 0 0 -1 0 1080 cm
510.488 196.211 m 510.488 198.887 508.316 201.035 505.664 201.035 c 502.984
 201.035 500.836 198.887 500.836 196.211 c 500.836 193.555 502.984 191.383
 505.664 191.383 c 508.316 191.383 510.488 193.555 510.488 196.211 c h
510.488 196.211 m S Q
  Q
Q
q
0 1079.43 1105 -1080 re W n
[ 1 0 0 1 0 -0.56958 ] concat
  q
0.266667 g
2.412512 w
2 J
0 j
[] 0.0 d
10 M q 1 0 0 -1 0 1080 cm
436.664 213.242 m 436.664 215.922 434.52 218.066 431.84 218.066 c 429.188
 218.066 427.016 215.922 427.016 213.242 c 427.016 210.59 429.188 208.418
 431.84 208.418 c 434.52 208.418 436.664 210.59 436.664 213.242 c h
436.664 213.242 m S Q
  Q
Q
q
0 1079.43 1105 -1080 re W n
[ 1 0 0 1 0 -0.56958 ] concat
  q
0.266667 g
2.412512 w
2 J
0 j
[] 0.0 d
10 M q 1 0 0 -1 0 1080 cm
450.875 65.645 m 450.875 68.297 448.703 70.469 446.051 70.469 c 443.371
 70.469 441.223 68.297 441.223 65.645 c 441.223 62.965 443.371 60.82 446.051
 60.82 c 448.703 60.82 450.875 62.965 450.875 65.645 c h
450.875 65.645 m S Q
  Q
Q
q
0 1079.43 1105 -1080 re W n
[ 1 0 0 1 0 -0.56958 ] concat
  q
0.266667 g
2.412512 w
2 J
0 j
[] 0.0 d
10 M q 1 0 0 -1 0 1080 cm
504.793 91.191 m 504.793 93.848 502.648 96.02 499.969 96.02 c 497.316 96.02
 495.145 93.848 495.145 91.191 c 495.145 88.516 497.316 86.367 499.969 86.367
 c 502.648 86.367 504.793 88.516 504.793 91.191 c h
504.793 91.191 m S Q
  Q
Q
q
0 1079.43 1105 -1080 re W n
[ 1 0 0 1 0 -0.56958 ] concat
  q
0.266667 g
2.412512 w
2 J
0 j
[] 0.0 d
10 M q 1 0 0 -1 0 1080 cm
501.973 6.031 m 501.973 8.684 499.801 10.855 497.145 10.855 c 494.469 10.855
 492.32 8.684 492.32 6.031 c 492.32 3.352 494.469 1.207 497.145 1.207 c 
499.801 1.207 501.973 3.352 501.973 6.031 c h
501.973 6.031 m S Q
  Q
Q
q
0 1079.43 1105 -1080 re W n
[ 1 0 0 1 0 -0.56958 ] concat
  q
0.266667 g
2.412512 w
2 J
0 j
[] 0.0 d
10 M q 1 0 0 -1 0 1080 cm
618.352 6.031 m 618.352 8.684 616.18 10.855 613.527 10.855 c 610.871 10.855
 608.699 8.684 608.699 6.031 c 608.699 3.352 610.871 1.207 613.527 1.207
 c 616.18 1.207 618.352 3.352 618.352 6.031 c h
618.352 6.031 m S Q
  Q
Q
q
0 1079.43 1105 -1080 re W n
[ 1 0 0 1 0 -0.56958 ] concat
  q
0.266667 g
2.412512 w
2 J
0 j
[] 0.0 d
10 M q 1 0 0 -1 0 1080 cm
561.586 45.766 m 561.586 48.418 559.414 50.59 556.758 50.59 c 554.082 50.59
 551.934 48.418 551.934 45.766 c 551.934 43.086 554.082 40.941 556.758 40.941
 c 559.414 40.941 561.586 43.086 561.586 45.766 c h
561.586 45.766 m S Q
  Q
Q
q
0 1079.43 1105 -1080 re W n
[ 1 0 0 1 0 -0.56958 ] concat
  q
0.266667 g
2.412512 w
2 J
0 j
[] 0.0 d
10 M q 1 0 0 -1 0 1080 cm
672.293 147.961 m 672.293 150.613 670.125 152.785 667.469 152.785 c 664.793
 152.785 662.645 150.613 662.645 147.961 c 662.645 145.305 664.793 143.133
 667.469 143.133 c 670.125 143.133 672.293 145.305 672.293 147.961 c h
672.293 147.961 m S Q
  Q
Q
q
0 1079.43 1105 -1080 re W n
[ 1 0 0 1 0 -0.56958 ] concat
  q
0.266667 g
2.412512 w
2 J
0 j
[] 0.0 d
10 M q 1 0 0 -1 0 1080 cm
643.898 213.242 m 643.898 215.922 641.727 218.066 639.074 218.066 c 636.422
 218.066 634.25 215.922 634.25 213.242 c 634.25 210.59 636.422 208.418 639.074
 208.418 c 641.727 208.418 643.898 210.59 643.898 213.242 c h
643.898 213.242 m S Q
  Q
Q
q
0 1079.43 1105 -1080 re W n
[ 1 0 0 1 0 -0.56958 ] concat
  q
0.266667 g
2.412512 w
2 J
0 j
[] 0.0 d
10 M q 1 0 0 -1 0 1080 cm
592.801 162.145 m 592.801 164.824 590.633 166.969 587.977 166.969 c 585.324
 166.969 583.152 164.824 583.152 162.145 c 583.152 159.492 585.324 157.32
 587.977 157.32 c 590.633 157.32 592.801 159.492 592.801 162.145 c h
592.801 162.145 m S Q
  Q
Q
q
0 1079.43 1105 -1080 re W n
[ 1 0 0 1 0 -0.56958 ] concat
  q
0.266667 g
2.412512 w
2 J
0 j
[] 0.0 d
10 M q 1 0 0 -1 0 1080 cm
581.441 207.574 m 581.441 210.227 579.293 212.398 576.613 212.398 c 573.961
 212.398 571.789 210.227 571.789 207.574 c 571.789 204.918 573.961 202.746
 576.613 202.746 c 579.293 202.746 581.441 204.918 581.441 207.574 c h
581.441 207.574 m S Q
  Q
Q
q
0 1079.43 1105 -1080 re W n
[ 1 0 0 1 0 -0.56958 ] concat
  q
0.266667 g
2.412512 w
2 J
0 j
[] 0.0 d
10 M q 1 0 0 -1 0 1080 cm
626.867 85.5 m 626.867 88.176 624.695 90.324 622.043 90.324 c 619.387 90.324
 617.219 88.176 617.219 85.5 c 617.219 82.848 619.387 80.676 622.043 80.676
 c 624.695 80.676 626.867 82.848 626.867 85.5 c h
626.867 85.5 m S Q
  Q
Q
q
0 1079.43 1105 -1080 re W n
[ 1 0 0 1 0 -0.56958 ] concat
  q
0.266667 g
2.412512 w
2 J
0 j
[] 0.0 d
10 M q 1 0 0 -1 0 1080 cm
683.633 65.645 m 683.633 68.297 681.488 70.469 678.809 70.469 c 676.156
 70.469 673.984 68.297 673.984 65.645 c 673.984 62.965 676.156 60.82 678.809
 60.82 c 681.488 60.82 683.633 62.965 683.633 65.645 c h
683.633 65.645 m S Q
  Q
Q
q
0 1079.43 1105 -1080 re W n
[ 1 0 0 1 0 -0.56958 ] concat
  q
0.266667 g
2.412512 w
2 J
0 j
[] 0.0 d
10 M q 1 0 0 -1 0 1080 cm
768.797 394.93 m 768.797 397.605 766.648 399.754 763.969 399.754 c 761.316
 399.754 759.145 397.605 759.145 394.93 c 759.145 392.273 761.316 390.102
 763.969 390.102 c 766.648 390.102 768.797 392.273 768.797 394.93 c h
768.797 394.93 m S Q
  Q
Q
q
0 1079.43 1105 -1080 re W n
[ 1 0 0 1 0 -0.56958 ] concat
  q
0.266667 g
2.412512 w
2 J
0 j
[] 0.0 d
10 M q 1 0 0 -1 0 1080 cm
768.797 480.09 m 768.797 482.77 766.648 484.914 763.969 484.914 c 761.316
 484.914 759.145 482.77 759.145 480.09 c 759.145 477.438 761.316 475.266
 763.969 475.266 c 766.648 475.266 768.797 477.438 768.797 480.09 c h
768.797 480.09 m S Q
  Q
Q
q
0 1079.43 1105 -1080 re W n
[ 1 0 0 1 0 -0.56958 ] concat
  q
0.266667 g
2.412512 w
2 J
0 j
[] 0.0 d
10 M q 1 0 0 -1 0 1080 cm
845.441 389.258 m 845.441 391.914 843.293 394.082 840.617 394.082 c 837.961
 394.082 835.789 391.914 835.789 389.258 c 835.789 386.582 837.961 384.434
 840.617 384.434 c 843.293 384.434 845.441 386.582 845.441 389.258 c h
845.441 389.258 m S Q
  Q
Q
q
0 1079.43 1105 -1080 re W n
[ 1 0 0 1 0 -0.56958 ] concat
  q
0.266667 g
2.412512 w
2 J
0 j
[] 0.0 d
10 M q 1 0 0 -1 0 1080 cm
845.441 298.402 m 845.441 301.082 843.293 303.23 840.617 303.23 c 837.961
 303.23 835.789 301.082 835.789 298.402 c 835.789 295.75 837.961 293.578
 840.617 293.578 c 843.293 293.578 845.441 295.75 845.441 298.402 c h
845.441 298.402 m S Q
  Q
Q
q
0 1079.43 1105 -1080 re W n
[ 1 0 0 1 0 -0.56958 ] concat
  q
0.266667 g
2.412512 w
2 J
0 j
[] 0.0 d
10 M q 1 0 0 -1 0 1080 cm
763.125 343.832 m 763.125 346.508 760.98 348.656 758.301 348.656 c 755.648
 348.656 753.477 346.508 753.477 343.832 c 753.477 341.176 755.648 339.008
 758.301 339.008 c 760.98 339.008 763.125 341.176 763.125 343.832 c h
763.125 343.832 m S Q
  Q
Q
q
0 1079.43 1105 -1080 re W n
[ 1 0 0 1 0 -0.56958 ] concat
  q
0.266667 g
2.412512 w
2 J
0 j
[] 0.0 d
10 M q 1 0 0 -1 0 1080 cm
783.004 267.188 m 783.004 269.863 780.832 272.012 778.18 272.012 c 775.504
 272.012 773.355 269.863 773.355 267.188 c 773.355 264.531 775.504 262.359
 778.18 262.359 c 780.832 262.359 783.004 264.531 783.004 267.188 c h
783.004 267.188 m S Q
  Q
Q
q
0 1079.43 1105 -1080 re W n
[ 1 0 0 1 0 -0.56958 ] concat
  q
0.266667 g
2.412512 w
2 J
0 j
[] 0.0 d
10 M q 1 0 0 -1 0 1080 cm
859.652 440.355 m 859.652 443.008 857.48 445.18 854.824 445.18 c 852.148
 445.18 850 443.008 850 440.355 c 850 437.68 852.148 435.531 854.824 435.531
 c 857.48 435.531 859.652 437.68 859.652 440.355 c h
859.652 440.355 m S Q
  Q
Q
q
0 1079.43 1105 -1080 re W n
[ 1 0 0 1 0 -0.56958 ] concat
  q
0.266667 g
2.412512 w
2 J
0 j
[] 0.0 d
10 M q 1 0 0 -1 0 1080 cm
805.707 536.879 m 805.707 539.535 803.559 541.707 800.883 541.707 c 798.227
 541.707 796.059 539.535 796.059 536.879 c 796.059 534.203 798.227 532.055
 800.883 532.055 c 803.559 532.055 805.707 534.203 805.707 536.879 c h
805.707 536.879 m S Q
  Q
Q
q
0 1079.43 1105 -1080 re W n
[ 1 0 0 1 0 -0.56958 ] concat
  q
0.266667 g
2.412512 w
2 J
0 j
[] 0.0 d
10 M q 1 0 0 -1 0 1080 cm
919.262 338.16 m 919.262 340.816 917.094 342.988 914.438 342.988 c 911.762
 342.988 909.613 340.816 909.613 338.16 c 909.613 335.484 911.762 333.336
 914.438 333.336 c 917.094 333.336 919.262 335.484 919.262 338.16 c h
919.262 338.16 m S Q
  Q
Q
q
0 1079.43 1105 -1080 re W n
[ 1 0 0 1 0 -0.56958 ] concat
  q
0.266667 g
2.412512 w
2 J
0 j
[] 0.0 d
10 M q 1 0 0 -1 0 1080 cm
905.055 400.598 m 905.055 403.277 902.906 405.422 900.23 405.422 c 897.574
 405.422 895.402 403.277 895.402 400.598 c 895.402 397.945 897.574 395.773
 900.23 395.773 c 902.906 395.773 905.055 397.945 905.055 400.598 c h
905.055 400.598 m S Q
  Q
Q
q
0 1079.43 1105 -1080 re W n
[ 1 0 0 1 0 -0.56958 ] concat
  q
0.266667 g
2.412512 w
2 J
0 j
[] 0.0 d
10 M q 1 0 0 -1 0 1080 cm
794.344 627.711 m 794.344 630.367 792.195 632.535 789.52 632.535 c 786.863
 632.535 784.695 630.367 784.695 627.711 c 784.695 625.035 786.863 622.887
 789.52 622.887 c 792.195 622.887 794.344 625.035 794.344 627.711 c h
794.344 627.711 m S Q
  Q
Q
q
0 1079.43 1105 -1080 re W n
[ 1 0 0 1 0 -0.56958 ] concat
  q
0.266667 g
2.412512 w
2 J
0 j
[] 0.0 d
10 M q 1 0 0 -1 0 1080 cm
834.102 193.387 m 834.102 196.039 831.93 198.211 829.277 198.211 c 826.598
 198.211 824.453 196.039 824.453 193.387 c 824.453 190.711 826.598 188.563
 829.277 188.563 c 831.93 188.563 834.102 190.711 834.102 193.387 c h
834.102 193.387 m S Q
  Q
Q
q
0 1079.43 1105 -1080 re W n
[ 1 0 0 1 0 -0.56958 ] concat
  q
0.266667 g
2.412512 w
2 J
0 j
[] 0.0 d
10 M q 1 0 0 -1 0 1080 cm
905.055 213.242 m 905.055 215.922 902.906 218.066 900.23 218.066 c 897.574
 218.066 895.402 215.922 895.402 213.242 c 895.402 210.59 897.574 208.418
 900.23 208.418 c 902.906 208.418 905.055 210.59 905.055 213.242 c h
905.055 213.242 m S Q
  Q
Q
q
0 1079.43 1105 -1080 re W n
[ 1 0 0 1 0 -0.56958 ] concat
  q
0.266667 g
2.412512 w
2 J
0 j
[] 0.0 d
10 M q 1 0 0 -1 0 1080 cm
930.625 267.188 m 930.625 269.863 928.457 272.012 925.801 272.012 c 923.125
 272.012 920.977 269.863 920.977 267.188 c 920.977 264.531 923.125 262.359
 925.801 262.359 c 928.457 262.359 930.625 264.531 930.625 267.188 c h
930.625 267.188 m S Q
  Q
Q
q
0 1079.43 1105 -1080 re W n
[ 1 0 0 1 0 -0.56958 ] concat
  q
0.266667 g
2.412512 w
2 J
0 j
[] 0.0 d
10 M q 1 0 0 -1 0 1080 cm
67.621 57.129 m 67.621 59.781 65.477 61.953 62.797 61.953 c 60.145 61.953
 57.973 59.781 57.973 57.129 c 57.973 54.449 60.145 52.305 62.797 52.305
 c 65.477 52.305 67.621 54.449 67.621 57.129 c h
67.621 57.129 m S Q
  Q
Q
q
0 1079.43 1105 -1080 re W n
[ 1 0 0 1 0 -0.56958 ] concat
  q
0.266667 g
2.412512 w
2 J
0 j
[] 0.0 d
10 M q 1 0 0 -1 0 1080 cm
10.855 128.082 m 10.855 130.758 8.684 132.906 6.031 132.906 c 3.352 132.906
 1.207 130.758 1.207 128.082 c 1.207 125.426 3.352 123.254 6.031 123.254
 c 8.684 123.254 10.855 125.426 10.855 128.082 c h
10.855 128.082 m S Q
  Q
Q
q
0 1079.43 1105 -1080 re W n
[ 1 0 0 1 0 -0.56958 ] concat
  q
0.266667 g
2.412512 w
2 J
0 j
[] 0.0 d
10 M q 1 0 0 -1 0 1080 cm
36.406 173.508 m 36.406 176.16 34.234 178.332 31.578 178.332 c 28.902 178.332
 26.754 176.16 26.754 173.508 c 26.754 170.855 28.902 168.684 31.578 168.684
 c 34.234 168.684 36.406 170.855 36.406 173.508 c h
36.406 173.508 m S Q
  Q
Q
q
0 1079.43 1105 -1080 re W n
[ 1 0 0 1 0 -0.56958 ] concat
  q
0.266667 g
2.412512 w
2 J
0 j
[] 0.0 d
10 M q 1 0 0 -1 0 1080 cm
113.051 11.699 m 113.051 14.355 110.879 16.527 108.227 16.527 c 105.57 
16.527 103.398 14.355 103.398 11.699 c 103.398 9.023 105.57 6.875 108.227
 6.875 c 110.879 6.875 113.051 9.023 113.051 11.699 c h
113.051 11.699 m S Q
  Q
Q
q
0 1079.43 1105 -1080 re W n
[ 1 0 0 1 0 -0.56958 ] concat
  q
0.266667 g
2.412512 w
2 J
0 j
[] 0.0 d
10 M q 1 0 0 -1 0 1080 cm
206.727 11.699 m 206.727 14.355 204.582 16.527 201.902 16.527 c 199.25 
16.527 197.078 14.355 197.078 11.699 c 197.078 9.023 199.25 6.875 201.902
 6.875 c 204.582 6.875 206.727 9.023 206.727 11.699 c h
206.727 11.699 m S Q
  Q
Q
q
0 1079.43 1105 -1080 re W n
[ 1 0 0 1 0 -0.56958 ] concat
  q
0.266667 g
2.412512 w
2 J
0 j
[] 0.0 d
10 M q 1 0 0 -1 0 1080 cm
558.738 111.047 m 558.738 113.727 556.566 115.875 553.914 115.875 c 551.234
 115.875 549.086 113.727 549.086 111.047 c 549.086 108.395 551.234 106.223
 553.914 106.223 c 556.566 106.223 558.738 108.395 558.738 111.047 c h
558.738 111.047 m S Q
  Q
Q
q
0 1079.43 1105 -1080 re W n
[ 1 0 0 1 0 -0.56958 ] concat
  q
0 0.6 0 rg
600.039 917.855 m 600.039 911.195 594.637 905.793 587.977 905.793 c 581.32
 905.793 575.914 911.195 575.914 917.855 c 575.914 924.512 581.32 929.918
 587.977 929.918 c 594.637 929.918 600.039 924.512 600.039 917.855 c h
600.039 917.855 m f
  Q
Q
q
0 1079.43 1105 -1080 re W n
[ 1 0 0 1 0 -0.56958 ] concat
  q
0 g
2.412512 w
1 J
1 j
[] 0.0 d
10 M q 1 0 0 -1 0 1080 cm
600.039 162.145 m 600.039 168.805 594.637 174.207 587.977 174.207 c 581.32
 174.207 575.914 168.805 575.914 162.145 c 575.914 155.488 581.32 150.082
 587.977 150.082 c 594.637 150.082 600.039 155.488 600.039 162.145 c h
600.039 162.145 m S Q
  Q
Q
q
0 1079.43 1105 -1080 re W n
[ 1 0 0 1 0 -0.56958 ] concat
  q
0 0.6 0 rg
517.727 883.789 m 517.727 877.133 512.32 871.727 505.664 871.727 c 498.98
 871.727 493.602 877.133 493.602 883.789 c 493.602 890.449 498.98 895.852
 505.664 895.852 c 512.32 895.852 517.727 890.449 517.727 883.789 c h
517.727 883.789 m f
  Q
Q
q
0 1079.43 1105 -1080 re W n
[ 1 0 0 1 0 -0.56958 ] concat
  q
0 g
2.412512 w
1 J
1 j
[] 0.0 d
10 M q 1 0 0 -1 0 1080 cm
517.727 196.211 m 517.727 202.867 512.32 208.273 505.664 208.273 c 498.98
 208.273 493.602 202.867 493.602 196.211 c 493.602 189.551 498.98 184.148
 505.664 184.148 c 512.32 184.148 517.727 189.551 517.727 196.211 c h
517.727 196.211 m S Q
  Q
Q
q
0 1079.43 1105 -1080 re W n
[ 1 0 0 1 0 -0.56958 ] concat
  q
0 0.6 0 rg
523.395 807.145 m 523.395 800.461 517.992 795.082 511.332 795.082 c 504.672
 795.082 499.27 800.461 499.27 807.145 c 499.27 813.805 504.672 819.207 
511.332 819.207 c 517.992 819.207 523.395 813.805 523.395 807.145 c h
523.395 807.145 m f
  Q
Q
q
0 1079.43 1105 -1080 re W n
[ 1 0 0 1 0 -0.56958 ] concat
  q
0 g
2.412512 w
1 J
1 j
[] 0.0 d
10 M q 1 0 0 -1 0 1080 cm
523.395 272.855 m 523.395 279.539 517.992 284.918 511.332 284.918 c 504.672
 284.918 499.27 279.539 499.27 272.855 c 499.27 266.195 504.672 260.793 
511.332 260.793 c 517.992 260.793 523.395 266.195 523.395 272.855 c h
523.395 272.855 m S Q
  Q
Q
q
0 1079.43 1105 -1080 re W n
[ 1 0 0 1 0 -0.56958 ] concat
  q
0 0.6 0 rg
600.039 736.168 m 600.039 729.512 594.637 724.105 587.977 724.105 c 581.32
 724.105 575.914 729.512 575.914 736.168 c 575.914 742.828 581.32 748.23
 587.977 748.23 c 594.637 748.23 600.039 742.828 600.039 736.168 c h
600.039 736.168 m f
  Q
Q
q
0 1079.43 1105 -1080 re W n
[ 1 0 0 1 0 -0.56958 ] concat
  q
0 g
2.412512 w
1 J
1 j
[] 0.0 d
10 M q 1 0 0 -1 0 1080 cm
600.039 343.832 m 600.039 350.488 594.637 355.895 587.977 355.895 c 581.32
 355.895 575.914 350.488 575.914 343.832 c 575.914 337.172 581.32 331.77
 587.977 331.77 c 594.637 331.77 600.039 337.172 600.039 343.832 c h
600.039 343.832 m S Q
  Q
Q
q
0 1079.43 1105 -1080 re W n
[ 1 0 0 1 0 -0.56958 ] concat
  q
0 0.6 0 rg
628.434 651.008 m 628.434 644.348 623.031 638.945 616.371 638.945 c 609.715
 638.945 604.309 644.348 604.309 651.008 c 604.309 657.664 609.715 663.07
 616.371 663.07 c 623.031 663.07 628.434 657.664 628.434 651.008 c h
628.434 651.008 m f
  Q
Q
q
0 1079.43 1105 -1080 re W n
[ 1 0 0 1 0 -0.56958 ] concat
  q
0 g
2.412512 w
1 J
1 j
[] 0.0 d
10 M q 1 0 0 -1 0 1080 cm
628.434 428.992 m 628.434 435.652 623.031 441.055 616.371 441.055 c 609.715
 441.055 604.309 435.652 604.309 428.992 c 604.309 422.336 609.715 416.93
 616.371 416.93 c 623.031 416.93 628.434 422.336 628.434 428.992 c h
628.434 428.992 m S Q
  Q
Q
q
0 1079.43 1105 -1080 re W n
[ 1 0 0 1 0 -0.56958 ] concat
  q
0 0.6 0 rg
651.137 551.637 m 651.137 544.977 645.734 539.574 639.074 539.574 c 632.414
 539.574 627.012 544.977 627.012 551.637 c 627.012 558.316 632.414 563.699
 639.074 563.699 c 645.734 563.699 651.137 558.316 651.137 551.637 c h
651.137 551.637 m f
  Q
Q
q
0 1079.43 1105 -1080 re W n
[ 1 0 0 1 0 -0.56958 ] concat
  q
0 g
2.412512 w
1 J
1 j
[] 0.0 d
10 M q 1 0 0 -1 0 1080 cm
651.137 528.363 m 651.137 535.023 645.734 540.426 639.074 540.426 c 632.414
 540.426 627.012 535.023 627.012 528.363 c 627.012 521.684 632.414 516.301
 639.074 516.301 c 645.734 516.301 651.137 521.684 651.137 528.363 c h
651.137 528.363 m S Q
  Q
Q
q
0 1079.43 1105 -1080 re W n
[ 1 0 0 1 0 -0.56958 ] concat
  q
0 0.6 0 rg
659.652 489.199 m 659.652 482.543 654.25 477.137 647.59 477.137 c 640.934
 477.137 635.527 482.543 635.527 489.199 c 635.527 495.859 640.934 501.262
 647.59 501.262 c 654.25 501.262 659.652 495.859 659.652 489.199 c h
659.652 489.199 m f
  Q
Q
q
0 1079.43 1105 -1080 re W n
[ 1 0 0 1 0 -0.56958 ] concat
  q
0 g
2.412512 w
1 J
1 j
[] 0.0 d
10 M q 1 0 0 -1 0 1080 cm
659.652 590.801 m 659.652 597.457 654.25 602.863 647.59 602.863 c 640.934
 602.863 635.527 597.457 635.527 590.801 c 635.527 584.141 640.934 578.738
 647.59 578.738 c 654.25 578.738 659.652 584.141 659.652 590.801 c h
659.652 590.801 m S Q
  Q
Q
q
0 1079.43 1105 -1080 re W n
[ 1 0 0 1 0 -0.56958 ] concat
  q
0 0.6 0 rg
744.816 432.41 m 744.816 425.75 739.41 420.348 732.754 420.348 c 726.094
 420.348 720.691 425.75 720.691 432.41 c 720.691 439.094 726.094 444.473
 732.754 444.473 c 739.41 444.473 744.816 439.094 744.816 432.41 c h
744.816 432.41 m f
  Q
Q
q
0 1079.43 1105 -1080 re W n
[ 1 0 0 1 0 -0.56958 ] concat
  q
0 g
2.412512 w
1 J
1 j
[] 0.0 d
10 M q 1 0 0 -1 0 1080 cm
744.816 647.59 m 744.816 654.25 739.41 659.652 732.754 659.652 c 726.094
 659.652 720.691 654.25 720.691 647.59 c 720.691 640.906 726.094 635.527
 732.754 635.527 c 739.41 635.527 744.816 640.906 744.816 647.59 c h
744.816 647.59 m S Q
  Q
Q
q
0 1079.43 1105 -1080 re W n
[ 1 0 0 1 0 -0.56958 ] concat
  q
0 0.6 0 rg
815.793 375.645 m 815.793 368.984 810.387 363.582 803.727 363.582 c 797.07
 363.582 791.664 368.984 791.664 375.645 c 791.664 382.301 797.07 387.707
 803.727 387.707 c 810.387 387.707 815.793 382.301 815.793 375.645 c h
815.793 375.645 m f
  Q
Q
q
0 1079.43 1105 -1080 re W n
[ 1 0 0 1 0 -0.56958 ] concat
  q
0 g
2.412512 w
1 J
1 j
[] 0.0 d
10 M q 1 0 0 -1 0 1080 cm
815.793 704.356 m 815.793 711.016 810.387 716.418 803.727 716.418 c 797.07
 716.418 791.664 711.016 791.664 704.356 c 791.664 697.699 797.07 692.293
 803.727 692.293 c 810.387 692.293 815.793 697.699 815.793 704.356 c h
815.793 704.356 m S Q
  Q
Q
q
0 1079.43 1105 -1080 re W n
[ 1 0 0 1 0 -0.56958 ] concat
  q
0 0.6 0 rg
812.945 304.668 m 812.945 298.008 807.539 292.605 800.883 292.605 c 794.223
 292.605 788.82 298.008 788.82 304.668 c 788.82 311.324 794.223 316.73 800.883
 316.73 c 807.539 316.73 812.945 311.324 812.945 304.668 c h
812.945 304.668 m f
  Q
Q
q
0 1079.43 1105 -1080 re W n
[ 1 0 0 1 0 -0.56958 ] concat
  q
0 g
2.412512 w
1 J
1 j
[] 0.0 d
10 M q 1 0 0 -1 0 1080 cm
812.945 775.332 m 812.945 781.992 807.539 787.395 800.883 787.395 c 794.223
 787.395 788.82 781.992 788.82 775.332 c 788.82 768.676 794.223 763.27 800.883
 763.27 c 807.539 763.27 812.945 768.676 812.945 775.332 c h
812.945 775.332 m S Q
  Q
Q
q
0 1079.43 1105 -1080 re W n
[ 1 0 0 1 0 -0.56958 ] concat
  q
0 g
2.412512 w
2 J
0 j
[] 0.0 d
10 M q 1 0 0 -1 0 1080 cm
751.762 840.617 m 751.762 843.293 749.617 845.441 746.938 845.441 c 744.285
 845.441 742.113 843.293 742.113 840.617 c 742.113 837.961 744.285 835.789
 746.938 835.789 c 749.617 835.789 751.762 837.961 751.762 840.617 c h
751.762 840.617 m S Q
  Q
Q
q
0 1079.43 1105 -1080 re W n
[ 1 0 0 1 0 -0.56958 ] concat
  q
0 g
2.412512 w
2 J
0 j
[] 0.0 d
10 M q 1 0 0 -1 0 1080 cm
680.813 908.746 m 680.813 911.422 678.641 913.57 675.984 913.57 c 673.309
 913.57 671.16 911.422 671.16 908.746 c 671.16 906.09 673.309 903.922 675.984
 903.922 c 678.641 903.922 680.813 906.09 680.813 908.746 c h
680.813 908.746 m S Q
  Q
Q
q
0 1079.43 1105 -1080 re W n
[ 1 0 0 1 0 -0.56958 ] concat
  q
0 g
2.412512 w
2 J
0 j
[] 0.0 d
10 M q 1 0 0 -1 0 1080 cm
581.441 914.414 m 581.441 917.094 579.293 919.238 576.613 919.238 c 573.961
 919.238 571.789 917.094 571.789 914.414 c 571.789 911.762 573.961 909.59
 576.613 909.59 c 579.293 909.59 581.441 911.762 581.441 914.414 c h
581.441 914.414 m S Q
  Q
Q
q
0 1079.43 1105 -1080 re W n
[ 1 0 0 1 0 -0.56958 ] concat
  q
0 g
2.412512 w
2 J
0 j
[] 0.0 d
10 M q 1 0 0 -1 0 1080 cm
536.035 974.027 m 536.035 976.707 533.863 978.852 531.211 978.852 c 528.531
 978.852 526.387 976.707 526.387 974.027 c 526.387 971.375 528.531 969.203
 531.211 969.203 c 533.863 969.203 536.035 971.375 536.035 974.027 c h
536.035 974.027 m S Q
  Q
Q
q
0 1079.43 1105 -1080 re W n
[ 1 0 0 1 0 -0.56958 ] concat
  q
0 g
2.412512 w
2 J
0 j
[] 0.0 d
10 M q 1 0 0 -1 0 1080 cm
462.215 1050.699 m 462.215 1053.352 460.066 1055.524 457.387 1055.524 c
 454.734 1055.524 452.563 1053.352 452.563 1050.699 c 452.563 1048.02 454.734
 1045.871 457.387 1045.871 c 460.066 1045.871 462.215 1048.02 462.215 1050.699
 c h
462.215 1050.699 m S Q
  Q
Q
q
0 1079.43 1105 -1080 re W n
[ 1 0 0 1 0 -0.56958 ] concat
  q
0 g
2.412512 w
2 J
0 j
[] 0.0 d
10 M q 1 0 0 -1 0 1080 cm
371.383 1059.215 m 371.383 1061.867 369.211 1064.039 366.559 1064.039 c
 363.879 1064.039 361.73 1061.867 361.73 1059.215 c 361.73 1056.535 363.879
 1054.387 366.559 1054.387 c 369.211 1054.387 371.383 1056.535 371.383 1059.215
 c h
371.383 1059.215 m S Q
  Q
Q
q
0 1079.43 1105 -1080 re W n
[ 1 0 0 1 0 -0.56958 ] concat
  q
1 0.498039 0 rg
600.039 917.855 m 600.039 911.195 594.637 905.793 587.977 905.793 c 581.32
 905.793 575.914 911.195 575.914 917.855 c 575.914 924.512 581.32 929.918
 587.977 929.918 c 594.637 929.918 600.039 924.512 600.039 917.855 c h
600.039 917.855 m f
  Q
Q
q
0 1079.43 1105 -1080 re W n
[ 1 0 0 1 0 -0.56958 ] concat
  q
0 g
2.412512 w
1 J
1 j
[] 0.0 d
10 M q 1 0 0 -1 0 1080 cm
600.039 162.145 m 600.039 168.805 594.637 174.207 587.977 174.207 c 581.32
 174.207 575.914 168.805 575.914 162.145 c 575.914 155.488 581.32 150.082
 587.977 150.082 c 594.637 150.082 600.039 155.488 600.039 162.145 c h
600.039 162.145 m S Q
  Q
Q
q
0 1079.43 1105 -1080 re W n
[ 1 0 0 1 0 -0.56958 ] concat
  q
1 0 0 rg
834.391 293.039 m 834.391 287.707 830.074 283.387 824.742 283.387 c 819.41
 283.387 815.09 287.707 815.09 293.039 c 815.09 298.371 819.41 302.688 824.742
 302.688 c 830.074 302.688 834.391 298.371 834.391 293.039 c h
834.391 293.039 m f
  Q
Q
q
0 1079.43 1105 -1080 re W n
[ 1 0 0 1 0 -0.56958 ] concat
  q
0 g
2.412512 w
1 J
1 j
[] 0.0 d
10 M q 1 0 0 -1 0 1080 cm
834.391 786.961 m 834.391 792.293 830.074 796.613 824.742 796.613 c 819.41
 796.613 815.09 792.293 815.09 786.961 c 815.09 781.629 819.41 777.313 824.742
 777.313 c 830.074 777.313 834.391 781.629 834.391 786.961 c h
834.391 786.961 m S Q
  Q
Q
Q Q
showpage
%%Trailer
end restore
%%EOF
