%!PS-Adobe-3.0 EPSF-3.0
%%Creator: cairo 1.14.1 (http://cairographics.org)
%%CreationDate: Wed May 25 14:16:20 2016
%%Pages: 1
%%DocumentData: Clean7Bit
%%LanguageLevel: 2
%%BoundingBox: 0 0 243 210
%%EndComments
%%BeginProlog
save
50 dict begin
/q { gsave } bind def
/Q { grestore } bind def
/cm { 6 array astore concat } bind def
/w { setlinewidth } bind def
/J { setlinecap } bind def
/j { setlinejoin } bind def
/M { setmiterlimit } bind def
/d { setdash } bind def
/m { moveto } bind def
/l { lineto } bind def
/c { curveto } bind def
/h { closepath } bind def
/re { exch dup neg 3 1 roll 5 3 roll moveto 0 rlineto
      0 exch rlineto 0 rlineto closepath } bind def
/S { stroke } bind def
/f { fill } bind def
/f* { eofill } bind def
/n { newpath } bind def
/W { clip } bind def
/W* { eoclip } bind def
/BT { } bind def
/ET { } bind def
/pdfmark where { pop globaldict /?pdfmark /exec load put }
    { globaldict begin /?pdfmark /pop load def /pdfmark
    /cleartomark load def end } ifelse
/BDC { mark 3 1 roll /BDC pdfmark } bind def
/EMC { mark /EMC pdfmark } bind def
/cairo_store_point { /cairo_point_y exch def /cairo_point_x exch def } def
/Tj { show currentpoint cairo_store_point } bind def
/TJ {
  {
    dup
    type /stringtype eq
    { show } { -0.001 mul 0 cairo_font_matrix dtransform rmoveto } ifelse
  } forall
  currentpoint cairo_store_point
} bind def
/cairo_selectfont { cairo_font_matrix aload pop pop pop 0 0 6 array astore
    cairo_font exch selectfont cairo_point_x cairo_point_y moveto } bind def
/Tf { pop /cairo_font exch def /cairo_font_matrix where
      { pop cairo_selectfont } if } bind def
/Td { matrix translate cairo_font_matrix matrix concatmatrix dup
      /cairo_font_matrix exch def dup 4 get exch 5 get cairo_store_point
      /cairo_font where { pop cairo_selectfont } if } bind def
/Tm { 2 copy 8 2 roll 6 array astore /cairo_font_matrix exch def
      cairo_store_point /cairo_font where { pop cairo_selectfont } if } bind def
/g { setgray } bind def
/rg { setrgbcolor } bind def
/d1 { setcachedevice } bind def
%%EndProlog
%%BeginSetup
%%EndSetup
%%Page: 1 1
%%BeginPageSetup
%%PageBoundingBox: 0 0 243 210
%%EndPageSetup
q 0 0 243 210 rectclip q
0 g
0.73326 w
1 J
1 j
[] 0.0 d
3 M q 0.214894 -1 -1 -0.214894 0 209.184753 cm
25.925 -80.487 m 26.281 -80.489 l 39.722 -80.487 l S Q
83.223 202.083 m 82.938 203.407 83.781 204.712 85.105 204.997 c 86.43 205.282
 87.734 204.439 88.02 203.114 c 88.301 201.79 87.461 200.486 86.137 200.2
 c 84.813 199.919 83.508 200.759 83.223 202.083 c h
83.223 202.083 m f*
91.938 184.876 m 92.223 183.552 91.379 182.247 90.055 181.962 c 88.73 181.677
 87.426 182.521 87.141 183.845 c 86.855 185.169 87.699 186.474 89.023 186.759
 c 90.348 187.044 91.652 186.2 91.938 184.876 c h
91.938 184.876 m f*
0.67082 w
q 1 -0.500001 -0.500001 -1 0 209.184753 cm
83.427 -15.959 m 83.75 -15.961 l 97.364 -15.959 l S Q
88.441 182.173 m 87.227 182.779 86.738 184.251 87.344 185.462 c 87.949 
186.673 89.422 187.165 90.633 186.56 c 91.844 185.954 92.336 184.482 91.73
 183.271 c 91.125 182.06 89.652 181.568 88.441 182.173 c h
88.441 182.173 m f*
108.633 177.56 m 109.844 176.954 110.336 175.482 109.73 174.271 c 109.125
 173.06 107.652 172.568 106.441 173.173 c 105.23 173.779 104.738 175.251
 105.344 176.462 c 105.949 177.673 107.422 178.165 108.633 177.56 c h
108.633 177.56 m f*
0.737153 w
q -1 -0.187506 -0.187506 1 0 209.184753 cm
-95.702 -52.152 m -95.346 -52.151 l -64.17 -52.153 l S Q
107.086 177.775 m 108.418 178.025 109.699 177.146 109.949 175.814 c 110.195
 174.486 109.32 173.204 107.988 172.954 c 106.656 172.704 105.375 173.579
 105.125 174.911 c 104.875 176.243 105.754 177.525 107.086 177.775 c h
107.086 177.775 m f*
71.992 166.204 m 70.66 165.954 69.379 166.829 69.129 168.161 c 68.879 169.493
 69.758 170.775 71.086 171.025 c 72.418 171.275 73.699 170.396 73.949 169.064
 c 74.199 167.736 73.324 166.454 71.992 166.204 c h
71.992 166.204 m f*
0.6103 w
q 0.714286 -1 -1 -0.714286 0 209.184753 cm
62.4 -28.183 m 62.694 -28.184 l 74.451 -28.184 l S Q
69.543 167.193 m 68.754 168.294 69.008 169.825 70.113 170.614 c 71.215 
171.4 72.746 171.146 73.531 170.044 c 74.32 168.939 74.066 167.407 72.965
 166.622 c 71.859 165.833 70.328 166.091 69.543 167.193 c h
69.543 167.193 m f*
84.781 154.294 m 85.57 153.193 85.316 151.657 84.211 150.872 c 83.109 150.083
 81.578 150.341 80.793 151.443 c 80.004 152.544 80.258 154.075 81.363 154.864
 c 82.465 155.65 83.996 155.396 84.781 154.294 c h
84.781 154.294 m f*
0.738908 w
q -1 -0.173917 -0.173917 1 0 209.184753 cm
-68.789 -68.639 m -68.433 -68.64 l -47.39 -68.64 l S Q
82.367 155.282 m 83.703 155.517 84.973 154.622 85.207 153.286 c 85.438 
151.954 84.543 150.681 83.211 150.45 c 81.875 150.22 80.605 151.111 80.371
 152.446 c 80.141 153.782 81.035 155.052 82.367 155.282 c h
82.367 155.282 m f*
57.332 145.95 m 56 145.72 54.727 146.611 54.496 147.946 c 54.266 149.282
 55.156 150.552 56.492 150.782 c 57.828 151.013 59.098 150.122 59.328 148.786
 c 59.563 147.45 58.668 146.181 57.332 145.95 c h
57.332 145.95 m f*
0.624038 w
q -1 0.666665 0.666665 1 0 209.184753 cm
-65.734 -15.838 m -65.434 -15.838 l -52.637 -15.838 l S Q
58.277 150.404 m 59.402 149.65 59.707 148.13 58.957 147.001 c 58.203 145.876
 56.684 145.571 55.555 146.321 c 54.43 147.071 54.125 148.595 54.875 149.724
 c 55.625 150.849 57.148 151.154 58.277 150.404 c h
58.277 150.404 m f*
38.676 157.575 m 37.551 158.325 37.246 159.849 37.996 160.974 c 38.746 
162.103 40.27 162.407 41.398 161.654 c 42.523 160.904 42.828 159.38 42.078
 158.255 c 41.328 157.126 39.805 156.821 38.676 157.575 c h
38.676 157.575 m f*
q -0.666665 -1 -1 0.666665 0 209.184753 cm
17.58 -50.599 m 17.88 -50.6 l 27.299 -50.598 l S Q
38 160.974 m 38.75 162.099 40.273 162.404 41.398 161.654 c 42.527 160.904
 42.832 159.38 42.082 158.251 c 41.328 157.126 39.805 156.821 38.68 157.571
 c 37.551 158.325 37.246 159.845 38 160.974 c h
38 160.974 m f*
33.082 144.751 m 32.328 143.626 30.805 143.321 29.68 144.071 c 28.551 144.825
 28.246 146.345 29 147.474 c 29.75 148.599 31.273 148.904 32.398 148.154
 c 33.527 147.404 33.832 145.88 33.082 144.751 c h
33.082 144.751 m f*
0.53033 w
q 1 -1 -1 -1 0 209.184753 cm
48.531 16.016 m 58.539 16.016 l S Q
29.305 144.384 m 28.344 145.341 28.344 146.892 29.305 147.853 c 30.262 
148.81 31.813 148.81 32.77 147.853 c 33.73 146.892 33.73 145.341 32.77 144.384
 c 31.813 143.423 30.262 143.423 29.305 144.384 c h
29.305 144.384 m f*
45.992 134.63 m 46.949 133.673 46.949 132.122 45.992 131.165 c 45.031 130.204
 43.48 130.204 42.523 131.165 c 41.566 132.122 41.566 133.673 42.523 134.63
 c 43.48 135.591 45.031 135.591 45.992 134.63 c h
45.992 134.63 m f*
0.75 w
42.168 132.9 m 24.488 132.9 l S
44.262 135.353 m 45.613 135.353 46.715 134.255 46.715 132.9 c 46.715 131.544
 45.613 130.446 44.262 130.446 c 42.906 130.446 41.809 131.544 41.809 132.9
 c 41.809 134.255 42.906 135.353 44.262 135.353 c h
44.262 135.353 m f*
22.035 130.446 m 20.68 130.446 19.582 131.544 19.582 132.9 c 19.582 134.255
 20.68 135.353 22.035 135.353 c 23.391 135.353 24.488 134.255 24.488 132.9
 c 24.488 131.544 23.391 130.446 22.035 130.446 c h
22.035 130.446 m f*
0.629459 w
q -1 -0.647821 -0.647821 1 0 209.184753 cm
21.038 -63.793 m 21.343 -63.795 l 32.151 -63.793 l S Q
20.711 134.958 m 21.848 135.693 23.367 135.368 24.102 134.232 c 24.84 133.095
 24.516 131.575 23.379 130.841 c 22.242 130.103 20.723 130.427 19.984 131.564
 c 19.25 132.7 19.574 134.22 20.711 134.958 c h
20.711 134.958 m f*
8.449 121.169 m 7.313 120.435 5.797 120.759 5.059 121.896 c 4.324 123.032
 4.648 124.552 5.785 125.286 c 6.922 126.025 8.438 125.7 9.176 124.564 c
 9.91 123.427 9.586 121.907 8.449 121.169 c h
8.449 121.169 m f*
0.66984 w
q 1 -0.50365 -0.50365 -1 0 209.184753 cm
47.261 84.514 m 47.582 84.516 l 66.918 84.516 l S Q
1.723 99.618 m 0.512 100.228 0.027 101.7 0.637 102.911 c 1.246 104.122 
2.719 104.607 3.93 103.997 c 5.137 103.388 5.625 101.915 5.016 100.704 c
 4.406 99.497 2.934 99.009 1.723 99.618 c h
1.723 99.618 m f*
27.645 92.056 m 28.855 91.446 29.344 89.97 28.734 88.759 c 28.125 87.552
 26.648 87.064 25.438 87.673 c 24.23 88.282 23.742 89.759 24.352 90.966 
c 24.961 92.177 26.438 92.665 27.645 92.056 c h
27.645 92.056 m f*
0.53033 w
q -1 -1 -1 1 0 209.184753 cm
47.867 -72.93 m 48.123 -72.928 l 55.908 -72.928 l S Q
24.805 91.603 m 25.766 92.56 27.316 92.56 28.273 91.603 c 29.234 90.646
 29.234 89.091 28.273 88.134 c 27.316 87.177 25.766 87.177 24.805 88.134
 c 23.848 89.091 23.848 90.646 24.805 91.603 c h
24.805 91.603 m f*
17.02 76.88 m 16.063 75.923 14.512 75.923 13.555 76.88 c 12.594 77.841 
12.594 79.392 13.555 80.349 c 14.512 81.306 16.063 81.306 17.02 80.349 c
 17.98 79.392 17.98 77.841 17.02 76.88 c h
17.02 76.88 m f*
0.75 w
q 0 -1 -1 0 0 209.184753 cm
132.66 -15.289 m 152.871 -15.289 l S Q
12.836 78.618 m 12.836 79.974 13.934 81.071 15.289 81.071 c 16.645 81.071
 17.742 79.974 17.742 78.618 c 17.742 77.263 16.645 76.165 15.289 76.165
 c 13.934 76.165 12.836 77.263 12.836 78.618 c h
12.836 78.618 m f*
17.742 53.864 m 17.742 52.509 16.645 51.411 15.289 51.411 c 13.934 51.411
 12.836 52.509 12.836 53.864 c 12.836 55.216 13.934 56.314 15.289 56.314
 c 16.645 56.314 17.742 55.216 17.742 53.864 c h
17.742 53.864 m f*
0.73214 w
q 1 -0.222222 -0.222222 -1 0 209.184753 cm
49.5 144.773 m 49.852 144.773 l 65.317 144.774 l S Q
14.754 51.47 m 13.434 51.767 12.598 53.075 12.891 54.396 c 13.188 55.72
 14.496 56.552 15.82 56.259 c 17.141 55.966 17.973 54.657 17.68 53.333 c
 17.387 52.013 16.078 51.177 14.754 51.47 c h
14.754 51.47 m f*
36.07 51.759 m 37.391 51.466 38.227 50.157 37.93 48.833 c 37.637 47.513
 36.328 46.677 35.004 46.97 c 33.684 47.267 32.848 48.575 33.145 49.896 
c 33.438 51.22 34.746 52.052 36.07 51.759 c h
36.07 51.759 m f*
0.685359 w
q 0.444445 -1 -1 -0.444445 0 209.184753 cm
148.558 29.639 m 148.887 29.637 l 164.659 29.639 l S Q
33.297 48.372 m 32.746 49.611 33.305 51.06 34.543 51.611 c 35.781 52.157
 37.23 51.603 37.777 50.364 c 38.328 49.126 37.773 47.677 36.535 47.126 
c 35.297 46.575 33.848 47.134 33.297 48.372 c h
33.297 48.372 m f*
46.781 30.111 m 47.332 28.872 46.773 27.423 45.535 26.872 c 44.297 26.321
 42.848 26.88 42.301 28.118 c 41.75 29.353 42.305 30.802 43.543 31.353 c
 44.781 31.904 46.23 31.345 46.781 30.111 c h
46.781 30.111 m f*
0.673495 w
q 0.489992 -1 -1 -0.489992 0 209.184753 cm
164.68 35.235 m 165.005 35.234 l 180.056 35.234 l S Q
42.336 28.04 m 41.738 29.255 42.242 30.724 43.457 31.321 c 44.676 31.915
 46.145 31.411 46.742 30.196 c 47.336 28.982 46.832 27.513 45.617 26.915
 c 44.402 26.318 42.934 26.821 42.336 28.04 c h
42.336 28.04 m f*
56.273 10.743 m 56.871 9.525 56.367 8.056 55.148 7.462 c 53.934 6.864 52.465
 7.368 51.867 8.583 c 51.273 9.798 51.777 11.271 52.992 11.864 c 54.207 
12.462 55.676 11.958 56.273 10.743 c h
56.273 10.743 m f*
0.678805 w
q 1 0.469859 0.469859 -1 0 209.184753 cm
-30.609 184.255 m -30.285 184.255 l -17.249 184.255 l S Q
55.113 7.439 m 53.887 6.861 52.426 7.388 51.852 8.614 c 51.273 9.841 51.801
 11.302 53.027 11.876 c 54.254 12.454 55.715 11.927 56.289 10.7 c 56.867
 9.474 56.34 8.013 55.113 7.439 c h
55.113 7.439 m f*
70.5 20.087 m 71.727 20.661 73.188 20.134 73.762 18.911 c 74.34 17.685 
73.813 16.224 72.586 15.646 c 71.359 15.071 69.898 15.599 69.324 16.825 
c 68.746 18.048 69.273 19.509 70.5 20.087 c h
70.5 20.087 m f*
0.624038 w
q -0.666665 1 1 0.666665 0 209.184753 cm
-163.735 -38.777 m -163.434 -38.776 l -154.017 -38.775 l S Q
73.582 19.22 m 74.332 18.091 74.027 16.568 72.902 15.818 c 71.773 15.068
 70.254 15.372 69.5 16.497 c 68.75 17.626 69.055 19.15 70.18 19.9 c 71.309
 20.65 72.832 20.345 73.582 19.22 c h
73.582 19.22 m f*
60.5 29.997 m 59.75 31.126 60.055 32.65 61.18 33.4 c 62.309 34.15 63.832
 33.845 64.582 32.72 c 65.332 31.591 65.027 30.068 63.902 29.318 c 62.773
 28.568 61.254 28.872 60.5 29.997 c h
60.5 29.997 m f*
0.696358 w
q 1 0.4 0.4 -1 0 209.184753 cm
-5.463 174.858 m 12.819 174.858 l S Q
63.449 29.087 m 62.191 28.583 60.762 29.196 60.258 30.454 c 59.758 31.712
 60.367 33.138 61.625 33.642 c 62.883 34.146 64.313 33.532 64.813 32.275
 c 65.316 31.017 64.703 29.591 63.449 29.087 c h
63.449 29.087 m f*
84.129 42.642 m 85.387 43.146 86.813 42.532 87.316 41.275 c 87.816 40.017
 87.207 38.591 85.949 38.087 c 84.691 37.583 83.266 38.196 82.762 39.454
 c 82.258 40.712 82.871 42.138 84.129 42.642 c h
84.129 42.642 m f*
0.53033 w
q 1 -1 -1 -1 0 209.184753 cm
128.406 41.891 m 137.945 41.891 l S Q
83.305 38.634 m 82.344 39.591 82.344 41.142 83.305 42.103 c 84.262 43.06
 85.813 43.06 86.77 42.103 c 87.73 41.142 87.73 39.591 86.77 38.634 c 85.813
 37.677 84.262 37.677 83.305 38.634 c h
83.305 38.634 m f*
99.523 29.349 m 100.48 28.392 100.48 26.837 99.523 25.88 c 98.566 24.923
 97.012 24.923 96.055 25.88 c 95.098 26.837 95.098 28.392 96.055 29.349 
c 97.012 30.306 98.566 30.306 99.523 29.349 c h
99.523 29.349 m f*
0.699663 w
q -0.386088 -1 -1 0.386088 0 209.184753 cm
127.115 -146.113 m 127.451 -146.113 l 147.665 -146.113 l S Q
95.5 28.493 m 95.988 29.759 97.41 30.388 98.672 29.9 c 99.938 29.411 100.566
 27.989 100.078 26.728 c 99.59 25.462 98.168 24.833 96.906 25.321 c 95.641
 25.81 95.012 27.232 95.5 28.493 c h
95.5 28.493 m f*
90.504 1.935 m 90.016 0.673 88.598 0.044 87.336 0.532 c 86.07 1.021 85.441
 2.439 85.93 3.704 c 86.418 4.966 87.836 5.595 89.102 5.107 c 90.363 4.618
 90.992 3.2 90.504 1.935 c h
90.504 1.935 m f*
0.572686 w
q -1 0.845634 0.845634 1 0 209.184753 cm
-192.889 -32.906 m -192.614 -32.904 l -173.233 -32.907 l S Q
168.246 13.689 m 169.277 12.814 169.406 11.267 168.535 10.232 c 167.66 
9.196 166.109 9.068 165.078 9.943 c 164.043 10.818 163.914 12.364 164.789
 13.4 c 165.664 14.431 167.211 14.56 168.246 13.689 c h
168.246 13.689 m f*
141.953 29.497 m 140.918 30.372 140.789 31.919 141.664 32.954 c 142.539
 33.989 144.086 34.118 145.117 33.243 c 146.152 32.368 146.281 30.821 145.406
 29.786 c 144.535 28.751 142.984 28.622 141.953 29.497 c h
141.953 29.497 m f*
0.67082 w
q 0.500001 1 1 -0.500001 0 209.184753 cm
-82.97 185.958 m -82.65 185.958 l -69.036 185.959 l S Q
145.73 30.267 m 145.125 29.052 143.652 28.564 142.441 29.169 c 141.23 29.775
 140.738 31.247 141.344 32.458 c 141.949 33.669 143.422 34.161 144.633 33.556
 c 145.848 32.95 146.336 31.478 145.73 30.267 c h
145.73 30.267 m f*
150.344 50.458 m 150.949 51.669 152.422 52.161 153.633 51.556 c 154.848
 50.95 155.336 49.478 154.73 48.267 c 154.125 47.056 152.652 46.564 151.441
 47.169 c 150.23 47.775 149.738 49.247 150.344 50.458 c h
150.344 50.458 m f*
0.727608 w
q -1 0.249995 0.249995 1 0 209.184753 cm
-179.14 -114.532 m -178.792 -114.529 l -165.55 -114.531 l S Q
153.133 51.739 m 154.445 51.411 155.246 50.083 154.918 48.767 c 154.59 
47.454 153.258 46.654 151.945 46.982 c 150.629 47.31 149.832 48.642 150.16
 49.958 c 150.488 51.271 151.82 52.071 153.133 51.739 c h
153.133 51.739 m f*
133.941 51.482 m 132.629 51.81 131.828 53.142 132.156 54.458 c 132.488 
55.771 133.816 56.571 135.133 56.243 c 136.445 55.911 137.246 54.583 136.918
 53.267 c 136.59 51.954 135.258 51.154 133.941 51.482 c h
133.941 51.482 m f*
0.685359 w
q 0.444445 1 1 -0.444445 0 209.184753 cm
-77.859 169.991 m -77.53 169.993 l -61.757 169.991 l S Q
136.781 52.868 m 136.23 51.63 134.781 51.071 133.543 51.622 c 132.305 52.173
 131.746 53.622 132.297 54.861 c 132.848 56.095 134.297 56.654 135.535 56.103
 c 136.773 55.556 137.328 54.103 136.781 52.868 c h
136.781 52.868 m f*
141.301 75.114 m 141.848 76.353 143.297 76.907 144.535 76.361 c 145.773
 75.81 146.332 74.361 145.781 73.122 c 145.23 71.884 143.781 71.325 142.543
 71.876 c 141.305 72.427 140.75 73.876 141.301 75.114 c h
141.301 75.114 m f*
0.651182 w
q -0.571431 1 1 0.571431 0 209.184753 cm
-161.84 50.019 m -161.529 50.021 l -150.033 50.021 l S Q
145.668 75.325 m 146.34 74.15 145.934 72.654 144.758 71.982 c 143.582 71.31
 142.082 71.716 141.41 72.892 c 140.738 74.071 141.148 75.568 142.324 76.239
 c 143.5 76.911 144.996 76.505 145.668 75.325 c h
145.668 75.325 m f*
132.406 88.65 m 131.734 89.825 132.145 91.321 133.32 91.993 c 134.496 92.665
 135.996 92.259 136.668 91.083 c 137.34 89.904 136.93 88.407 135.754 87.736
 c 134.578 87.064 133.078 87.47 132.406 88.65 c h
132.406 88.65 m f*
0.670821 w
q -1 -0.499999 -0.499999 1 0 209.184753 cm
-58.036 -149.272 m -57.713 -149.27 l -40.7 -149.272 l S Q
133.445 92.06 m 134.656 92.665 136.129 92.177 136.734 90.962 c 137.34 89.751
 136.852 88.279 135.641 87.673 c 134.426 87.068 132.953 87.56 132.348 88.771
 c 131.742 89.982 132.234 91.454 133.445 92.06 c h
133.445 92.06 m f*
114.238 76.974 m 113.027 76.368 111.555 76.861 110.949 78.071 c 110.344
 79.282 110.836 80.755 112.047 81.361 c 113.258 81.966 114.73 81.474 115.336
 80.263 c 115.941 79.052 115.453 77.579 114.238 76.974 c h
114.238 76.974 m f*
0.624669 w
q -0.664474 1 1 0.664474 0 209.184753 cm
-140.604 18.557 m -140.303 18.557 l -129.185 18.555 l S Q
115.184 80.525 m 115.934 79.396 115.625 77.876 114.496 77.126 c 113.371
 76.376 111.848 76.681 111.098 77.81 c 110.348 78.939 110.656 80.462 111.785
 81.212 c 112.91 81.958 114.434 81.654 115.184 80.525 c h
115.184 80.525 m f*
100.996 93.013 m 100.246 94.142 100.551 95.665 101.68 96.415 c 102.809 
97.165 104.332 96.857 105.082 95.728 c 105.828 94.603 105.523 93.079 104.395
 92.329 c 103.266 91.579 101.746 91.888 100.996 93.013 c h
100.996 93.013 m f*
0.643119 w
q 0.600001 1 1 -0.600001 0 209.184753 cm
-37.176 126.419 m -36.866 126.421 l -18.57 126.419 l S Q
105.141 93.103 m 104.445 91.939 102.938 91.564 101.777 92.259 c 100.613
 92.958 100.238 94.462 100.934 95.626 c 101.633 96.786 103.137 97.161 104.301
 96.466 c 105.461 95.771 105.836 94.263 105.141 93.103 c h
105.141 93.103 m f*
114.438 118.13 m 115.133 119.29 116.641 119.669 117.801 118.97 c 118.965
 118.275 119.34 116.767 118.645 115.607 c 117.945 114.443 116.441 114.068
 115.277 114.763 c 114.117 115.462 113.742 116.97 114.438 118.13 c h
114.438 118.13 m f*
0.711513 w
q 1 -0.333332 -0.333332 -1 0 209.184753 cm
134.565 48.126 m 134.905 48.126 l 157.257 48.128 l S Q
115.762 114.54 m 114.477 114.966 113.781 116.357 114.211 117.642 c 114.641
 118.927 116.027 119.622 117.313 119.193 c 118.598 118.763 119.293 117.376
 118.863 116.091 c 118.438 114.806 117.047 114.111 115.762 114.54 c h
115.762 114.54 m f*
144.316 110.193 m 145.602 109.763 146.297 108.372 145.867 107.087 c 145.441
 105.802 144.051 105.111 142.766 105.536 c 141.48 105.966 140.785 107.357
 141.215 108.638 c 141.645 109.923 143.031 110.618 144.316 110.193 c h
144.316 110.193 m f*
0.727608 w
q -0.249995 1 1 0.249995 0 209.184753 cm
-127.111 111.258 m -126.759 111.256 l -113.517 111.258 l S Q
145.922 108.454 m 146.25 107.142 145.449 105.81 144.137 105.482 c 142.82
 105.154 141.488 105.95 141.16 107.263 c 140.832 108.579 141.633 109.911
 142.945 110.239 c 144.262 110.568 145.59 109.767 145.922 108.454 c h
145.922 108.454 m f*
136.66 125.267 m 136.332 126.579 137.133 127.911 138.445 128.239 c 139.762
 128.568 141.09 127.771 141.422 126.454 c 141.75 125.142 140.949 123.81 
139.637 123.482 c 138.32 123.154 136.988 123.95 136.66 125.267 c h
136.66 125.267 m f*
0.67082 w
q 1 0.500001 0.500001 -1 0 209.184753 cm
79.775 122.27 m 80.095 122.27 l 93.708 122.272 l S Q
140.133 123.669 m 138.922 123.064 137.449 123.556 136.844 124.767 c 136.238
 125.978 136.73 127.45 137.941 128.06 c 139.152 128.665 140.625 128.173 
141.23 126.962 c 141.836 125.751 141.344 124.275 140.133 123.669 c h
140.133 123.669 m f*
155.941 137.06 m 157.152 137.665 158.625 137.173 159.23 135.962 c 159.836
 134.751 159.348 133.279 158.133 132.669 c 156.922 132.064 155.449 132.556
 154.844 133.767 c 154.238 134.978 154.73 136.45 155.941 137.06 c h
155.941 137.06 m f*
0.643119 w
q 0.600001 -1 -1 -0.600001 0 209.184753 cm
125.722 -82.68 m 126.031 -82.682 l 144.329 -82.684 l S Q
154.934 133.607 m 154.238 134.767 154.613 136.275 155.777 136.97 c 156.938
 137.665 158.445 137.29 159.141 136.13 c 159.84 134.966 159.461 133.462 
158.301 132.763 c 157.137 132.068 155.633 132.443 154.934 133.607 c h
154.934 133.607 m f*
172.645 113.622 m 173.34 112.462 172.965 110.954 171.805 110.259 c 170.641
 109.564 169.137 109.939 168.438 111.099 c 167.742 112.263 168.117 113.767
 169.281 114.466 c 170.441 115.161 171.949 114.786 172.645 113.622 c h
172.645 113.622 m f*
0.67082 w
q 0.500001 1 1 -0.500001 0 209.184753 cm
-7.37 175.158 m -7.05 175.158 l 6.564 175.159 l S Q
172.73 111.267 m 172.125 110.052 170.652 109.564 169.441 110.169 c 168.23
 110.775 167.738 112.247 168.344 113.458 c 168.949 114.669 170.422 115.161
 171.633 114.556 c 172.848 113.95 173.336 112.478 172.73 111.267 c h
172.73 111.267 m f*
177.344 131.458 m 177.949 132.669 179.422 133.161 180.633 132.556 c 181.848
 131.95 182.336 130.478 181.73 129.267 c 181.125 128.056 179.652 127.564
 178.441 128.169 c 177.23 128.775 176.738 130.247 177.344 131.458 c h
177.344 131.458 m f*
0.53033 w
q 1 1 1 -1 0 209.184753 cm
51.838 129.178 m 52.094 129.18 l 57.629 129.18 l S Q
181.273 128.63 m 180.313 127.673 178.762 127.673 177.805 128.63 c 176.844
 129.587 176.844 131.142 177.805 132.099 c 178.762 133.056 180.313 133.056
 181.273 132.099 c 182.23 131.142 182.23 129.587 181.273 128.63 c h
181.273 128.63 m f*
186.809 141.103 m 187.766 142.06 189.32 142.06 190.277 141.103 c 191.234
 140.146 191.234 138.591 190.277 137.634 c 189.32 136.677 187.766 136.677
 186.809 137.634 c 185.852 138.591 185.852 140.146 186.809 141.103 c h
186.809 141.103 m f*
0.576166 w
q 1 -0.833334 -0.833334 -1 0 209.184753 cm
147.211 -51.52 m 147.488 -51.52 l 157.223 -51.52 l S Q
186.969 137.482 m 185.926 138.349 185.785 139.896 186.652 140.939 c 187.52
 141.978 189.066 142.118 190.105 141.251 c 191.148 140.384 191.289 138.837
 190.422 137.798 c 189.555 136.755 188.008 136.614 186.969 137.482 c h
186.969 137.482 m f*
203.609 130.001 m 204.648 129.134 204.789 127.587 203.922 126.544 c 203.055
 125.505 201.508 125.364 200.469 126.232 c 199.43 127.099 199.289 128.646
 200.156 129.685 c 201.023 130.728 202.566 130.868 203.609 130.001 c h
203.609 130.001 m f*
0.685361 w
q -0.444434 -1 -1 0.444434 0 209.184753 cm
-5.37 -198.801 m -5.039 -198.804 l 10.732 -198.801 l S Q
199.797 129.107 m 200.348 130.345 201.797 130.904 203.031 130.353 c 204.27
 129.802 204.828 128.353 204.277 127.114 c 203.727 125.876 202.277 125.321
 201.043 125.868 c 199.805 126.419 199.246 127.868 199.797 129.107 c h
199.797 129.107 m f*
195.277 106.861 m 194.727 105.622 193.277 105.064 192.039 105.614 c 190.801
 106.165 190.242 107.614 190.793 108.853 c 191.344 110.091 192.793 110.646
 194.031 110.099 c 195.27 109.548 195.828 108.099 195.277 106.861 c h
195.277 106.861 m f*
0.53033 w
q 1 -1 -1 -1 0 209.184753 cm
148.656 -45.859 m 160.523 -45.859 l S Q
191.305 106.134 m 190.344 107.091 190.344 108.642 191.305 109.603 c 192.262
 110.56 193.813 110.56 194.77 109.603 c 195.73 108.642 195.73 107.091 194.77
 106.134 c 193.813 105.177 192.262 105.177 191.305 106.134 c h
191.305 106.134 m f*
209.852 94.521 m 210.809 93.564 210.809 92.013 209.852 91.056 c 208.895
 90.095 207.34 90.095 206.383 91.056 c 205.426 92.013 205.426 93.564 206.383
 94.521 c 207.34 95.482 208.895 95.482 209.852 94.521 c h
209.852 94.521 m f*
0.561144 w
q -0.886781 -1 -1 0.886781 0 209.184753 cm
-36.586 -174.279 m -36.317 -174.279 l -28.056 -174.28 l S Q
206.277 94.415 m 207.176 95.431 208.727 95.521 209.738 94.622 c 210.754
 93.724 210.848 92.177 209.945 91.161 c 209.047 90.15 207.5 90.056 206.484
 90.954 c 205.473 91.853 205.379 93.404 206.277 94.415 c h
206.277 94.415 m f*
199.367 79.232 m 198.469 78.22 196.918 78.126 195.906 79.025 c 194.891 
79.923 194.801 81.474 195.699 82.486 c 196.598 83.501 198.148 83.591 199.16
 82.693 c 200.172 81.794 200.266 80.243 199.367 79.232 c h
199.367 79.232 m f*
0.670821 w
q -1 -0.499999 -0.499999 1 0 209.184753 cm
-104.836 -181.672 m -104.513 -181.67 l -90.899 -181.672 l S Q
196.445 83.06 m 197.656 83.665 199.129 83.177 199.734 81.962 c 200.34 80.751
 199.852 79.279 198.641 78.673 c 197.426 78.068 195.953 78.56 195.348 79.771
 c 194.742 80.982 195.234 82.454 196.445 83.06 c h
196.445 83.06 m f*
180.641 69.673 m 179.426 69.068 177.953 69.56 177.348 70.771 c 176.742 
71.982 177.234 73.454 178.445 74.06 c 179.656 74.665 181.129 74.173 181.734
 72.962 c 182.34 71.751 181.852 70.279 180.641 69.673 c h
180.641 69.673 m f*
0.67082 w
q 1 -0.500001 -0.500001 -1 0 209.184753 cm
200.427 38.04 m 200.75 38.039 l 214.364 38.04 l S Q
178.441 69.673 m 177.227 70.279 176.738 71.751 177.344 72.962 c 177.949
 74.173 179.422 74.665 180.633 74.06 c 181.844 73.454 182.336 71.982 181.73
 70.771 c 181.125 69.56 179.652 69.068 178.441 69.673 c h
178.441 69.673 m f*
198.633 65.06 m 199.844 64.454 200.336 62.982 199.73 61.771 c 199.125 60.56
 197.652 60.068 196.441 60.673 c 195.23 61.279 194.738 62.751 195.344 63.962
 c 195.949 65.173 197.422 65.665 198.633 65.06 c h
198.633 65.06 m f*
0.710309 w
q 1 0.338937 0.338937 -1 0 209.184753 cm
134.682 191.297 m 135.022 191.295 l 162.506 191.298 l S Q
198.324 60.54 m 197.043 60.107 195.648 60.794 195.215 62.075 c 194.781 
63.361 195.469 64.751 196.75 65.189 c 198.031 65.622 199.426 64.935 199.859
 63.654 c 200.293 62.368 199.609 60.978 198.324 60.54 c h
198.324 60.54 m f*
228.879 76.075 m 230.164 76.513 231.555 75.825 231.988 74.54 c 232.426 
73.259 231.738 71.868 230.453 71.431 c 229.172 70.997 227.777 71.685 227.344
 72.966 c 226.91 74.251 227.598 75.642 228.879 76.075 c h
228.879 76.075 m f*
0.738991 w
q -0.173251 1 1 0.173251 0 209.184753 cm
-168.055 200.197 m -167.7 200.196 l -142.919 200.196 l S Q
232.086 74.169 m 232.316 72.837 231.422 71.568 230.09 71.333 c 228.754 
71.103 227.484 71.997 227.254 73.333 c 227.023 74.669 227.918 75.939 229.25
 76.169 c 230.586 76.4 231.855 75.505 232.086 74.169 c h
232.086 74.169 m f*
222.121 102.946 m 221.891 104.282 222.785 105.552 224.121 105.782 c 225.453
 106.013 226.723 105.118 226.957 103.782 c 227.188 102.45 226.293 101.181
 224.957 100.95 c 223.625 100.716 222.355 101.611 222.121 102.946 c h
222.121 102.946 m f*
0.670821 w
q 0.499999 1 1 -0.499999 0 209.184753 cm
7.029 221.958 m 7.351 221.961 l 20.964 221.959 l S Q
226.73 102.267 m 226.125 101.056 224.652 100.564 223.441 101.169 c 222.23
 101.775 221.738 103.247 222.344 104.458 c 222.949 105.673 224.422 106.161
 225.637 105.556 c 226.848 104.95 227.336 103.478 226.73 102.267 c h
226.73 102.267 m f*
231.344 122.462 m 231.949 123.673 233.422 124.161 234.637 123.556 c 235.848
 122.95 236.336 121.478 235.73 120.267 c 235.125 119.056 233.652 118.564
 232.441 119.169 c 231.23 119.775 230.738 121.247 231.344 122.462 c h
231.344 122.462 m f*
0.732629 w
q 0.219048 1 1 -0.219048 0 209.184753 cm
-32.942 241.204 m -32.591 241.202 l -7.848 241.204 l S Q
235.934 120.837 m 235.645 119.513 234.336 118.677 233.016 118.966 c 231.691
 119.255 230.852 120.564 231.145 121.888 c 231.434 123.212 232.742 124.048
 234.063 123.759 c 235.387 123.47 236.223 122.161 235.934 120.837 c h
235.934 120.837 m f*
237.613 151.423 m 237.902 152.743 239.211 153.583 240.531 153.294 c 241.855
 153.001 242.695 151.696 242.402 150.372 c 242.113 149.048 240.805 148.212
 239.484 148.501 c 238.16 148.79 237.324 150.099 237.613 151.423 c h
237.613 151.423 m f*
0.546591 w
q 1 -0.939559 -0.939559 -1 0 209.184753 cm
72.792 -64.135 m 73.054 -64.135 l 90.495 -64.135 l S Q
129.848 204.571 m 128.859 205.497 128.809 207.052 129.738 208.036 c 130.664
 209.025 132.219 209.075 133.203 208.146 c 134.191 207.22 134.238 205.665
 133.313 204.681 c 132.387 203.693 130.832 203.646 129.848 204.571 c h
129.848 204.571 m f*
154.219 188.404 m 155.207 187.474 155.254 185.923 154.328 184.935 c 153.398
 183.946 151.848 183.9 150.859 184.825 c 149.875 185.755 149.824 187.306
 150.754 188.294 c 151.68 189.282 153.23 189.329 154.219 188.404 c h
154.219 188.404 m f*
0.75 w
154.629 186.614 m 168.09 186.614 l S
152.535 184.161 m 151.184 184.161 150.086 185.259 150.086 186.614 c 150.086
 187.97 151.184 189.068 152.535 189.068 c 153.891 189.068 154.988 187.97
 154.988 186.614 c 154.988 185.259 153.891 184.161 152.535 184.161 c h
152.535 184.161 m f*
170.543 189.068 m 171.898 189.068 172.996 187.97 172.996 186.614 c 172.996
 185.259 171.898 184.161 170.543 184.161 c 169.188 184.161 168.09 185.259
 168.09 186.614 c 168.09 187.97 169.188 189.068 170.543 189.068 c h
170.543 189.068 m f*
0.67082 w
q 1 -0.500001 -0.500001 -1 0 209.184753 cm
147.326 -50.159 m 147.65 -50.161 l 165.764 -50.159 l S Q
169.441 184.423 m 168.227 185.029 167.738 186.501 168.344 187.712 c 168.949
 188.923 170.422 189.415 171.633 188.81 c 172.844 188.204 173.336 186.732
 172.73 185.521 c 172.125 184.31 170.652 183.818 169.441 184.423 c h
169.441 184.423 m f*
194.133 177.56 m 195.344 176.954 195.836 175.482 195.23 174.271 c 194.625
 173.06 193.152 172.568 191.938 173.173 c 190.727 173.779 190.238 175.251
 190.844 176.462 c 191.449 177.673 192.922 178.165 194.133 177.56 c h
194.133 177.56 m f*
0.696358 w
q 1 -0.4 -0.4 -1 0 209.184753 cm
180.016 -37.412 m 180.349 -37.409 l 198.298 -37.409 l S Q
192.125 173.091 m 190.867 173.591 190.258 175.021 190.762 176.279 c 191.262
 177.536 192.691 178.146 193.949 177.642 c 195.207 177.142 195.816 175.712
 195.313 174.454 c 194.813 173.196 193.383 172.587 192.125 173.091 c h
192.125 173.091 m f*
216.449 168.642 m 217.707 168.138 218.32 166.712 217.816 165.454 c 217.313
 164.196 215.887 163.587 214.629 164.087 c 213.371 164.591 212.758 166.021
 213.262 167.275 c 213.766 168.532 215.191 169.146 216.449 168.642 c h
216.449 168.642 m f*
0.747499 w
q 1 0.0818757 0.0818757 -1 0 209.184753 cm
86.597 13.508 m 86.957 13.506 l 127.98 13.506 l S Q
85.82 200.154 m 84.469 200.044 83.285 201.048 83.176 202.396 c 83.063 203.747
 84.07 204.931 85.418 205.04 c 86.77 205.154 87.953 204.146 88.063 202.798
 c 88.172 201.446 87.168 200.263 85.82 200.154 c h
85.82 200.154 m f*
131.328 208.802 m 132.68 208.911 133.863 207.907 133.973 206.556 c 134.086
 205.208 133.078 204.021 131.73 203.911 c 130.379 203.802 129.195 204.806
 129.086 206.157 c 128.977 207.505 129.98 208.689 131.328 208.802 c h
131.328 208.802 m f*
0.633944 w
q 1 -0.632184 -0.632184 -1 0 209.184753 cm
175.101 -66.759 m 175.405 -66.759 l 195.734 -66.759 l S Q
214.227 164.294 m 213.082 165.017 212.738 166.532 213.465 167.677 c 214.188
 168.821 215.703 169.165 216.848 168.439 c 217.992 167.716 218.332 166.2
 217.609 165.056 c 216.887 163.911 215.371 163.571 214.227 164.294 c h
214.227 164.294 m f*
241.32 152.966 m 242.465 152.243 242.809 150.728 242.086 149.583 c 241.359
 148.439 239.844 148.099 238.699 148.821 c 237.555 149.544 237.215 151.06
 237.938 152.204 c 238.66 153.349 240.176 153.693 241.32 152.966 c h
241.32 152.966 m f*
0.735435 w
q -0.200001 -1 -1 0.200001 0 209.184753 cm
83.334 -23.37 m 83.685 -23.37 l 100.299 -23.369 l S Q
4.707 123.712 m 4.973 125.04 6.266 125.9 7.594 125.634 c 8.922 125.368 
9.781 124.075 9.516 122.747 c 9.25 121.419 7.961 120.56 6.633 120.825 c 
5.305 121.091 4.441 122.384 4.707 123.712 c h
4.707 123.712 m f*
5.234 101.329 m 4.969 100.001 3.676 99.138 2.348 99.404 c 1.02 99.669 0.156
 100.962 0.422 102.29 c 0.688 103.618 1.98 104.478 3.309 104.212 c 4.637
 103.946 5.5 102.657 5.234 101.329 c h
5.234 101.329 m f*
0.75 w
90.309 2.829 m 118.59 2.829 l S
88.219 0.376 m 86.863 0.376 85.766 1.474 85.766 2.829 c 85.766 4.185 86.863
 5.282 88.219 5.282 c 89.57 5.282 90.668 4.185 90.668 2.829 c 90.668 1.474
 89.57 0.376 88.219 0.376 c h
88.219 0.376 m f*
121.043 5.282 m 122.395 5.282 123.496 4.185 123.496 2.829 c 123.496 1.474
 122.395 0.376 121.043 0.376 c 119.688 0.376 118.59 1.474 118.59 2.829 c
 118.59 4.185 119.688 5.282 121.043 5.282 c h
121.043 5.282 m f*
0.735866 w
q 1 0.196935 0.196935 -1 0 209.184753 cm
79.449 221.599 m 79.801 221.598 l 120.609 221.6 l S Q
121.512 0.423 m 120.184 0.161 118.891 1.025 118.629 2.353 c 118.367 3.685
 119.234 4.974 120.563 5.236 c 121.891 5.497 123.18 4.63 123.441 3.302 c
 123.703 1.974 122.84 0.685 121.512 0.423 c h
121.512 0.423 m f*
166.184 14.22 m 167.512 14.482 168.801 13.614 169.063 12.286 c 169.324 
10.958 168.457 9.669 167.129 9.407 c 165.801 9.146 164.512 10.009 164.25
 11.337 c 163.988 12.669 164.852 13.958 166.184 14.22 c h
166.184 14.22 m f*
Q Q
showpage
%%Trailer
end restore
%%EOF
